<svg width="617" height="351" viewBox="0 0 617 351" fill="none" xmlns="http://www.w3.org/2000/svg">
<g clip-path="url(#clip0)">
<path d="M492.368 137.495H590.681H617L596.699 152.153V180.987C596.699 184.312 594.005 187.007 590.681 187.007H492.368C489.045 187.007 486.351 184.312 486.351 180.987V143.515C486.342 140.19 489.045 137.495 492.368 137.495Z" fill="white"/>
<path d="M497.564 157.876C497.564 157.998 516.361 158.094 539.548 158.094C562.736 158.094 581.532 157.998 581.532 157.876C581.532 157.753 562.736 157.657 539.548 157.657C516.361 157.657 497.564 157.753 497.564 157.876Z" fill="#E0E0E0"/>
<path d="M497.564 168.946C497.564 169.068 516.361 169.164 539.548 169.164C562.736 169.164 581.532 169.068 581.532 168.946C581.532 168.823 562.736 168.727 539.548 168.727C516.361 168.727 497.564 168.823 497.564 168.946Z" fill="#E0E0E0"/>
<path d="M303.081 31.0833H297.247V50.6329H303.081V31.0833Z" fill="#A4E3FF"/>
<path d="M254.362 28.248H248.528V50.6242H254.362V28.248Z" fill="#A4E3FF"/>
<path d="M266.538 23.5838H260.704V50.6242H266.538V23.5838Z" fill="#A4E3FF"/>
<path d="M278.722 25.0714H272.888V50.6329H278.722V25.0714Z" fill="#A4E3FF"/>
<path d="M290.897 16.4255H285.063V50.6329H290.897V16.4255Z" fill="#A4E3FF"/>
<path d="M315.257 16.5918H309.423V50.6329H315.257V16.5918Z" fill="#A4E3FF"/>
<path d="M327.441 27.7667H321.607V50.6242H327.441V27.7667Z" fill="#A4E3FF"/>
<path d="M339.616 18.0882H333.782V50.6329H339.616V18.0882Z" fill="#A4E3FF"/>
<path d="M351.792 10.7549H345.958V50.6242H351.792V10.7549Z" fill="#A4E3FF"/>
<path d="M363.976 17.9219H358.142V50.6329H363.976V17.9219Z" fill="#A4E3FF"/>
<path d="M517.655 48.8215L565.893 41.4444C569.934 67.916 551.487 93.0312 525.029 97.0741C498.57 101.117 473.467 82.6613 469.426 56.1898C465.385 29.7182 483.832 4.603 510.29 0.560069C514.506 -0.0875007 518.784 -0.17501 523.017 0.297541L517.655 48.8215Z" fill="#E6F6FF"/>
<path d="M533.303 0.44632L527.443 37.8566L564.144 30.9608C564.144 30.9608 558.747 9.99359 533.303 0.44632Z" fill="#E6F6FF"/>
<path d="M25.1467 139.56C24.9368 126.311 35.4941 115.355 48.6753 115.136C61.8653 114.926 72.7637 125.532 72.9736 138.781C73.1835 152.03 62.6263 162.986 49.445 163.205C36.255 163.424 25.3566 152.818 25.1467 139.56ZM60.4921 138.991C60.3871 132.655 55.1828 127.58 48.8765 127.685C42.5701 127.79 37.5233 133.023 37.6282 139.359C37.7332 145.694 42.9375 150.77 49.2438 150.665C55.5415 150.569 60.5883 145.327 60.4921 138.991Z" fill="#E6F6FF"/>
<path d="M25.1467 139.56C24.9368 126.311 35.4941 115.355 48.6753 115.136L48.8765 127.676C42.5701 127.781 37.5233 133.014 37.6282 139.35C37.7332 145.686 42.9375 150.761 49.2438 150.656L49.445 163.196C36.255 163.424 25.3566 152.818 25.1467 139.56Z" fill="#E6F6FF"/>
<path d="M46.5236 113.211C61.9528 112.966 74.2594 124.937 74.5043 140.444L59.9061 140.68C59.7836 133.268 54.1507 128.595 46.7773 128.718L46.5236 113.211Z" fill="#E6F6FF"/>
<path d="M180.523 223.963H150.119V260.122H180.523V223.963Z" fill="#E6F6FF"/>
<path d="M151.169 221.6H13.7848V262.388H151.169V221.6Z" fill="#E6F6FF"/>
<path d="M181.441 225.03H147.487V221.6H181.441C182.386 221.6 183.156 222.37 183.156 223.315C183.156 224.26 182.386 225.03 181.441 225.03Z" fill="#E6F6FF"/>
<path d="M181.441 262.388H147.487V258.958H181.441C182.386 258.958 183.156 259.728 183.156 260.673C183.156 261.618 182.386 262.388 181.441 262.388Z" fill="#E6F6FF"/>
<path d="M140.367 221.6H124.133V262.388H140.367V221.6Z" fill="#E6F6FF"/>
<path d="M43.0862 222.055H26.8523V262.843H43.0862V222.055Z" fill="#E6F6FF"/>
<path d="M180.523 229.94C180.523 230.036 173.945 230.123 165.828 230.123C157.712 230.123 151.134 230.045 151.134 229.94C151.134 229.843 157.712 229.756 165.828 229.756C173.937 229.756 180.523 229.843 180.523 229.94Z" fill="#E6F6FF"/>
<path d="M180.523 235.365C180.523 235.461 173.945 235.549 165.828 235.549C157.712 235.549 151.134 235.47 151.134 235.365C151.134 235.269 157.712 235.181 165.828 235.181C173.937 235.181 180.523 235.26 180.523 235.365Z" fill="#E6F6FF"/>
<path d="M180.523 242.033C180.523 242.13 173.945 242.217 165.828 242.217C157.712 242.217 151.134 242.138 151.134 242.033C151.134 241.937 157.712 241.85 165.828 241.85C173.937 241.858 180.523 241.937 180.523 242.033Z" fill="#E6F6FF"/>
<path d="M180.523 248.71C180.523 248.807 173.945 248.894 165.828 248.894C157.712 248.894 151.134 248.815 151.134 248.71C151.134 248.614 157.712 248.527 165.828 248.527C173.937 248.535 180.523 248.614 180.523 248.71Z" fill="#E6F6FF"/>
<path d="M180.523 255.387C180.523 255.484 173.945 255.571 165.828 255.571C157.712 255.571 151.134 255.492 151.134 255.387C151.134 255.291 157.712 255.204 165.828 255.204C173.937 255.212 180.523 255.291 180.523 255.387Z" fill="#E6F6FF"/>
<path d="M115.404 238.367H53.5997V245.709H115.404V238.367Z" fill="#E6F6FF"/>
<path d="M180.217 263.193H149.35V285.228H180.217V263.193Z" fill="#E6F6FF"/>
<path d="M149.691 262.388H18.3331V286.016H149.691V262.388Z" fill="#E6F6FF"/>
<path d="M148.737 263.989H181.914C182.351 263.989 182.71 263.631 182.71 263.193C182.71 262.756 182.351 262.397 181.914 262.397H148.737V263.989Z" fill="#E6F6FF"/>
<path d="M148.737 286.016H182.342C182.543 286.016 182.71 285.849 182.71 285.648V284.782C182.71 284.58 182.543 284.414 182.342 284.414H148.737V286.016Z" fill="#E6F6FF"/>
<path d="M180.208 267.376C180.208 267.472 173.377 267.56 164.945 267.56C156.513 267.56 149.682 267.481 149.682 267.376C149.682 267.28 156.513 267.192 164.945 267.192C173.377 267.192 180.208 267.271 180.208 267.376Z" fill="#E6F6FF"/>
<path d="M180.208 271.542C180.208 271.638 173.377 271.725 164.945 271.725C156.513 271.725 149.682 271.647 149.682 271.542C149.682 271.445 156.513 271.358 164.945 271.358C173.377 271.358 180.208 271.445 180.208 271.542Z" fill="#E6F6FF"/>
<path d="M180.208 275.707C180.208 275.803 173.377 275.891 164.945 275.891C156.513 275.891 149.682 275.812 149.682 275.707C149.682 275.611 156.513 275.523 164.945 275.523C173.377 275.532 180.208 275.611 180.208 275.707Z" fill="#E6F6FF"/>
<path d="M180.208 279.881C180.208 279.977 173.377 280.065 164.945 280.065C156.513 280.065 149.682 279.986 149.682 279.881C149.682 279.785 156.513 279.697 164.945 279.697C173.377 279.697 180.208 279.776 180.208 279.881Z" fill="#E6F6FF"/>
<path d="M184.896 288.116H153.391V347.841H184.896V288.116Z" fill="#E6F6FF"/>
<path d="M153.391 286.016H5.51041V350.772H153.391V286.016Z" fill="#E6F6FF"/>
<path d="M187.354 350.772H149.341V346.572H187.354C188.517 346.572 189.453 347.508 189.453 348.672C189.453 349.836 188.517 350.772 187.354 350.772Z" fill="#E6F6FF"/>
<path d="M188.491 290.216H149.341V286.016H188.491C189.025 286.016 189.453 286.444 189.453 286.978V289.253C189.453 289.787 189.025 290.216 188.491 290.216Z" fill="#E6F6FF"/>
<path d="M184.896 296.123C184.896 296.219 177.846 296.307 169.143 296.307C160.44 296.307 153.391 296.228 153.391 296.123C153.391 296.027 160.44 295.939 169.143 295.939C177.838 295.948 184.896 296.027 184.896 296.123Z" fill="#E6F6FF"/>
<path d="M184.896 303.789C184.896 303.885 177.846 303.972 169.143 303.972C160.44 303.972 153.391 303.894 153.391 303.789C153.391 303.692 160.44 303.605 169.143 303.605C177.838 303.605 184.896 303.684 184.896 303.789Z" fill="#E6F6FF"/>
<path d="M184.896 311.446C184.896 311.542 177.846 311.63 169.143 311.63C160.44 311.63 153.391 311.551 153.391 311.446C153.391 311.35 160.44 311.262 169.143 311.262C177.838 311.262 184.896 311.341 184.896 311.446Z" fill="#E6F6FF"/>
<path d="M184.896 319.103C184.896 319.199 177.846 319.287 169.143 319.287C160.44 319.287 153.391 319.208 153.391 319.103C153.391 319.007 160.44 318.919 169.143 318.919C177.838 318.928 184.896 319.007 184.896 319.103Z" fill="#E6F6FF"/>
<path d="M184.896 326.76C184.896 326.856 177.846 326.944 169.143 326.944C160.44 326.944 153.391 326.865 153.391 326.76C153.391 326.664 160.44 326.576 169.143 326.576C177.838 326.585 184.896 326.664 184.896 326.76Z" fill="#E6F6FF"/>
<path d="M184.896 334.426C184.896 334.522 177.846 334.61 169.143 334.61C160.44 334.61 153.391 334.531 153.391 334.426C153.391 334.329 160.44 334.242 169.143 334.242C177.838 334.242 184.896 334.321 184.896 334.426Z" fill="#E6F6FF"/>
<path d="M184.896 342.083C184.896 342.179 177.846 342.267 169.143 342.267C160.44 342.267 153.391 342.188 153.391 342.083C153.391 341.987 160.44 341.899 169.143 341.899C177.838 341.899 184.896 341.987 184.896 342.083Z" fill="#E6F6FF"/>
<path d="M56.11 321.938V325.544C56.11 329.884 53.9408 332.361 49.7599 332.361C45.579 332.361 43.4098 329.884 43.4098 325.544V311.437C43.4098 307.097 45.579 304.62 49.7599 304.62C53.9408 304.62 56.11 307.097 56.11 311.437V314.071H52.0865V311.166C52.0865 309.232 51.2381 308.497 49.8824 308.497C48.5266 308.497 47.6782 309.232 47.6782 311.166V325.815C47.6782 327.749 48.5266 328.449 49.8824 328.449C51.2381 328.449 52.0865 327.749 52.0865 325.815V321.938H56.11Z" fill="#A4E3FF"/>
<path d="M58.3579 311.437C58.3579 307.097 60.6408 304.62 64.8217 304.62C69.0026 304.62 71.2855 307.097 71.2855 311.437V325.544C71.2855 329.884 69.0026 332.361 64.8217 332.361C60.6408 332.361 58.3579 329.884 58.3579 325.544V311.437ZM62.6175 325.815C62.6175 327.749 63.466 328.484 64.8217 328.484C66.1774 328.484 67.0259 327.749 67.0259 325.815V311.166C67.0259 309.232 66.1774 308.497 64.8217 308.497C63.466 308.497 62.6175 309.232 62.6175 311.166V325.815Z" fill="#A4E3FF"/>
<path d="M74.032 304.935H78.2916V328.178H85.2977V332.054H74.032V304.935Z" fill="#A4E3FF"/>
<path d="M86.8109 311.437C86.8109 307.097 89.0937 304.62 93.2747 304.62C97.4556 304.62 99.7385 307.097 99.7385 311.437V325.544C99.7385 329.884 97.4556 332.361 93.2747 332.361C89.0937 332.361 86.8109 329.884 86.8109 325.544V311.437ZM91.0705 325.815C91.0705 327.749 91.9189 328.484 93.2747 328.484C94.6304 328.484 95.4788 327.749 95.4788 325.815V311.166C95.4788 309.232 94.6304 308.497 93.2747 308.497C91.9189 308.497 91.0705 309.232 91.0705 311.166V325.815Z" fill="#A4E3FF"/>
<path d="M106.552 304.935V325.859C106.552 327.793 107.401 328.493 108.756 328.493C110.112 328.493 110.96 327.793 110.96 325.859V304.935H114.984V325.587C114.984 329.928 112.815 332.404 108.634 332.404C104.453 332.404 102.284 329.928 102.284 325.587V304.935H106.552Z" fill="#A4E3FF"/>
<path d="M126.801 332.054C126.565 331.354 126.416 330.934 126.416 328.72V324.458C126.416 321.938 125.567 321.011 123.626 321.011H122.156V332.054H117.897V304.935H124.325C128.742 304.935 130.641 306.992 130.641 311.174V313.301C130.641 316.093 129.748 317.913 127.85 318.805C129.985 319.698 130.675 321.746 130.675 324.581V328.764C130.675 330.085 130.71 331.048 131.139 332.054H126.801ZM122.156 308.803V317.134H123.818C125.41 317.134 126.372 316.434 126.372 314.264V311.595C126.372 309.661 125.716 308.803 124.203 308.803H122.156Z" fill="#A4E3FF"/>
<path d="M55.1916 271.699H52.0865L52.2527 270.894H59.3813L59.2063 271.699H56.11L54.5094 279.697H53.591L55.1916 271.699Z" fill="#A4E3FF"/>
<path d="M65.3552 273.082L60.5271 280.555C59.7136 281.815 59.0926 282.2 58.1392 282.2C57.527 282.2 56.8972 281.99 56.5648 281.605L57.0459 280.949C57.3345 281.246 57.7106 281.43 58.2179 281.43C58.7865 281.43 59.2238 281.168 59.7399 280.362L60.2034 279.662L58.5591 273.082H59.46L60.8332 278.717L64.4456 273.082H65.3552Z" fill="#A4E3FF"/>
<path d="M72.7112 275.821C72.7112 278.096 71.1281 279.759 68.9676 279.759C67.7081 279.759 66.8334 279.242 66.4486 278.315L65.6964 282.139H64.8042L66.606 273.082H67.4632L67.2533 274.141C67.883 273.44 68.7664 273.038 69.8335 273.038C71.5129 273.029 72.7112 274.088 72.7112 275.821ZM71.8103 275.873C71.8103 274.578 71.0144 273.808 69.6324 273.808C67.988 273.808 66.781 275.103 66.781 276.915C66.781 278.21 67.5769 278.962 68.9589 278.962C70.6033 278.971 71.8103 277.676 71.8103 275.873Z" fill="#A4E3FF"/>
<path d="M73.7521 276.958C73.7521 274.709 75.3527 273.029 77.5744 273.029C79.4112 273.029 80.5832 274.114 80.5832 275.821C80.5832 278.087 78.9826 279.759 76.7609 279.759C74.9241 279.759 73.7521 278.656 73.7521 276.958ZM79.6911 275.873C79.6911 274.578 78.8951 273.808 77.5131 273.808C75.8688 273.808 74.6442 275.112 74.6442 276.915C74.6442 278.21 75.4402 278.962 76.8221 278.962C78.4665 278.971 79.6911 277.676 79.6911 275.873Z" fill="#A4E3FF"/>
<path d="M89.1375 273.082L87.9829 278.892C87.5193 281.229 86.2861 282.2 84.1344 282.2C82.8924 282.2 81.869 281.85 81.1955 281.203L81.7203 280.52C82.2451 281.063 83.1373 281.404 84.1956 281.404C85.8662 281.404 86.7496 280.634 87.0645 279.041L87.2132 278.306C86.5835 279.015 85.6913 279.444 84.5717 279.444C82.8224 279.444 81.6503 278.429 81.6503 276.775C81.6503 274.648 83.2247 273.029 85.4201 273.029C86.6359 273.029 87.6243 273.528 88.0004 274.534L88.2803 273.073H89.1375V273.082ZM87.6331 275.733C87.6331 274.526 86.8196 273.808 85.4464 273.808C83.7758 273.808 82.5687 275.042 82.5687 276.722C82.5687 277.93 83.3734 278.647 84.7554 278.647C86.4085 278.656 87.6331 277.422 87.6331 275.733Z" fill="#A4E3FF"/>
<path d="M94.9715 273.029L94.8053 273.896C94.7179 273.896 94.6566 273.878 94.5517 273.878C93.1435 273.878 92.1988 274.683 91.8752 276.328L91.2104 279.689H90.3183L91.6303 273.073H92.4875L92.2601 274.281C92.8461 273.423 93.712 273.029 94.9715 273.029Z" fill="#A4E3FF"/>
<path d="M102.546 273.082L101.225 279.697H100.368L100.578 278.656C99.9484 279.347 99.0737 279.759 97.9979 279.759C96.301 279.759 95.1202 278.7 95.1202 276.958C95.1202 274.692 96.7034 273.029 98.855 273.029C100.115 273.029 100.989 273.546 101.365 274.464L101.645 273.082H102.546ZM101.068 275.873C101.068 274.578 100.272 273.808 98.89 273.808C97.2457 273.808 96.0211 275.112 96.0211 276.915C96.0211 278.21 96.8171 278.962 98.199 278.962C99.8434 278.971 101.068 277.676 101.068 275.873Z" fill="#A4E3FF"/>
<path d="M111.135 275.821C111.135 278.096 109.552 279.759 107.392 279.759C106.132 279.759 105.258 279.242 104.873 278.315L104.121 282.139H103.228L105.03 273.082H105.887L105.677 274.141C106.307 273.44 107.191 273.038 108.258 273.038C109.937 273.029 111.135 274.088 111.135 275.821ZM110.226 275.873C110.226 274.578 109.43 273.808 108.048 273.808C106.403 273.808 105.196 275.103 105.196 276.915C105.196 278.21 105.992 278.962 107.374 278.962C109.019 278.971 110.226 277.676 110.226 275.873Z" fill="#A4E3FF"/>
<path d="M119.139 275.182C119.139 275.418 119.112 275.672 119.06 275.934L118.308 279.697H117.416L118.168 275.926C118.203 275.716 118.229 275.514 118.229 275.322C118.229 274.377 117.66 273.834 116.523 273.834C115.115 273.834 114.144 274.604 113.829 276.145L113.13 279.689H112.237L114.101 270.351H114.993L114.249 274.062C114.879 273.344 115.762 273.02 116.777 273.02C118.273 273.029 119.139 273.834 119.139 275.182Z" fill="#A4E3FF"/>
<path d="M127.5 273.082L122.672 280.555C121.859 281.815 121.238 282.2 120.284 282.2C119.672 282.2 119.042 281.99 118.71 281.605L119.191 280.949C119.48 281.246 119.856 281.43 120.363 281.43C120.932 281.43 121.369 281.168 121.885 280.362L122.349 279.662L120.704 273.082H121.605L122.978 278.717L126.591 273.082H127.5Z" fill="#A4E3FF"/>
<path d="M147.425 1.12015H41.5905H13.26L35.118 16.8981V47.9376C35.118 51.5168 38.0219 54.4221 41.5992 54.4221H147.425C151.003 54.4221 153.907 51.5168 153.907 47.9376V7.59584C153.898 4.01671 151.003 1.12015 147.425 1.12015Z" fill="white"/>
<path d="M141.828 23.0588C141.828 23.19 121.596 23.295 96.6334 23.295C71.6704 23.295 51.4393 23.19 51.4393 23.0588C51.4393 22.9275 71.6704 22.8225 96.6334 22.8225C121.588 22.8225 141.828 22.9275 141.828 23.0588Z" fill="white" stroke="#A4E3FF" stroke-miterlimit="10"/>
<path d="M141.828 34.9775C141.828 35.1088 121.596 35.2138 96.6334 35.2138C71.6704 35.2138 51.4393 35.1088 51.4393 34.9775C51.4393 34.8463 71.6704 34.7412 96.6334 34.7412C121.588 34.7412 141.828 34.8463 141.828 34.9775Z" fill="white" stroke="#A4E3FF" stroke-miterlimit="10"/>
<path d="M612.732 350.773C612.732 350.895 475.557 351 306.379 351C137.148 351 0 350.904 0 350.773C0 350.641 137.148 350.545 306.379 350.545C475.557 350.545 612.732 350.65 612.732 350.773Z" fill="#263238"/>
<path d="M555.17 306.108C555.17 306.108 531.982 279.409 523.236 252.709C514.489 226.01 518.644 229.073 518.644 229.073C518.644 229.073 530.452 255.011 539.426 267.534C548.391 280.065 564.362 298.442 564.362 298.442L555.17 306.108Z" fill="#455A64"/>
<path d="M559.788 233.239C559.036 231.935 557.05 232.609 557.269 234.096C558.686 243.477 561.738 265.477 561.616 279.759C561.459 298.302 561.625 305.469 561.625 305.469H571.272C571.272 305.469 569.558 267.14 567.38 255.449C565.858 247.258 562.613 238.157 559.788 233.239Z" fill="#455A64"/>
<path d="M565.045 302.354C565.045 302.354 571.115 289.577 572.987 273.528C573.783 266.702 572.366 257.479 570.258 245.166C569.234 239.207 569.007 234.665 569.042 231.524C569.068 229.143 572.2 228.373 573.363 230.447C574.526 232.53 577.902 239.627 578.751 244.081C581.086 256.236 583.736 262.309 581.707 273.843C579.687 285.377 572.208 303.132 572.208 303.132L565.045 302.354Z" fill="#455A64"/>
<path d="M573.739 303.132C573.739 303.132 599.192 248.395 600.959 240.283C602.725 232.162 608.726 213.453 609.425 214.512C610.134 215.571 611.192 225.459 606.6 236.757C602.017 248.054 582.424 304.804 582.424 304.804H573.73" fill="#455A64"/>
<path d="M562.263 300.682C562.255 300.7 562.01 300.525 561.546 300.192C561.091 299.851 560.409 299.369 559.578 298.687C557.881 297.357 555.502 295.327 552.738 292.649C547.184 287.311 540.265 279.076 534.274 268.934C528.265 258.791 524.224 248.877 521.67 241.613C520.393 237.982 519.457 235.006 518.853 232.932C518.539 231.9 518.329 231.095 518.18 230.543C518.031 229.992 517.961 229.703 517.979 229.703C517.996 229.695 518.101 229.975 518.285 230.517C518.477 231.103 518.731 231.891 519.055 232.871C519.719 234.919 520.708 237.868 522.037 241.482C524.679 248.693 528.763 258.555 534.746 268.654C540.72 278.752 547.551 286.987 553.018 292.369C555.738 295.082 558.074 297.138 559.727 298.521C560.54 299.229 561.205 299.737 561.634 300.105C562.045 300.463 562.272 300.665 562.263 300.682Z" fill="#263238"/>
<path d="M565.045 274.421C565.01 274.421 564.931 273.852 564.817 272.81C564.695 271.682 564.537 270.203 564.345 268.426C563.943 264.725 563.313 259.614 562.412 254.005C561.511 248.395 560.505 243.346 559.727 239.706C559.351 237.955 559.036 236.503 558.8 235.391C558.581 234.376 558.476 233.808 558.511 233.799C558.546 233.79 558.721 234.341 559.001 235.348C559.289 236.354 559.665 237.815 560.103 239.627C560.977 243.25 562.045 248.299 562.945 253.926C563.846 259.553 564.415 264.672 564.721 268.391C564.879 270.246 564.975 271.76 565.018 272.802C565.071 273.843 565.08 274.421 565.045 274.421Z" fill="#263238"/>
<path d="M571.01 230.01C571.027 230.001 571.132 230.246 571.307 230.701C571.5 231.217 571.753 231.891 572.068 232.731C572.409 233.615 572.794 234.7 573.162 235.987C573.538 237.273 574.028 238.717 574.395 240.371C574.596 241.193 574.806 242.051 575.025 242.943C575.235 243.836 575.392 244.79 575.585 245.761C576.004 247.704 576.258 249.813 576.564 252.027C577.063 256.464 577.334 261.373 577.176 266.536C576.966 271.69 576.345 276.573 575.532 280.966C575.068 283.154 574.657 285.237 574.106 287.144C573.844 288.098 573.625 289.035 573.345 289.918C573.065 290.794 572.794 291.634 572.532 292.439C572.042 294.058 571.456 295.467 570.984 296.718C570.52 297.978 570.057 299.037 569.663 299.886C569.287 300.7 568.989 301.356 568.753 301.855C568.543 302.301 568.421 302.537 568.403 302.529C568.386 302.52 568.473 302.275 568.657 301.811C568.858 301.303 569.129 300.63 569.471 299.798C569.838 298.932 570.275 297.864 570.704 296.604C571.141 295.344 571.71 293.926 572.173 292.307C572.418 291.502 572.681 290.662 572.952 289.787C573.214 288.912 573.424 287.976 573.678 287.022C574.211 285.114 574.596 283.04 575.051 280.861C575.838 276.486 576.442 271.629 576.643 266.51C576.8 261.382 576.547 256.499 576.083 252.079C575.786 249.874 575.55 247.783 575.156 245.84C574.972 244.869 574.832 243.924 574.631 243.031C574.421 242.138 574.229 241.281 574.036 240.458C573.695 238.813 573.232 237.36 572.882 236.074C572.541 234.779 572.182 233.685 571.885 232.792C571.605 231.935 571.386 231.252 571.22 230.727C571.062 230.272 570.993 230.018 571.01 230.01Z" fill="#263238"/>
<path d="M609.137 215.606C609.145 215.606 609.137 215.693 609.119 215.851C609.093 216.043 609.049 216.279 609.006 216.559C608.892 217.181 608.752 218.108 608.507 219.281C608.017 221.635 607.195 225.022 605.927 229.134C604.658 233.247 602.918 238.069 600.854 243.364C598.798 248.667 596.41 254.433 594.154 260.577C591.862 266.711 590.095 272.697 588.433 278.131C586.789 283.565 585.223 288.448 583.719 292.483C582.223 296.517 580.789 299.693 579.695 301.846C579.171 302.931 578.707 303.736 578.401 304.296C578.261 304.55 578.138 304.751 578.042 304.926C577.964 305.066 577.911 305.136 577.902 305.128C577.894 305.119 577.929 305.049 577.99 304.9C578.077 304.725 578.173 304.506 578.296 304.253C578.567 303.684 579.004 302.861 579.494 301.758C580.518 299.588 581.9 296.403 583.343 292.36C584.803 288.326 586.325 283.443 587.944 278C589.579 272.565 591.337 266.553 593.638 260.402C595.903 254.241 598.308 248.474 600.381 243.188C602.463 237.912 604.239 233.116 605.551 229.029C606.871 224.943 607.737 221.582 608.297 219.246C608.577 218.082 608.752 217.163 608.901 216.551C608.971 216.271 609.023 216.043 609.067 215.851C609.102 215.684 609.128 215.606 609.137 215.606Z" fill="#263238"/>
<path d="M530.644 203.512C529.043 201.919 526.376 203.582 527.032 205.752C527.705 207.948 528.728 210.784 530.233 213.978C533.732 221.416 544.009 248.115 548.828 262.782C553.639 277.44 560.418 304.795 560.418 304.795L570.695 303.124C570.695 303.124 561.292 258.179 552.108 241.981C544.726 228.977 537.344 210.171 530.644 203.512Z" fill="#455A64"/>
<path d="M551.636 271.953C551.671 271.944 551.855 272.382 552.17 273.187C552.476 273.992 552.887 275.173 553.35 276.635C554.295 279.566 555.458 283.662 556.622 288.212C557.785 292.763 558.756 296.911 559.429 299.912C559.735 301.33 559.998 302.529 560.199 303.474C560.374 304.314 560.444 304.786 560.409 304.795C560.374 304.804 560.225 304.349 559.989 303.517C559.735 302.581 559.421 301.4 559.045 300C558.257 296.911 557.225 292.841 556.079 288.343C554.916 283.802 553.814 279.697 552.966 276.74C552.563 275.348 552.222 274.176 551.951 273.239C551.715 272.425 551.601 271.962 551.636 271.953Z" fill="#263238"/>
<path d="M565.578 303.964C565.569 303.964 565.552 303.867 565.517 303.692C565.482 303.482 565.447 303.211 565.403 302.879C565.298 302.17 565.202 301.111 564.983 299.763C564.607 297.059 563.934 293.174 562.832 288.422C561.738 283.67 560.138 278.087 558.021 271.997C555.913 265.906 553.272 259.325 550.272 252.517C544.228 238.909 538.184 226.842 534.221 217.916C532.218 213.462 530.661 209.83 529.638 207.301C529.113 206.041 528.746 205.043 528.484 204.378C528.37 204.063 528.274 203.818 528.195 203.608C528.134 203.433 528.107 203.345 528.116 203.337C528.125 203.337 528.169 203.415 528.247 203.582C528.335 203.783 528.449 204.028 528.58 204.326C528.886 205.026 529.297 205.988 529.831 207.205C530.915 209.707 532.516 213.313 534.562 217.741C538.621 226.614 544.709 238.656 550.761 252.281C553.761 259.098 556.394 265.705 558.485 271.822C560.575 277.938 562.141 283.548 563.199 288.326C564.258 293.095 564.878 297.007 565.185 299.728C565.368 301.085 565.43 302.144 565.508 302.861C565.534 303.194 565.552 303.465 565.569 303.675C565.587 303.867 565.587 303.964 565.578 303.964Z" fill="#263238"/>
<path d="M570.695 303.132C570.66 303.141 570.538 302.52 570.345 301.408C570.144 300.201 569.873 298.608 569.549 296.683C568.841 292.701 567.756 287.214 566.208 281.246C564.669 275.269 562.937 269.949 561.599 266.133C560.943 264.296 560.4 262.773 559.989 261.618C559.604 260.55 559.412 259.955 559.447 259.947C559.482 259.929 559.744 260.498 560.19 261.548C560.636 262.589 561.249 264.112 561.966 266.011C563.392 269.8 565.193 275.121 566.742 281.115C568.299 287.109 569.322 292.623 569.934 296.63C570.223 298.634 570.45 300.262 570.564 301.391C570.678 302.502 570.73 303.124 570.695 303.132Z" fill="#263238"/>
<g filter="url(#filter0_i)">
<path d="M591 301.653H543.405V350.545H591V301.653Z" fill="url(#paint0_linear)"/>
</g>
<path d="M57.5445 284.65C50.7133 280.275 41.2406 280.187 34.5931 284.843C28.278 289.262 25.0768 297.296 25.3566 304.996C25.6365 312.697 29.3626 322.104 36.3425 326.156L56.8097 326.077C63.3435 321.264 67.7693 313.52 68.0755 305.408C68.3816 297.296 64.3756 289.035 57.5445 284.65Z" fill="#455A64"/>
<path d="M47.4683 326.891C47.4245 326.891 47.3808 326.261 47.3371 325.132C47.3021 323.872 47.2583 322.262 47.1971 320.328C47.0922 316.276 46.9347 310.676 46.6636 304.489C46.3924 298.302 46.06 292.71 45.8064 288.667C45.6927 286.742 45.5965 285.132 45.5178 283.872C45.4565 282.734 45.4478 282.113 45.4915 282.104C45.5352 282.104 45.6315 282.725 45.7714 283.845C45.9114 284.974 46.0775 286.611 46.2612 288.632C46.6286 292.675 47.0397 298.276 47.3108 304.463C47.582 310.649 47.6694 316.259 47.6519 320.319C47.6432 322.349 47.617 323.995 47.582 325.123C47.5557 326.27 47.512 326.891 47.4683 326.891Z" fill="#263238"/>
<path d="M27.4209 303.246C27.4034 303.43 26.2925 303.482 24.9368 303.369C23.5811 303.255 22.4877 303.019 22.5052 302.844C22.5227 302.66 23.6335 302.607 24.9893 302.721C26.345 302.835 27.4296 303.071 27.4209 303.246Z" fill="#263238"/>
<path d="M27.797 296.342C27.727 296.508 26.7649 296.245 25.654 295.747C24.5432 295.257 23.7035 294.723 23.7735 294.556C23.8435 294.39 24.8056 294.653 25.9164 295.152C27.036 295.642 27.8757 296.175 27.797 296.342Z" fill="#263238"/>
<path d="M31.3569 291.214C31.2607 291.362 30.1848 290.855 29.0652 289.927C27.9457 289 27.2372 288.037 27.3684 287.915C27.4996 287.792 28.3917 288.527 29.4763 289.42C30.5609 290.321 31.4531 291.056 31.3569 291.214Z" fill="#263238"/>
<path d="M34.9255 286.374C34.7593 286.444 34.2433 285.639 33.771 284.572C33.2986 283.504 33.045 282.576 33.2112 282.506C33.3774 282.436 33.8934 283.242 34.3657 284.309C34.8468 285.377 35.0917 286.296 34.9255 286.374Z" fill="#263238"/>
<path d="M40.5321 282.935C40.3747 283.014 39.8149 282.148 39.4476 280.958C39.0714 279.767 39.0452 278.744 39.2201 278.709C39.4038 278.674 39.71 279.61 40.0686 280.756C40.4272 281.911 40.6983 282.865 40.5321 282.935Z" fill="#263238"/>
<path d="M49.8911 279.067C50.0573 279.129 49.9611 279.864 49.6549 280.704C49.3576 281.553 48.9727 282.183 48.8065 282.13C48.6403 282.069 48.7365 281.334 49.0427 280.494C49.3401 279.645 49.7249 279.006 49.8911 279.067Z" fill="#263238"/>
<path d="M56.836 282.051C56.9584 282.183 56.5123 282.795 55.8388 283.417C55.1654 284.038 54.5268 284.432 54.4044 284.3C54.2819 284.169 54.728 283.557 55.4015 282.935C56.0663 282.314 56.7135 281.911 56.836 282.051Z" fill="#263238"/>
<path d="M62.9412 285.998C63.0461 286.147 62.4951 286.689 61.7254 287.214C60.9557 287.739 60.2472 288.037 60.1422 287.888C60.0373 287.739 60.5796 287.197 61.358 286.672C62.1365 286.147 62.8449 285.849 62.9412 285.998Z" fill="#263238"/>
<path d="M67.2795 291.879C67.3495 292.045 66.4923 292.57 65.364 293.051C64.2357 293.533 63.2648 293.786 63.1948 293.62C63.1248 293.454 63.982 292.929 65.1016 292.448C66.2387 291.966 67.2095 291.712 67.2795 291.879Z" fill="#263238"/>
<path d="M68.9851 298.302C69.0114 298.477 68.1367 298.739 67.0434 298.871C65.95 299.011 65.0404 298.967 65.0229 298.792C64.9966 298.617 65.8713 298.354 66.9646 298.223C68.058 298.083 68.9676 298.118 68.9851 298.302Z" fill="#263238"/>
<path d="M69.8773 306.204C69.8073 306.37 68.8802 306.125 67.8043 305.661C66.7285 305.198 65.9238 304.681 65.9937 304.515C66.0637 304.349 66.9909 304.594 68.0667 305.058C69.1426 305.521 69.9473 306.038 69.8773 306.204Z" fill="#263238"/>
<path d="M69.0988 312.986C69.0376 313.152 67.8655 312.872 66.641 312.067C65.4077 311.271 64.6818 310.308 64.813 310.186C64.9442 310.054 65.8363 310.763 66.9996 311.516C68.1542 312.277 69.1601 312.811 69.0988 312.986Z" fill="#263238"/>
<path d="M65.5652 319.155C65.4602 319.295 64.5243 318.744 63.6321 317.781C62.7312 316.819 62.2589 315.847 62.3989 315.751C62.5476 315.646 63.2473 316.416 64.1045 317.344C64.9616 318.263 65.6789 319.015 65.5652 319.155Z" fill="#263238"/>
<path d="M32.0566 319.882C32.1441 320.039 31.1557 320.722 29.8699 321.387C28.5754 322.061 27.4646 322.472 27.3771 322.314C27.2897 322.157 28.278 321.483 29.5638 320.809C30.8583 320.135 31.9779 319.724 32.0566 319.882Z" fill="#263238"/>
<path d="M28.9953 314.299C29.074 314.465 28.2868 314.981 27.2372 315.454C26.1963 315.926 25.2867 316.18 25.208 316.014C25.1292 315.847 25.9164 315.331 26.966 314.859C28.0156 314.386 28.9253 314.132 28.9953 314.299Z" fill="#263238"/>
<path d="M26.7474 309.354C26.7736 309.529 25.8027 309.818 24.5869 309.993C23.3711 310.168 22.3565 310.159 22.3303 309.984C22.3041 309.809 23.2749 309.521 24.4907 309.346C25.7153 309.171 26.7211 309.171 26.7474 309.354Z" fill="#263238"/>
<path d="M34.1296 306.624C34.1821 306.79 33.2374 307.237 31.9779 307.377C30.7184 307.525 29.7037 307.298 29.7125 307.123C29.7212 306.939 30.7096 306.86 31.8992 306.72C33.0975 306.598 34.0771 306.449 34.1296 306.624Z" fill="#263238"/>
<path d="M40.261 300.525C40.3135 300.691 39.5613 301.076 38.5466 301.172C37.532 301.277 36.7273 301.05 36.7448 300.875C36.7623 300.691 37.5408 300.621 38.4854 300.525C39.4301 300.428 40.2085 300.35 40.261 300.525Z" fill="#263238"/>
<path d="M41.4331 295.633C41.3718 295.808 40.5584 295.677 39.6137 295.353C38.6691 295.029 37.9519 294.627 38.0131 294.451C38.0743 294.285 38.8878 294.408 39.8324 294.732C40.7683 295.064 41.4855 295.467 41.4331 295.633Z" fill="#263238"/>
<path d="M43.681 290.689C43.5585 290.811 42.9987 290.444 42.5964 289.752C42.194 289.061 42.159 288.396 42.3252 288.343C42.5002 288.291 42.8063 288.807 43.1562 289.42C43.5148 290.041 43.8122 290.566 43.681 290.689Z" fill="#263238"/>
<path d="M40.9695 310.929C41.0132 311.104 40.3047 311.428 39.3951 311.647C38.8703 311.778 38.3892 311.84 38.0743 311.84L37.9431 311.455C38.1793 311.411 38.328 311.42 38.363 311.49C38.3892 311.56 38.3017 311.682 38.1093 311.822L37.9781 311.437C38.258 311.288 38.7128 311.131 39.2376 310.999C40.156 310.798 40.9257 310.754 40.9695 310.929Z" fill="#263238"/>
<path d="M42.229 319.602C42.299 319.768 41.3981 320.284 40.226 320.739C39.054 321.203 38.0481 321.439 37.9781 321.273C37.9081 321.107 38.809 320.591 39.9811 320.135C41.1619 319.672 42.1678 319.427 42.229 319.602Z" fill="#263238"/>
<path d="M35.3104 315.751C35.3716 315.926 34.7681 316.285 33.9721 316.548C33.1762 316.819 32.4852 316.898 32.424 316.731C32.3627 316.556 32.9663 316.206 33.7622 315.935C34.5582 315.655 35.2491 315.576 35.3104 315.751Z" fill="#263238"/>
<path d="M35.8352 298.109C35.7914 298.284 34.7506 298.179 33.5435 297.751C32.3365 297.322 31.4618 296.744 31.5406 296.587C31.6193 296.42 32.5902 296.718 33.7622 297.129C34.9343 297.549 35.8789 297.926 35.8352 298.109Z" fill="#263238"/>
<path d="M52.5938 296.184C52.69 296.333 52.104 296.902 51.2818 297.444C50.4596 297.987 49.7074 298.302 49.6112 298.153C49.515 298.004 50.101 297.436 50.9232 296.893C51.7454 296.359 52.4976 296.035 52.5938 296.184Z" fill="#263238"/>
<path d="M53.5035 304.891C53.5385 305.066 52.9262 305.346 52.1215 305.513C51.3256 305.679 50.6521 305.67 50.6083 305.495C50.5733 305.32 51.1856 305.04 51.9903 304.874C52.795 304.708 53.4685 304.716 53.5035 304.891Z" fill="#263238"/>
<path d="M54.5618 314.675C54.4831 314.841 53.5997 314.587 52.5763 314.115C51.553 313.642 50.792 313.126 50.8707 312.96C50.9494 312.793 51.8329 313.047 52.8562 313.52C53.8796 314.001 54.6405 314.517 54.5618 314.675Z" fill="#263238"/>
<path d="M52.3227 324.205C52.1827 324.318 51.6054 323.846 51.0369 323.155C50.4684 322.454 50.1185 321.798 50.2497 321.684C50.3897 321.571 50.9669 322.043 51.5355 322.734C52.1128 323.435 52.4626 324.091 52.3227 324.205Z" fill="#263238"/>
<path d="M51.8679 289.779C51.9816 289.919 51.5967 290.4 50.9407 290.724C50.2847 291.056 49.6724 291.074 49.6287 290.899C49.5762 290.724 50.0573 290.435 50.6433 290.137C51.2381 289.848 51.7541 289.638 51.8679 289.779Z" fill="#263238"/>
<path d="M60.081 298.556C60.1422 298.722 59.3813 299.142 58.3404 299.282C57.2995 299.431 56.4599 299.229 56.4686 299.054C56.4774 298.871 57.2821 298.766 58.2529 298.634C59.2151 298.503 60.0198 298.381 60.081 298.556Z" fill="#263238"/>
<path d="M58.4454 290.68C58.5241 290.837 57.7719 291.38 56.696 291.721C55.6202 292.062 54.693 292.062 54.6668 291.887C54.6406 291.704 55.4715 291.424 56.4948 291.1C57.5182 290.767 58.3579 290.514 58.4454 290.68Z" fill="#263238"/>
<path d="M61.8741 310.763C61.8741 310.938 60.5795 311.052 59.0226 310.772C57.4657 310.492 56.2937 309.932 56.3549 309.766C56.4161 309.591 57.6319 309.862 59.1363 310.124C60.6408 310.404 61.8741 310.579 61.8741 310.763Z" fill="#263238"/>
<path d="M58.8215 322.209C58.7165 322.349 57.7631 321.789 56.8185 320.836C55.8651 319.882 55.314 318.928 55.454 318.823C55.6027 318.709 56.3636 319.453 57.282 320.372C58.1917 321.299 58.9352 322.069 58.8215 322.209Z" fill="#263238"/>
<path d="M45.4041 281.36C45.5003 281.5 42.7975 282.594 39.675 285.893C36.5524 289.113 33.3336 294.802 32.5377 301.671C32.1616 305.084 32.4852 308.392 32.9663 311.341C33.4736 314.29 34.1558 316.915 34.7768 319.103C35.4066 321.291 35.9839 323.041 36.3687 324.248C36.7536 325.465 36.9635 326.139 36.9198 326.156C36.876 326.174 36.5961 325.526 36.1326 324.336C35.669 323.146 35.0305 321.413 34.3395 319.234C33.6572 317.055 32.9313 314.43 32.3802 311.446C31.8554 308.47 31.5056 305.11 31.8904 301.601C32.7039 294.574 36.0713 288.781 39.3426 285.578C40.9695 283.95 42.5001 282.865 43.6197 282.235C44.162 281.894 44.6256 281.71 44.9317 281.553C45.2291 281.404 45.3866 281.343 45.4041 281.36Z" fill="#263238"/>
<path d="M54.3082 326.567C54.1682 326.497 55.7776 324.012 57.2471 319.549C58.7602 315.13 60.011 308.593 59.0051 301.496C58.5328 297.952 57.5095 294.67 56.2237 291.87C54.8855 289.105 53.1624 286.838 51.483 285.254C49.7424 283.714 48.0281 282.83 46.8298 282.314C45.6227 281.806 44.8967 281.693 44.9055 281.64C44.9055 281.623 45.0892 281.631 45.439 281.684C45.7802 281.745 46.2875 281.859 46.9172 282.086C48.168 282.541 49.9348 283.373 51.7804 284.913C53.5735 286.514 55.349 288.772 56.766 291.616C58.113 294.469 59.1713 297.803 59.6524 301.408C60.6758 308.645 59.3288 315.279 57.6844 319.707C57.317 320.836 56.836 321.807 56.4861 322.673C56.0663 323.513 55.7164 324.248 55.4015 324.826C54.7368 325.972 54.3519 326.594 54.3082 326.567Z" fill="#263238"/>
<g filter="url(#filter1_i)">
<path d="M28.9953 325.027H65.0229L65.2415 332.238H28.9953V325.027Z" fill="url(#paint1_linear)"/>
</g>
<g filter="url(#filter2_i)">
<path d="M32.0566 328.633L34.1296 350.65H60.4658L62.5738 328.869L32.0566 328.633Z" fill="url(#paint2_linear)"/>
</g>
<path d="M65.2415 332.326C65.2415 332.509 57.1334 332.649 47.1271 332.649C37.1209 332.649 29.0128 332.501 29.0128 332.326C29.0128 332.15 37.1209 332.002 47.1271 332.002C57.1334 332.002 65.2415 332.142 65.2415 332.326Z" fill="#263238"/>
<path d="M61.5767 339.029C61.6117 339.046 61.3668 339.554 60.807 340.403C60.2384 341.243 59.3463 342.433 58.0168 343.702L57.8506 343.859L57.6844 343.684C55.9526 341.864 53.5647 339.633 50.6258 337.506L51.0282 337.489C50.0223 338.372 48.9727 339.291 47.8969 340.236C46.6198 341.348 45.3778 342.433 44.197 343.457L43.9958 343.632L43.7947 343.457C41.5555 341.567 39.5088 339.851 37.7769 338.399L38.1268 338.364C36.8848 339.878 35.8439 341.155 35.013 342.162C34.2608 343.054 33.8322 343.527 33.7885 343.5C33.7535 343.474 34.1121 342.932 34.7943 341.995C35.5728 340.954 36.5612 339.633 37.7332 338.066L37.8819 337.865L38.0831 338.031C39.8412 339.458 41.9141 341.138 44.1883 342.984L43.7772 342.993C44.958 341.96 46.1913 340.875 47.4595 339.755C48.5354 338.81 49.5937 337.9 50.5996 337.016L50.792 336.85L50.9932 336.999C53.9583 339.178 56.3287 341.488 58.0168 343.378L57.6844 343.369C60.3696 340.936 61.4805 338.95 61.5767 339.029Z" fill="#263238"/>
<path d="M494.38 344.603H113.095C106.054 344.603 100.351 338.897 100.351 331.853V88.2269C100.351 81.1824 106.054 75.4768 113.095 75.4768H494.38C501.421 75.4768 507.124 81.1824 507.124 88.2269V331.853C507.124 338.897 501.421 344.603 494.38 344.603Z" fill="#455A64"/>
<path d="M512.171 350.772H102.599C94.0006 350.772 87.0295 343.798 87.0295 335.196V327.224H527.731V335.196C527.74 343.798 520.769 350.772 512.171 350.772Z" fill="#455A64"/>
<path d="M263.634 324.703L269.109 333.402H346.063L351.136 324.703H263.634Z" fill="#263238"/>
<path d="M503.625 324.703C503.625 324.852 413.342 324.966 301.997 324.966C190.617 324.966 100.351 324.852 100.351 324.703C100.351 324.555 190.617 324.441 301.997 324.441C413.342 324.441 503.625 324.555 503.625 324.703Z" fill="#263238"/>
<path d="M491.021 317.589H114.861C113.278 317.589 112.001 316.303 112.001 314.727V93.8188C112.001 92.2349 113.287 90.9572 114.861 90.9572H491.021C492.605 90.9572 493.882 92.2436 493.882 93.8188V314.719C493.882 316.303 492.596 317.589 491.021 317.589Z" fill="#EBEBEB"/>
<path d="M493.471 317.921H111.59L112.001 107.899H493.471V317.921Z" fill="white"/>
<path d="M143.323 99.7082C143.323 101.397 141.959 102.762 140.271 102.762C138.582 102.762 137.218 101.397 137.218 99.7082C137.218 98.0192 138.582 96.6541 140.271 96.6541C141.959 96.6541 143.323 98.028 143.323 99.7082Z" fill="#263238"/>
<path d="M124.833 99.7082C124.833 101.397 123.468 102.762 121.78 102.762C120.092 102.762 118.728 101.397 118.728 99.7082C118.728 98.0192 120.092 96.6541 121.78 96.6541C123.468 96.6628 124.833 98.028 124.833 99.7082Z" fill="#263238"/>
<path d="M133.711 99.7082C133.711 101.397 132.346 102.762 130.658 102.762C128.97 102.762 127.605 101.397 127.605 99.7082C127.605 98.0192 128.97 96.6541 130.658 96.6541C132.346 96.6628 133.711 98.028 133.711 99.7082Z" fill="#263238"/>
<path d="M493.882 297.637H111.59V317.921H493.882V297.637Z" fill="#263238"/>
<path d="M126.031 310.124V310.772H122.987V310.256L124.632 308.698C125.034 308.313 125.104 308.077 125.104 307.84C125.104 307.464 124.841 307.245 124.334 307.245C123.932 307.245 123.599 307.385 123.363 307.674L122.83 307.263C123.145 306.834 123.722 306.58 124.395 306.58C125.296 306.58 125.874 307.035 125.874 307.77C125.874 308.173 125.76 308.54 125.191 309.074L124.089 310.124H126.031Z" fill="white"/>
<path d="M126.451 308.077C126.451 307.779 126.67 307.587 126.932 307.587C127.194 307.587 127.413 307.779 127.413 308.077C127.413 308.357 127.194 308.567 126.932 308.567C126.67 308.567 126.451 308.357 126.451 308.077ZM126.451 310.326C126.451 310.028 126.67 309.836 126.932 309.836C127.194 309.836 127.413 310.028 127.413 310.326C127.413 310.606 127.194 310.816 126.932 310.816C126.67 310.816 126.451 310.606 126.451 310.326Z" fill="white"/>
<path d="M129.337 306.642V310.772H128.576V307.28H127.702V306.633H129.337V306.642Z" fill="white"/>
<path d="M133.842 309.836H133.107V310.772H132.364V309.836H130.098V309.302L132.136 306.642H132.95L131.034 309.188H132.39V308.357H133.107V309.188H133.842V309.836Z" fill="white"/>
<path d="M453.927 308.182H140.585V309.608H453.927V308.182Z" fill="white"/>
<g filter="url(#filter3_i)">
<path d="M236.361 306.642H142.257C141.203 306.642 140.349 307.496 140.349 308.549C140.349 309.603 141.203 310.457 142.257 310.457H236.361C237.414 310.457 238.268 309.603 238.268 308.549C238.268 307.496 237.414 306.642 236.361 306.642Z" fill="url(#paint3_linear)"/>
</g>
<g filter="url(#filter4_i)">
<path d="M241.435 308.899C241.435 311.533 239.301 313.669 236.668 313.669C234.035 313.669 231.901 311.533 231.901 308.899C231.901 306.265 234.035 304.13 236.668 304.13C239.292 304.13 241.435 306.265 241.435 308.899Z" fill="url(#paint4_linear)"/>
</g>
<path d="M461.816 308.856C461.816 309.678 461.152 310.194 460.303 310.194C459.175 310.194 458.519 309.468 458.519 308.138C458.519 306.72 459.341 305.941 460.539 305.941C460.95 305.941 461.344 306.029 461.624 306.204L461.344 306.782C461.117 306.633 460.845 306.58 460.557 306.58C459.778 306.58 459.288 307.062 459.288 308.007V308.015C459.533 307.727 459.936 307.587 460.391 307.587C461.213 307.587 461.816 308.077 461.816 308.856ZM461.073 308.891C461.073 308.462 460.749 308.19 460.251 308.19C459.752 308.19 459.411 308.488 459.411 308.899C459.411 309.284 459.717 309.599 460.268 309.599C460.74 309.591 461.073 309.319 461.073 308.891Z" fill="white"/>
<path d="M462.192 307.438C462.192 307.14 462.411 306.948 462.673 306.948C462.936 306.948 463.155 307.14 463.155 307.438C463.155 307.718 462.936 307.928 462.673 307.928C462.411 307.928 462.192 307.718 462.192 307.438ZM462.192 309.687C462.192 309.389 462.411 309.197 462.673 309.197C462.936 309.197 463.155 309.389 463.155 309.687C463.155 309.967 462.936 310.177 462.673 310.177C462.411 310.177 462.192 309.967 462.192 309.687Z" fill="white"/>
<path d="M463.653 308.068C463.653 306.712 464.397 305.941 465.376 305.941C466.365 305.941 467.108 306.712 467.108 308.068C467.108 309.424 466.365 310.194 465.376 310.194C464.397 310.194 463.653 309.424 463.653 308.068ZM466.33 308.068C466.33 307.07 465.945 306.607 465.376 306.607C464.816 306.607 464.423 307.07 464.423 308.068C464.423 309.066 464.816 309.529 465.376 309.529C465.945 309.529 466.33 309.066 466.33 308.068Z" fill="white"/>
<path d="M467.615 308.068C467.615 306.712 468.359 305.941 469.338 305.941C470.327 305.941 471.07 306.712 471.07 308.068C471.07 309.424 470.327 310.194 469.338 310.194C468.359 310.194 467.615 309.424 467.615 308.068ZM470.292 308.068C470.292 307.07 469.907 306.607 469.338 306.607C468.779 306.607 468.385 307.07 468.385 308.068C468.385 309.066 468.779 309.529 469.338 309.529C469.907 309.529 470.292 309.066 470.292 308.068Z" fill="white"/>
<path d="M477.744 307.814H476.31V303.692H480.421V305.119H477.744V307.814Z" fill="white"/>
<path d="M480.429 313.187H476.31V309.074H477.735V311.761H480.429V313.187Z" fill="white"/>
<path d="M486.981 313.187H482.87V311.761H485.555V309.066H486.981V313.187Z" fill="white"/>
<path d="M486.989 307.805H485.564V305.119H482.87V303.692H486.989V307.805Z" fill="white"/>
<path d="M163.957 120.387H141.451L130.194 139.884L141.451 159.39H163.957L175.214 139.884L163.957 120.387Z" fill="#EBEBEB"/>
<path d="M143.288 143.699C142.282 142.588 141.268 141.459 140.533 140.146C139.798 138.834 139.361 137.311 139.606 135.823C139.746 134.957 140.113 134.134 140.174 133.259C140.253 132.052 139.746 130.791 140.174 129.663C140.839 127.895 143.218 127.624 144.661 126.407C145.781 125.453 146.332 123.913 147.565 123.117C148.641 122.417 150.032 122.434 151.3 122.618C152.568 122.802 153.854 123.117 155.122 122.951C156.032 122.828 156.881 122.461 157.773 122.242C158.665 122.023 159.653 121.962 160.44 122.426C161.228 122.889 161.674 124.01 161.158 124.762C162.636 124.08 164.508 125.235 164.91 126.801C165.312 128.376 164.508 130.074 163.257 131.115C162.006 132.157 160.388 132.638 158.796 132.935C154.283 133.784 149.376 133.303 145.484 130.861" fill="#263238"/>
<path d="M164.158 148.521C164.009 145.729 163.222 140.006 162.461 134.834C161.639 129.269 156.679 125.278 151.073 125.655L150.513 125.69C144.53 126.442 141.828 131.947 142.746 137.915L144.504 159.398H159.111C159.111 159.398 158.77 155.627 158.761 155.592C158.761 155.583 164.473 154.297 164.158 148.521Z" fill="#FFBE9D"/>
<path d="M158.761 155.495C158.761 155.495 155.131 156.038 151.09 153.859C151.09 153.859 153.146 157.893 158.875 156.992L158.761 155.495Z" fill="#EB996E"/>
<path d="M160.598 139.787C160.642 140.225 160.309 140.619 159.854 140.671C159.4 140.724 158.997 140.418 158.954 139.98C158.91 139.542 159.242 139.149 159.688 139.096C160.152 139.044 160.554 139.35 160.598 139.787Z" fill="#263238"/>
<path d="M161.403 137.74C161.306 137.853 160.65 137.433 159.767 137.495C158.884 137.547 158.263 138.046 158.158 137.941C158.105 137.897 158.201 137.696 158.464 137.468C158.726 137.241 159.19 137.013 159.741 136.978C160.292 136.943 160.773 137.118 161.053 137.311C161.35 137.495 161.455 137.687 161.403 137.74Z" fill="#263238"/>
<path d="M152.219 140.383C152.262 140.82 151.93 141.214 151.475 141.266C151.02 141.319 150.618 141.013 150.574 140.575C150.53 140.137 150.863 139.744 151.309 139.691C151.773 139.647 152.175 139.954 152.219 140.383Z" fill="#263238"/>
<path d="M152.691 138.484C152.595 138.597 151.939 138.177 151.055 138.239C150.172 138.291 149.551 138.79 149.446 138.685C149.393 138.641 149.49 138.44 149.761 138.212C150.023 137.985 150.487 137.757 151.038 137.722C151.589 137.687 152.07 137.862 152.35 138.055C152.638 138.247 152.743 138.431 152.691 138.484Z" fill="#263238"/>
<path d="M156.356 144.854C156.347 144.802 156.889 144.67 157.781 144.495C158.009 144.46 158.219 144.399 158.245 144.242C158.289 144.075 158.175 143.839 158.053 143.577C157.799 143.043 157.545 142.483 157.265 141.896C156.172 139.499 155.359 137.53 155.455 137.486C155.551 137.442 156.522 139.35 157.615 141.748C157.878 142.343 158.131 142.903 158.376 143.445C158.481 143.699 158.647 143.979 158.551 144.329C158.499 144.504 158.341 144.635 158.201 144.688C158.061 144.74 157.93 144.749 157.816 144.767C156.916 144.863 156.365 144.907 156.356 144.854Z" fill="#263238"/>
<path d="M152.691 134.993C152.621 135.238 151.729 135.185 150.697 135.378C149.656 135.553 148.842 135.912 148.685 135.71C148.615 135.614 148.746 135.378 149.07 135.115C149.393 134.861 149.909 134.599 150.53 134.494C151.151 134.38 151.729 134.441 152.122 134.573C152.516 134.704 152.717 134.879 152.691 134.993Z" fill="#263238"/>
<path d="M160.904 135.193C160.764 135.403 160.134 135.237 159.4 135.272C158.665 135.289 158.053 135.499 157.895 135.298C157.825 135.202 157.913 134.992 158.166 134.782C158.42 134.572 158.857 134.388 159.365 134.371C159.872 134.353 160.318 134.502 160.589 134.694C160.869 134.887 160.974 135.088 160.904 135.193Z" fill="#263238"/>
<path d="M143.507 142.15C143.402 142.115 139.457 141.24 139.851 145.187C140.244 149.125 144.513 147.847 144.504 147.733C144.495 147.611 143.507 142.15 143.507 142.15Z" fill="#FFBE9D"/>
<path d="M142.755 146.429C142.737 146.421 142.693 146.482 142.58 146.552C142.475 146.613 142.282 146.666 142.064 146.613C141.635 146.499 141.215 145.878 141.128 145.169C141.084 144.81 141.128 144.46 141.224 144.172C141.311 143.874 141.486 143.655 141.688 143.594C141.889 143.524 142.055 143.638 142.107 143.743C142.169 143.848 142.151 143.927 142.177 143.935C142.186 143.944 142.256 143.865 142.204 143.699C142.177 143.62 142.125 143.533 142.02 143.472C141.915 143.402 141.775 143.375 141.626 143.41C141.329 143.463 141.075 143.769 140.97 144.093C140.848 144.417 140.787 144.81 140.839 145.213C140.944 146.001 141.425 146.709 142.011 146.814C142.291 146.858 142.519 146.753 142.632 146.648C142.755 146.526 142.772 146.438 142.755 146.429Z" fill="#EB996E"/>
<path d="M162.164 129.435C161.892 131.002 158.717 132.437 156.076 132.367C153.644 132.297 152.446 131.089 150.679 130.231C149.56 129.689 149.56 129.689 148.046 129.934C146.822 130.135 146.183 131.579 145.492 132.612C146.804 135.473 146.271 138.799 145.72 141.896C145.659 142.238 145.58 142.605 145.317 142.842C144.871 143.235 144.154 142.999 143.726 142.596C143.026 141.958 142.711 141.013 142.484 140.094C141.959 138.002 141.766 135.815 142.09 133.688C142.422 131.562 143.297 129.488 144.758 127.904C146.577 125.917 149.227 124.771 151.921 124.631C154.606 124.491 157.309 125.322 159.557 126.801C160.598 127.492 161.578 128.332 162.164 129.435Z" fill="#263238"/>
<path d="M156.933 146.849C156.26 146.534 155.595 146.228 154.921 145.913C154.808 145.861 154.685 145.808 154.554 145.817C154.414 145.834 154.3 145.939 154.204 146.053C153.741 146.613 153.618 147.471 153.985 148.11C154.344 148.748 155.192 149.081 155.866 148.801C156.574 148.503 156.924 147.681 156.977 146.911L156.933 146.849Z" fill="#EB996E"/>
<path d="M155.936 148.95C155.971 148.985 155.516 149.273 154.755 149.055C154.388 148.941 153.968 148.661 153.714 148.206C153.452 147.76 153.356 147.129 153.583 146.561C153.688 146.281 153.863 146.027 154.073 145.834C154.178 145.738 154.283 145.651 154.414 145.581C154.545 145.484 154.816 145.476 154.939 145.546C155.394 145.799 155.709 146.018 156.015 146.219C156.601 146.613 156.951 146.876 156.916 146.937C156.881 146.989 156.478 146.823 155.848 146.499C155.481 146.307 155.131 146.123 154.773 145.939C154.685 145.913 154.694 145.913 154.615 145.957C154.536 146.009 154.44 146.079 154.37 146.158C154.213 146.316 154.082 146.508 154.003 146.727C153.828 147.164 153.889 147.646 154.082 148.013C154.274 148.381 154.571 148.626 154.869 148.757C155.481 149.011 155.927 148.871 155.936 148.95Z" fill="#263238"/>
<path d="M155.306 139.884C155.262 139.884 155.271 139.516 155.087 138.904C154.913 138.3 154.493 137.416 153.583 136.742C152.7 136.068 151.256 135.692 149.866 136.217C148.484 136.698 147.294 138.169 147.312 139.884C147.294 141.599 148.484 143.069 149.866 143.55C151.256 144.075 152.7 143.699 153.583 143.025C154.493 142.351 154.921 141.468 155.087 140.864C155.271 140.251 155.262 139.884 155.306 139.884C155.324 139.884 155.332 139.971 155.341 140.146C155.35 140.321 155.332 140.584 155.262 140.908C155.131 141.555 154.738 142.518 153.775 143.279C152.848 144.04 151.265 144.495 149.717 143.944C148.178 143.437 146.831 141.8 146.848 139.884C146.831 137.967 148.178 136.331 149.717 135.823C151.274 135.263 152.848 135.718 153.775 136.488C154.738 137.25 155.131 138.221 155.262 138.86C155.332 139.184 155.35 139.446 155.341 139.621C155.332 139.796 155.324 139.884 155.306 139.884Z" fill="#263238"/>
<path d="M165.129 139.499C165.085 139.499 165.085 139.14 164.919 138.545C164.753 137.959 164.341 137.101 163.449 136.445C162.592 135.788 161.184 135.429 159.828 135.937C158.481 136.401 157.327 137.836 157.344 139.507C157.327 141.179 158.49 142.605 159.828 143.078C161.184 143.585 162.592 143.227 163.449 142.57C164.341 141.914 164.753 141.056 164.919 140.47C165.094 139.857 165.085 139.499 165.129 139.499C165.146 139.499 165.155 139.586 165.164 139.761C165.172 139.927 165.155 140.181 165.094 140.505C164.971 141.135 164.586 142.071 163.651 142.824C162.75 143.568 161.21 144.014 159.688 143.472C158.184 142.973 156.872 141.38 156.889 139.507C156.872 137.635 158.184 136.042 159.688 135.543C161.201 135.001 162.741 135.447 163.651 136.191C164.586 136.935 164.971 137.88 165.094 138.51C165.164 138.825 165.172 139.079 165.164 139.254C165.155 139.411 165.146 139.499 165.129 139.499Z" fill="#263238"/>
<path d="M157.117 138.589C157.029 138.676 156.636 138.422 156.111 138.44C155.586 138.44 155.21 138.711 155.114 138.624C154.991 138.562 155.359 137.994 156.102 137.976C156.846 137.976 157.23 138.527 157.117 138.589Z" fill="#263238"/>
<path d="M147.329 139.297C147.408 139.402 146.638 140.094 145.624 140.855C144.609 141.616 143.717 142.15 143.647 142.045C143.568 141.94 144.338 141.249 145.352 140.488C146.367 139.735 147.25 139.201 147.329 139.297Z" fill="#263238"/>
<path d="M228.507 139.691C228.507 139.814 218.387 139.919 205.906 139.919C193.424 139.919 183.304 139.814 183.304 139.691C183.304 139.569 193.424 139.464 205.906 139.464C218.396 139.464 228.507 139.56 228.507 139.691Z" fill="#263238"/>
<path d="M207.611 144.417C207.611 144.539 202.241 144.644 195.611 144.644C188.981 144.644 183.61 144.539 183.61 144.417C183.61 144.294 188.981 144.189 195.611 144.189C202.232 144.189 207.611 144.294 207.611 144.417Z" fill="#263238"/>
<path d="M363.915 174.651C363.915 174.651 375.924 180.506 380.148 195.627C384.373 210.749 397.283 250.128 397.283 250.128C397.283 250.128 404.665 258.818 405.461 265.25C406.249 271.682 404.674 287.249 402.295 290.155C399.925 293.06 396.54 292.579 396.54 292.579L365.463 289.63L353.226 207.651L363.915 174.651Z" fill="#172233"/>
<path d="M261.15 173.216C261.15 173.216 238.933 180.191 233.397 186.255L251.59 270.938L251.301 297.654H356.646C356.646 296.333 357.591 208.946 357.591 208.946L363.915 174.651L326.47 168.053L319.088 162.251L277.427 164.36L271.095 170.696L261.15 173.216Z" fill="#172233"/>
<g opacity="0.3">
<path opacity="0.3" d="M269.59 246.68C269.267 245.963 268.803 245.184 268.033 245.026C266.765 244.764 265.917 246.269 265.488 247.485C262.068 257.181 257.537 266.098 251.651 274.517L251.38 287.521C257.52 282.349 263.573 276.81 267.491 269.8C271.401 262.799 272.897 254.005 269.59 246.68Z" fill="black"/>
</g>
<path d="M233.397 186.264C233.397 186.264 226.076 196.248 223.032 202.768C219.988 209.287 194.797 264.033 193.284 269.686C191.762 275.339 187.853 293.148 199.363 297.278H223.032L246.788 249.209L248.004 193.422L233.397 186.264Z" fill="#172233"/>
<path d="M224.554 262.554C224.519 262.589 224.029 262.091 222.936 261.469C221.851 260.857 220.154 260.148 217.967 259.666C216.874 259.43 215.658 259.238 214.346 259.159C213.034 259.08 211.626 259.098 210.192 259.43C207.323 260.069 204.471 261.889 202.223 264.436C199.941 266.982 198.541 269.993 197.71 272.828C196.87 275.672 196.512 278.341 196.284 280.572C196.066 282.813 195.978 284.633 195.9 285.893C195.865 286.479 195.83 286.961 195.812 287.346C195.786 287.678 195.768 287.853 195.751 287.853C195.733 287.853 195.725 287.678 195.725 287.346C195.725 286.961 195.725 286.479 195.733 285.893C195.76 284.633 195.795 282.804 195.97 280.546C196.153 278.297 196.486 275.602 197.308 272.705C198.121 269.826 199.547 266.737 201.882 264.129C204.183 261.522 207.122 259.658 210.104 259.019C211.591 258.686 213.043 258.678 214.373 258.783C215.702 258.879 216.935 259.089 218.037 259.351C220.25 259.877 221.947 260.638 223.023 261.312C223.557 261.653 223.95 261.959 224.195 262.187C224.44 262.414 224.562 262.546 224.554 262.554Z" fill="#263238"/>
<path d="M213.323 252.981C213.323 252.946 213.603 252.902 214.119 252.85C214.635 252.788 215.387 252.771 216.314 252.823C217.241 252.867 218.344 253.025 219.542 253.305C220.731 253.602 222.026 254.04 223.312 254.643C224.589 255.265 225.743 255.991 226.723 256.735C227.694 257.496 228.507 258.249 229.128 258.949C229.749 259.64 230.213 260.235 230.484 260.673C230.764 261.11 230.913 261.355 230.886 261.373C230.816 261.425 230.178 260.472 228.892 259.168C228.254 258.511 227.431 257.794 226.469 257.076C225.49 256.367 224.361 255.667 223.11 255.063C221.851 254.468 220.6 254.04 219.437 253.725C218.265 253.427 217.198 253.243 216.288 253.165C214.478 252.972 213.332 253.068 213.323 252.981Z" fill="#263238"/>
<path d="M234.726 250.347C234.717 250.382 234.332 250.347 233.633 250.259C232.933 250.172 231.918 250.067 230.668 249.97C228.166 249.778 224.685 249.734 220.871 250.189C217.067 250.653 213.69 251.519 211.302 252.289C210.104 252.674 209.142 253.016 208.486 253.27C207.83 253.515 207.454 253.637 207.445 253.611C207.436 253.585 207.778 253.401 208.425 253.103C209.063 252.797 210.008 252.412 211.206 251.983C213.585 251.126 216.979 250.198 220.828 249.734C224.667 249.279 228.192 249.375 230.703 249.647C231.962 249.778 232.977 249.935 233.668 250.075C234.35 250.224 234.735 250.32 234.726 250.347Z" fill="#263238"/>
<path d="M302.146 203.573C302.137 203.582 302.058 203.486 301.901 203.284C301.734 203.057 301.516 202.768 301.253 202.418C300.676 201.613 299.871 200.501 298.874 199.119C296.828 196.231 293.985 192.214 290.626 187.48L290.994 187.428C289.717 191.173 288.308 195.312 286.83 199.661L286.734 199.933L286.498 199.775C286.34 199.679 286.174 199.565 286.008 199.46C284.049 198.217 282.317 196.721 280.856 195.102C279.395 193.474 278.18 191.742 277.174 190.009C275.162 186.535 273.946 183.113 273.124 180.217C272.302 177.311 271.873 174.896 271.593 173.242C271.453 172.446 271.348 171.816 271.261 171.335C271.217 171.116 271.174 170.958 271.147 170.845C271.104 170.748 271.086 170.687 271.095 170.687C271.191 170.643 271.445 171.562 271.768 173.216C272.109 174.861 272.582 177.259 273.439 180.138C274.296 183.008 275.529 186.395 277.541 189.808C278.547 191.514 279.745 193.212 281.188 194.813C282.64 196.397 284.337 197.867 286.253 199.084C286.419 199.189 286.585 199.294 286.734 199.39L286.402 199.513C287.897 195.163 289.314 191.033 290.6 187.296L290.731 186.902L290.967 187.244C294.265 192.013 297.064 196.065 299.075 198.979C300.038 200.388 300.799 201.525 301.358 202.348C301.603 202.715 301.796 203.013 301.953 203.249C302.093 203.451 302.154 203.564 302.146 203.573Z" fill="#263238"/>
<g opacity="0.3">
<path opacity="0.3" d="M329.575 243.994C328.596 253.786 330.756 263.867 335.663 272.39C340.561 280.923 347.751 288.518 356.699 292.605C356.987 283.915 356.567 273.677 356.856 264.987L329.575 243.994Z" fill="black"/>
</g>
<path d="M328.587 232.556C328.587 232.556 324.764 233.615 327.633 241.465C330.502 249.305 331.456 248.833 333.371 256.175C335.287 263.508 337.517 270.211 340.867 274.359C344.217 278.507 356.655 286.961 356.655 286.961L367.816 276.433C367.816 276.433 365.979 268.584 366.416 263.254C366.854 257.925 367.973 244.842 367.816 242.611C367.658 240.379 365.262 234.954 365.262 234.954V231.243L359.524 213.575C359.524 213.575 356.331 212.14 355.22 217.242L353.305 211.825C353.305 211.825 350.279 211.344 349.483 217.566C348.687 223.788 350.121 232.399 350.121 232.399L348.529 243.241L346.141 250.574L344.068 250.889C344.068 250.889 340.946 250.04 339.24 244.16C337.508 238.297 332.89 231.278 328.587 232.556Z" fill="#FFBE9D"/>
<path d="M364.063 260.297C364.055 260.297 364.037 260.157 364.011 259.894C363.993 259.588 363.967 259.203 363.932 258.721C363.871 257.654 363.792 256.175 363.696 254.328C363.521 250.522 363.285 245.219 363.005 239.032L363.057 239.163C362.541 238.55 361.632 238.367 360.801 238.577C359.952 238.778 359.2 239.303 358.728 240.091C357.757 241.657 357.696 243.705 357.398 245.683C356.795 250.154 356.218 254.407 355.693 258.293C355.43 260.227 355.15 262.073 354.766 263.779C354.398 265.486 353.882 267.044 353.384 268.435C352.894 269.826 352.456 271.086 352.185 272.224C351.914 273.362 351.8 274.359 351.827 275.182C351.862 276.827 352.343 277.667 352.264 277.685C352.247 277.693 352.159 277.483 351.993 277.072C351.862 276.652 351.678 276.022 351.643 275.191C351.591 274.359 351.678 273.327 351.932 272.172C352.185 271.016 352.605 269.739 353.077 268.339C353.559 266.939 354.048 265.407 354.398 263.709C354.757 262.021 355.019 260.183 355.273 258.249C355.789 254.363 356.349 250.111 356.944 245.639C357.083 244.641 357.188 243.661 357.363 242.672C357.538 241.692 357.809 240.712 358.352 239.872C358.859 239.014 359.751 238.384 360.696 238.165C361.632 237.929 362.743 238.139 363.381 238.909L363.425 238.971V239.041C363.635 245.227 363.818 250.531 363.95 254.346C363.993 256.192 364.037 257.671 364.063 258.748C364.072 259.229 364.072 259.614 364.072 259.92C364.09 260.157 364.081 260.297 364.063 260.297Z" fill="#EB996E"/>
<path d="M357.967 240.196C357.941 240.204 357.766 239.854 357.495 239.198C357.232 238.542 356.882 237.57 356.559 236.337C356.235 235.111 355.929 233.615 355.754 231.944C355.667 231.103 355.605 230.211 355.71 229.283C355.806 228.356 356.078 227.376 356.672 226.544C357.18 225.827 357.897 225.249 358.71 225.013L358.885 224.96L358.973 225.118C360.591 227.971 361.99 230.491 362.979 232.302C363.434 233.151 363.81 233.86 364.125 234.446C364.387 234.954 364.518 235.234 364.492 235.251C364.466 235.269 364.291 235.006 363.985 234.525C363.644 233.965 363.224 233.274 362.725 232.451C361.667 230.675 360.215 228.189 358.579 225.345L358.842 225.45C358.142 225.66 357.503 226.159 357.049 226.816C356.515 227.568 356.253 228.461 356.156 229.336C356.06 230.22 356.104 231.086 356.183 231.909C356.331 233.562 356.594 235.041 356.882 236.266C357.162 237.492 357.46 238.472 357.67 239.146C357.871 239.811 357.993 240.187 357.967 240.196Z" fill="#EB996E"/>
<path d="M355.299 241.631C355.264 241.631 355.229 241.272 355.194 240.616C355.168 239.863 355.124 238.936 355.08 237.842C355.002 235.496 354.932 232.259 354.879 228.679C354.853 225.1 354.713 221.854 355.019 219.5C355.168 218.327 355.404 217.391 355.614 216.769C355.824 216.139 355.999 215.824 356.025 215.833C356.104 215.859 355.535 217.216 355.334 219.543C355.115 221.862 355.299 225.1 355.325 228.679C355.378 232.259 355.395 235.496 355.395 237.842C355.387 238.936 355.369 239.863 355.36 240.624C355.352 241.272 355.325 241.631 355.299 241.631Z" fill="#EB996E"/>
<path d="M345.862 271.043C345.8 270.99 346.491 270.168 347.357 268.671C347.795 267.927 348.241 267 348.652 265.95C349.045 264.882 349.404 263.683 349.649 262.397C349.876 261.102 349.955 259.859 349.955 258.721C349.937 257.584 349.841 256.56 349.693 255.72C349.404 254.022 349.037 253.007 349.115 252.981C349.141 252.972 349.255 253.217 349.43 253.672C349.614 254.127 349.815 254.81 350.007 255.659C350.2 256.516 350.331 257.558 350.375 258.713C350.401 259.877 350.322 261.154 350.095 262.476C349.85 263.797 349.474 265.022 349.045 266.098C348.599 267.166 348.109 268.102 347.628 268.837C347.156 269.573 346.727 270.141 346.395 270.5C346.071 270.876 345.888 271.069 345.862 271.043Z" fill="#EB996E"/>
<path d="M365.454 265.556L375.137 268.916C375.137 268.916 384.382 264.129 390.758 268.916C397.135 273.703 402.671 286.313 400.922 291.415C400.922 291.415 396.522 296.849 393.172 297.646C389.822 298.442 376.807 295.292 371.393 294.145C365.961 292.999 356.637 286.934 356.637 286.934L365.454 265.556Z" fill="#FFBE9D"/>
<path d="M366.644 279.837C366.609 279.837 366.574 279.531 366.539 278.98C366.504 278.323 366.451 277.545 366.399 276.643C366.294 274.666 366.163 271.935 366.119 268.908C366.075 265.88 366.163 263.141 366.346 261.163C366.434 260.174 366.539 259.378 366.635 258.826C366.731 258.275 366.801 257.978 366.836 257.986C366.906 257.995 366.757 259.211 366.661 261.18C366.565 263.149 366.53 265.88 366.574 268.899C366.626 271.857 366.679 274.534 366.714 276.635C366.722 277.623 366.722 278.429 366.705 278.98C366.696 279.531 366.67 279.837 366.644 279.837Z" fill="#EB996E"/>
<path d="M398.578 268.54C398.508 268.61 397.511 267.227 395.359 265.635C393.234 264.042 389.787 262.344 385.711 262.117C381.627 261.898 378.014 263.202 375.731 264.55C373.414 265.897 372.276 267.157 372.215 267.079C372.198 267.061 372.469 266.737 373.011 266.212C373.562 265.687 374.411 264.987 375.565 264.27C377.848 262.826 381.539 261.434 385.738 261.662C389.936 261.898 393.452 263.692 395.56 265.372C396.627 266.212 397.406 267.009 397.887 267.586C398.368 268.172 398.595 268.531 398.578 268.54Z" fill="#263238"/>
<path d="M397.336 260.463C397.274 260.559 395.98 259.246 393.303 258.24C390.671 257.208 386.586 256.735 382.396 257.916C380.306 258.503 378.39 259.334 376.755 260.262C375.119 261.198 373.755 262.222 372.67 263.149C371.585 264.077 370.755 264.891 370.186 265.451C369.617 266.02 369.303 266.326 369.276 266.308C369.259 266.291 369.53 265.941 370.064 265.328C370.597 264.725 371.393 263.876 372.469 262.904C373.536 261.933 374.9 260.865 376.554 259.894C378.207 258.931 380.148 258.065 382.283 257.47C386.577 256.262 390.767 256.805 393.426 257.934C394.773 258.485 395.77 259.124 396.409 259.614C396.741 259.85 396.96 260.078 397.117 260.218C397.266 260.367 397.344 260.454 397.336 260.463Z" fill="#263238"/>
<path d="M397.414 253.462C397.388 253.55 395.7 253.033 392.884 252.657C391.475 252.456 389.787 252.342 387.916 252.342C386.044 252.368 383.988 252.526 381.854 252.885C379.729 253.27 377.743 253.83 375.968 254.442C374.209 255.081 372.661 255.764 371.411 256.437C368.9 257.759 367.483 258.818 367.431 258.748C367.413 258.721 367.754 258.45 368.402 257.969C368.717 257.724 369.119 257.444 369.6 257.146C370.081 256.849 370.623 256.481 371.253 256.157C372.495 255.449 374.052 254.731 375.819 254.057C377.603 253.418 379.615 252.841 381.767 252.447C383.927 252.079 386.009 251.931 387.907 251.931C389.805 251.957 391.51 252.106 392.919 252.351C393.627 252.438 394.257 252.604 394.817 252.718C395.376 252.832 395.849 252.963 396.225 253.077C397.003 253.287 397.423 253.427 397.414 253.462Z" fill="#263238"/>
<path d="M323.208 167.764C323.208 167.764 323.654 168.604 323.881 170.337C324.117 172.061 324.082 174.651 323.514 177.854C323.225 179.455 322.84 181.214 322.263 183.096C321.659 184.977 320.75 186.902 319.718 188.915C317.636 192.941 315.003 197.325 311.968 202.007L311.609 202.558V201.902C311.601 198.813 311.601 195.566 311.592 192.188L311.933 192.354C309.327 194.455 306.589 196.669 303.764 198.953L303.834 198.848C301.944 204.851 300.694 211.536 300.204 218.493C299.408 229.143 300.046 239.329 300.554 248.57C300.982 257.82 301.262 266.16 301.551 273.152C301.831 280.152 302.084 285.806 302.294 289.717C302.408 291.651 302.495 293.165 302.557 294.215C302.592 294.714 302.618 295.099 302.635 295.388C302.653 295.65 302.644 295.79 302.644 295.79C302.644 295.79 302.618 295.659 302.583 295.397C302.557 295.117 302.513 294.723 302.46 294.233C302.364 293.209 302.242 291.686 302.111 289.735C301.848 285.823 301.542 280.17 301.227 273.169C300.912 266.168 300.545 257.838 300.125 248.597C299.6 239.364 298.944 229.152 299.74 218.467C300.239 211.484 301.49 204.763 303.405 198.725L303.423 198.664L303.475 198.62C306.3 196.345 309.047 194.14 311.653 192.039L311.994 191.768V192.206C311.986 195.575 311.986 198.821 311.977 201.919L311.618 201.814C317.627 192.494 322.517 184.391 323.269 177.837C323.872 174.66 323.942 172.096 323.741 170.372C323.654 169.506 323.487 168.867 323.383 168.429C323.269 167.992 323.208 167.764 323.208 167.764Z" fill="#263238"/>
<path d="M307.525 280.651L307.21 280.643C305.942 280.678 304.813 281.833 304.813 283.102C304.813 284.37 305.933 285.534 307.192 285.578C308.461 285.622 309.659 284.537 309.738 283.277C309.825 282.008 308.784 280.774 307.525 280.651Z" fill="white"/>
<path d="M307.525 246.925L307.21 246.916C305.942 246.951 304.813 248.107 304.813 249.375C304.813 250.644 305.933 251.808 307.192 251.852C308.461 251.896 309.659 250.811 309.738 249.55C309.825 248.282 308.784 247.048 307.525 246.925Z" fill="white"/>
<path d="M307.192 216.752C308.461 216.796 309.659 215.711 309.738 214.45C309.825 213.19 308.776 211.956 307.516 211.834L307.201 211.825C305.933 211.86 304.805 213.015 304.805 214.284C304.813 215.544 305.933 216.708 307.192 216.752Z" fill="white"/>
<path d="M269.433 128.245C266.363 124.85 263.275 121.41 261.036 117.42C258.797 113.43 257.467 108.765 258.211 104.25C258.64 101.607 259.768 99.0956 259.943 96.4266C260.188 92.7512 258.64 88.9095 259.943 85.4704C261.981 80.0886 269.223 79.2572 273.614 75.5381C277.034 72.6415 278.696 67.9423 282.466 65.5008C285.754 63.3743 289.979 63.418 293.854 63.9693C297.728 64.5207 301.63 65.5008 305.513 64.9757C308.277 64.5994 310.884 63.488 313.595 62.8142C316.306 62.1404 319.324 61.9654 321.738 63.3655C324.152 64.7657 325.508 68.196 323.925 70.4975C328.421 68.4236 334.132 71.9327 335.365 76.7282C336.599 81.5237 334.132 86.713 330.319 89.8721C326.505 93.0399 321.581 94.5101 316.718 95.429C302.942 98.028 288.002 96.5578 276.133 89.102" fill="#263238"/>
<path d="M317.855 174.581C317.181 169.366 316.63 165.016 316.595 164.474C316.595 164.474 334.018 160.553 333.056 142.929C332.593 134.414 330.205 116.939 327.87 101.161C325.359 84.219 310.236 72.0552 293.154 73.1928L291.457 73.3066C273.211 75.5993 264.972 92.3924 267.771 110.568L277.611 171.536C277.611 171.536 281.809 185.021 290.801 187.358L302.137 203.564L304.009 196.59L312.458 189.23C312.458 189.23 314.4 187.13 316.621 183.026C318.467 179.665 318.082 176.218 317.855 174.581Z" fill="#FFBE9D"/>
<path d="M316.613 164.211C316.613 164.211 305.548 165.865 293.224 159.223C293.224 159.223 299.495 171.536 316.954 168.771L316.613 164.211Z" fill="#EB996E"/>
<path d="M322.219 116.309C322.359 117.63 321.345 118.838 319.963 119.013C318.581 119.179 317.356 118.243 317.216 116.921C317.085 115.6 318.091 114.384 319.464 114.217C320.855 114.042 322.079 114.979 322.219 116.309Z" fill="#263238"/>
<path d="M324.677 110.061C324.388 110.411 322.385 109.124 319.683 109.317C316.98 109.465 315.082 110.988 314.767 110.682C314.61 110.542 314.89 109.929 315.712 109.247C316.525 108.564 317.933 107.855 319.621 107.75C321.31 107.645 322.77 108.17 323.627 108.757C324.493 109.325 324.817 109.903 324.677 110.061Z" fill="#263238"/>
<path d="M296.661 118.138C296.801 119.459 295.787 120.667 294.405 120.842C293.023 121.008 291.798 120.072 291.658 118.75C291.527 117.429 292.533 116.212 293.906 116.046C295.297 115.871 296.521 116.808 296.661 118.138Z" fill="#263238"/>
<path d="M298.113 112.345C297.825 112.695 295.822 111.408 293.119 111.601C290.416 111.749 288.518 113.272 288.203 112.966C288.046 112.826 288.326 112.213 289.148 111.531C289.953 110.848 291.37 110.139 293.049 110.034C294.737 109.929 296.198 110.454 297.055 111.041C297.938 111.609 298.262 112.187 298.113 112.345Z" fill="#263238"/>
<path d="M309.274 131.763C309.248 131.614 310.91 131.203 313.612 130.678C314.295 130.564 314.942 130.38 315.029 129.899C315.161 129.391 314.819 128.665 314.435 127.877C313.674 126.25 312.878 124.543 312.038 122.749C308.697 115.442 306.23 109.422 306.528 109.29C306.825 109.159 309.773 114.97 313.105 122.277C313.91 124.08 314.68 125.795 315.414 127.44C315.729 128.21 316.236 129.068 315.957 130.126C315.808 130.651 315.327 131.063 314.889 131.212C314.452 131.378 314.067 131.413 313.726 131.457C310.997 131.789 309.3 131.912 309.274 131.763Z" fill="#263238"/>
<path d="M298.105 101.686C297.886 102.438 295.166 102.272 292.017 102.867C288.859 103.401 286.358 104.504 285.894 103.865C285.684 103.559 286.087 102.841 287.075 102.053C288.055 101.275 289.647 100.487 291.536 100.146C293.425 99.8132 295.192 99.9969 296.381 100.391C297.571 100.793 298.192 101.336 298.105 101.686Z" fill="#263238"/>
<path d="M323.155 102.29C322.718 102.937 320.811 102.421 318.572 102.543C316.324 102.587 314.461 103.235 313.98 102.622C313.77 102.325 314.024 101.686 314.819 101.047C315.598 100.417 316.936 99.8482 318.476 99.7869C320.015 99.7344 321.388 100.198 322.21 100.776C323.041 101.362 323.347 101.975 323.155 102.29Z" fill="#263238"/>
<path d="M270.089 123.519C269.783 123.406 257.756 120.745 258.946 132.769C260.135 144.784 273.15 140.873 273.142 140.523C273.124 140.172 270.089 123.519 270.089 123.519Z" fill="#FFBE9D"/>
<path d="M267.815 136.576C267.762 136.541 267.622 136.742 267.281 136.943C266.949 137.136 266.372 137.302 265.724 137.127C264.412 136.786 263.144 134.878 262.873 132.717C262.733 131.623 262.864 130.564 263.162 129.663C263.441 128.744 263.949 128.079 264.579 127.904C265.2 127.694 265.689 128.035 265.873 128.359C266.065 128.683 266.013 128.928 266.083 128.936C266.118 128.963 266.319 128.709 266.179 128.219C266.109 127.982 265.934 127.711 265.628 127.51C265.313 127.3 264.885 127.23 264.439 127.317C263.52 127.475 262.768 128.411 262.436 129.4C262.051 130.398 261.885 131.597 262.042 132.822C262.357 135.237 263.818 137.381 265.611 137.705C266.477 137.845 267.159 137.521 267.491 137.197C267.815 136.865 267.859 136.593 267.815 136.576Z" fill="#EB996E"/>
<path d="M326.995 84.7441C326.173 89.5308 316.473 93.9063 308.434 93.6788C301.026 93.46 297.361 89.7846 291.973 87.1681C288.562 85.5142 288.562 85.5142 283.944 86.2667C280.2 86.8793 278.267 91.2898 276.159 94.4489C280.156 103.174 278.538 113.316 276.85 122.767C276.666 123.808 276.43 124.937 275.634 125.637C274.287 126.827 272.092 126.118 270.771 124.902C268.646 122.951 267.675 120.063 266.984 117.271C265.401 110.901 264.788 104.224 265.794 97.7305C266.8 91.2373 269.485 84.9366 273.92 80.0886C279.457 74.0329 287.556 70.5413 295.752 70.1213C303.947 69.7012 312.178 72.239 319.035 76.737C322.219 78.8109 325.193 81.3837 326.995 84.7441Z" fill="#263238"/>
<path d="M311.041 137.845C309.003 136.891 306.956 135.937 304.918 134.992C304.568 134.826 304.192 134.659 303.807 134.712C303.37 134.773 303.029 135.097 302.749 135.429C301.332 137.153 300.973 139.744 302.067 141.686C303.169 143.629 305.749 144.653 307.813 143.795C309.983 142.894 311.041 140.374 311.207 138.029L311.041 137.845Z" fill="#EB996E"/>
<path d="M308.006 144.233C308.023 144.285 307.726 144.46 307.114 144.592C306.51 144.705 305.566 144.758 304.481 144.399C303.405 144.058 302.189 143.218 301.437 141.87C300.676 140.558 300.396 138.711 301.061 137.04C301.376 136.208 301.874 135.473 302.478 134.896C302.784 134.607 303.108 134.362 303.475 134.143C303.667 134.038 303.904 133.933 304.184 133.916C304.455 133.898 304.7 133.968 304.892 134.056C305.294 134.231 305.548 134.423 305.845 134.598C306.134 134.773 306.405 134.948 306.676 135.114C307.201 135.447 307.7 135.753 308.163 136.051C309.983 137.206 311.067 137.967 311.006 138.081C310.945 138.186 309.738 137.617 307.84 136.611C307.359 136.348 306.843 136.068 306.291 135.771C306.012 135.613 305.723 135.456 305.434 135.298C305.146 135.141 304.822 134.939 304.568 134.843C304.288 134.747 304.166 134.756 303.895 134.904C303.624 135.071 303.335 135.298 303.09 135.543C302.583 136.042 302.172 136.663 301.901 137.372C301.341 138.781 301.542 140.313 302.163 141.476C302.775 142.649 303.764 143.419 304.691 143.804C305.627 144.198 306.484 144.25 307.061 144.25C307.656 144.224 307.988 144.163 308.006 144.233Z" fill="#263238"/>
<path d="M306.082 116.606C306.012 116.615 306.09 115.486 305.6 113.561C305.119 111.679 303.86 108.905 301.026 106.753C299.618 105.703 297.851 104.819 295.813 104.46C293.792 104.119 291.501 104.18 289.332 105.011C288.238 105.396 287.18 105.965 286.218 106.691C285.238 107.4 284.346 108.284 283.611 109.308C282.098 111.329 281.241 113.92 281.215 116.589C281.241 119.258 282.089 121.857 283.611 123.878C284.346 124.902 285.238 125.786 286.218 126.504C287.189 127.23 288.238 127.807 289.332 128.184C291.501 129.015 293.792 129.076 295.813 128.735C297.851 128.376 299.618 127.492 301.026 126.442C303.86 124.298 305.119 121.524 305.6 119.634C306.09 117.726 306.003 116.606 306.082 116.606C306.09 116.606 306.09 116.676 306.09 116.807C306.09 116.974 306.082 117.166 306.082 117.403C306.082 117.665 306.064 117.989 306.003 118.374C305.95 118.759 305.907 119.196 305.767 119.687C305.565 120.667 305.119 121.831 304.411 123.073C303.694 124.307 302.653 125.602 301.218 126.705C299.793 127.799 297.982 128.726 295.883 129.111C293.801 129.479 291.44 129.426 289.192 128.586C288.055 128.201 286.961 127.606 285.955 126.854C284.941 126.118 284.014 125.208 283.253 124.15C281.678 122.058 280.786 119.372 280.76 116.597C280.786 113.823 281.678 111.137 283.253 109.045C284.014 107.987 284.941 107.076 285.955 106.341C286.961 105.598 288.055 105.002 289.192 104.617C291.44 103.769 293.801 103.716 295.883 104.092C297.982 104.477 299.793 105.414 301.218 106.499C302.653 107.602 303.694 108.897 304.411 110.131C305.119 111.373 305.565 112.537 305.767 113.517C305.907 113.998 305.95 114.445 306.003 114.83C306.064 115.215 306.082 115.539 306.082 115.801C306.082 116.037 306.09 116.239 306.09 116.396C306.09 116.536 306.082 116.606 306.082 116.606Z" fill="#263238"/>
<path d="M336.03 115.434C335.96 115.442 336.039 114.34 335.558 112.467C335.086 110.629 333.861 107.925 331.097 105.843C329.733 104.819 328.009 103.952 326.024 103.611C324.056 103.279 321.826 103.34 319.709 104.154C318.642 104.521 317.618 105.081 316.674 105.79C315.72 106.481 314.854 107.348 314.137 108.345C312.659 110.314 311.828 112.835 311.802 115.442C311.828 118.05 312.659 120.57 314.129 122.539C314.846 123.537 315.712 124.395 316.665 125.095C317.61 125.803 318.633 126.364 319.7 126.731C321.817 127.536 324.039 127.606 326.015 127.265C328.001 126.915 329.724 126.048 331.088 125.033C333.852 122.942 335.077 120.247 335.54 118.409C336.039 116.519 335.96 115.425 336.03 115.434C336.048 115.434 336.048 115.705 336.039 116.212C336.039 116.466 336.03 116.79 335.969 117.158C335.917 117.534 335.873 117.963 335.742 118.435C335.313 120.308 334.115 123.099 331.307 125.278C329.916 126.346 328.149 127.256 326.103 127.624C324.073 127.982 321.773 127.93 319.578 127.107C318.476 126.731 317.409 126.153 316.429 125.418C315.441 124.701 314.54 123.817 313.796 122.784C312.257 120.745 311.391 118.129 311.373 115.425C311.4 112.721 312.265 110.104 313.805 108.065C314.548 107.033 315.449 106.14 316.438 105.431C317.417 104.705 318.484 104.127 319.586 103.751C321.782 102.929 324.082 102.876 326.111 103.235C328.158 103.611 329.925 104.521 331.316 105.58C334.123 107.759 335.322 110.542 335.75 112.423C335.882 112.896 335.934 113.325 335.978 113.701C336.039 114.068 336.056 114.392 336.048 114.646C336.048 115.162 336.048 115.434 336.03 115.434Z" fill="#263238"/>
<path d="M311.592 112.66C311.539 112.712 311.251 112.467 310.726 112.213C310.201 111.959 309.414 111.714 308.522 111.732C307.638 111.741 306.851 112.021 306.335 112.292C305.81 112.563 305.539 112.817 305.487 112.773C305.443 112.738 305.644 112.388 306.169 112.021C306.685 111.653 307.525 111.294 308.513 111.277C309.493 111.259 310.35 111.583 310.883 111.933C311.408 112.292 311.627 112.625 311.592 112.66Z" fill="#263238"/>
<path d="M281.748 114.83C281.827 114.935 279.369 116.895 276.264 119.205C273.159 121.524 270.587 123.318 270.509 123.222C270.43 123.117 272.888 121.165 275.993 118.846C279.098 116.519 281.678 114.725 281.748 114.83Z" fill="#263238"/>
<g opacity="0.3">
<path opacity="0.3" d="M271.401 171.781C270.185 183.656 274.698 196.196 284.215 203.389C284.958 203.958 285.903 204.509 286.778 204.194C287.39 203.976 287.783 203.389 288.107 202.82C290.819 198.121 291.728 192.932 290.95 187.559C289.445 191.532 288.151 195.426 286.629 199.583C278.328 194.551 273.159 183.84 271.401 171.781Z" fill="black"/>
</g>
<path opacity="0.3" d="M303.632 198.786L310.621 196.231L311.776 208.053C311.776 208.053 319.315 194.306 322.438 188.031C325.56 181.757 323.951 170.687 323.951 170.687C323.951 170.687 325.071 180.331 317.513 192.626L311.811 201.902V192.188L303.632 198.786Z" fill="black"/>
<g opacity="0.3">
<path opacity="0.3" d="M222.358 258.87C219.244 257.4 215.658 257.199 212.238 257.601C208.626 258.021 204.996 259.133 202.162 261.417C199.328 263.701 197.413 267.306 197.763 270.929L198.112 270.981C200.553 264.383 205.398 259.579 211.652 258.993C217.906 258.415 224.003 261.198 228.297 265.783C227.877 262.353 225.472 260.34 222.358 258.87Z" fill="black"/>
</g>
<g opacity="0.3">
<path opacity="0.3" d="M399.033 265.617C396.688 263.088 393.4 261.557 390.006 260.962C384.05 259.92 377.656 261.775 373.169 265.836L374.498 264.751C377.883 262.764 381.784 261.592 385.711 261.705C389.63 261.819 393.557 263.272 396.4 265.976C399.015 268.47 400.581 271.83 402.076 275.112C402.662 271.717 401.368 268.146 399.033 265.617Z" fill="black"/>
</g>
<path d="M353.996 210.714C353.97 210.705 354.083 210.364 354.311 209.76C354.582 209.069 354.914 208.22 355.308 207.213C356.156 205.069 357.311 202.103 358.544 198.813C359.769 195.513 360.827 192.512 361.588 190.333C361.947 189.318 362.253 188.46 362.498 187.76C362.716 187.156 362.856 186.824 362.883 186.832C362.909 186.841 362.83 187.191 362.664 187.813C362.498 188.434 362.235 189.335 361.894 190.438C361.212 192.643 360.197 195.671 358.973 198.97C357.748 202.269 356.532 205.218 355.614 207.336C355.15 208.395 354.766 209.244 354.486 209.83C354.188 210.407 354.022 210.723 353.996 210.714Z" fill="#263238"/>
<path d="M243.726 211.571C243.604 211.598 242.651 207.432 241.601 202.269C240.551 197.106 239.799 192.906 239.922 192.879C240.044 192.853 240.997 197.019 242.047 202.182C243.097 207.345 243.849 211.545 243.726 211.571Z" fill="#263238"/>
<path d="M242.073 263.631C242.353 263.771 238.872 236.363 238.872 236.363C238.872 236.363 241.067 215.562 242.301 214.599L242.336 207.257C242.336 207.257 245.738 205.192 246.648 208.526C246.648 208.526 249.665 205.909 250.19 212.14C250.715 218.38 250.829 224.75 250.829 224.75L257.537 241.535L258.64 242.095C258.64 242.095 260.083 228.942 260.922 227.008C261.762 225.074 262.339 220.366 265.514 221.075C268.698 221.784 268.961 224.418 268.392 228.706C267.824 232.994 267.106 237.422 267.377 240.196C267.64 242.97 268.899 249.069 268.515 253.908C268.13 258.756 265.479 263.867 262.689 267.455C259.908 271.043 254.59 278.463 251.695 280.704C250.68 281.483 242.073 263.631 242.073 263.631Z" fill="#FFBE9D"/>
<path d="M245.458 241.325C245.423 241.325 245.432 240.905 245.476 240.152C245.537 239.312 245.607 238.244 245.694 236.967C245.896 234.28 246.21 230.57 246.587 226.474C246.779 224.435 246.963 222.484 247.129 220.707C247.216 219.823 247.269 218.992 247.155 218.231C247.05 217.469 246.753 216.813 246.315 216.341C245.432 215.378 244.286 215.133 243.578 215.142C242.834 215.133 242.449 215.334 242.432 215.291C242.423 215.273 242.519 215.229 242.703 215.15C242.895 215.08 243.184 214.993 243.569 214.967C244.321 214.914 245.546 215.107 246.552 216.131C247.05 216.638 247.4 217.373 247.522 218.178C247.662 218.992 247.61 219.858 247.54 220.751C247.383 222.536 247.208 224.479 247.033 226.527C246.657 230.622 246.289 234.324 246.009 237.002C245.861 238.27 245.738 239.338 245.642 240.169C245.563 240.913 245.493 241.325 245.458 241.325Z" fill="#EB996E"/>
<path d="M249.071 230.115C249.132 230.167 248.388 230.823 247.881 232.276C247.339 233.702 247.146 235.855 246.762 238.192C246.403 240.537 246.044 242.655 245.773 244.177C245.493 245.709 245.292 246.645 245.231 246.636C245.17 246.628 245.257 245.665 245.458 244.125C245.651 242.585 245.957 240.458 246.315 238.113C246.692 235.785 246.936 233.624 247.584 232.145C247.89 231.41 248.257 230.876 248.555 230.543C248.843 230.228 249.053 230.097 249.071 230.115Z" fill="#EB996E"/>
<path d="M246.604 208.158C246.639 208.15 246.718 208.456 246.84 209.025C246.963 209.585 247.111 210.399 247.278 211.414C247.61 213.435 247.977 216.244 248.213 219.368C248.441 222.493 248.493 225.328 248.458 227.376C248.441 228.399 248.415 229.231 248.371 229.8C248.336 230.368 248.301 230.683 248.266 230.683C248.196 230.683 248.187 229.415 248.135 227.376C248.082 225.328 247.986 222.51 247.759 219.403C247.531 216.297 247.216 213.488 246.963 211.458C246.709 209.427 246.534 208.176 246.604 208.158Z" fill="#EB996E"/>
<path d="M265.96 233.86C266.03 233.965 264.981 234.446 263.704 234.052C262.418 233.667 261.823 232.679 261.937 232.635C262.042 232.547 262.707 233.291 263.835 233.624C264.955 233.974 265.926 233.729 265.96 233.86Z" fill="#EB996E"/>
<path d="M242.449 260.218L224.72 267.674H214.154C214.154 267.674 203.71 270.938 202.101 280.73C200.492 290.531 200.264 295.572 204.856 296.779C209.448 297.987 222.42 298.127 228.848 295.992C235.277 293.856 252.114 280.257 252.114 280.257L253.741 270.421L242.449 260.218Z" fill="#FFBE9D"/>
<path d="M246.604 271.043C246.578 271.06 246.403 270.903 246.097 270.579C245.782 270.273 245.397 269.765 244.942 269.117C244.068 267.805 243.105 265.818 242.467 263.508C241.802 261.198 241.522 259.036 241.374 257.479C241.242 255.921 241.242 254.95 241.304 254.941C241.374 254.932 241.479 255.895 241.688 257.435C241.916 258.975 242.248 261.102 242.896 263.377C243.525 265.661 244.417 267.612 245.205 268.942C246.018 270.273 246.665 270.99 246.604 271.043Z" fill="#EB996E"/>
<path d="M254.319 274.158C254.222 274.123 255.018 272.775 255.325 270.351C255.473 269.153 255.456 267.691 255.115 266.125C254.774 264.558 254.03 262.948 252.945 261.443C251.87 259.929 250.654 258.616 249.639 257.347C248.607 256.079 247.785 254.845 247.243 253.725C246.7 252.605 246.447 251.616 246.35 250.924C246.263 250.233 246.298 249.848 246.324 249.848C246.412 249.83 246.385 251.414 247.531 253.576C248.091 254.652 248.931 255.842 249.963 257.076C250.995 258.319 252.219 259.632 253.322 261.172C254.432 262.703 255.211 264.401 255.534 266.02C255.867 267.639 255.841 269.153 255.648 270.378C255.456 271.612 255.115 272.565 254.835 273.195C254.704 273.51 254.572 273.747 254.476 273.904C254.389 274.088 254.336 274.167 254.319 274.158Z" fill="#EB996E"/>
<path d="M226.994 231.445C226.88 231.506 224.947 227.979 222.673 223.578C220.399 219.176 218.65 215.562 218.755 215.501C218.868 215.439 220.801 218.966 223.075 223.368C225.35 227.778 227.099 231.392 226.994 231.445Z" fill="#172233"/>
<path d="M255.666 199.521C255.552 199.469 256.75 196.537 258.333 192.967C259.925 189.397 261.307 186.544 261.421 186.596C261.535 186.649 260.336 189.58 258.753 193.151C257.161 196.712 255.779 199.565 255.666 199.521Z" fill="#172233"/>
<path d="M283.734 220.244C283.638 220.322 281.836 218.31 279.719 215.746C277.594 213.182 275.958 211.038 276.054 210.959C276.15 210.88 277.952 212.893 280.069 215.457C282.194 218.021 283.83 220.165 283.734 220.244Z" fill="#172233"/>
<path d="M277.279 248.745C277.174 248.675 278.529 246.628 280.305 244.177C282.081 241.727 283.603 239.802 283.699 239.881C283.804 239.951 282.448 241.998 280.672 244.449C278.897 246.89 277.384 248.815 277.279 248.745Z" fill="#172233"/>
<path d="M268.585 289.008C268.532 289.035 268.13 288.37 267.561 287.249C266.984 286.129 266.24 284.563 265.497 282.804C264.745 281.036 264.141 279.417 263.73 278.227C263.328 277.037 263.118 276.285 263.179 276.267C263.24 276.25 263.555 276.958 264.036 278.113C264.587 279.426 265.217 280.949 265.917 282.629C266.634 284.3 267.29 285.806 267.859 287.118C268.348 288.256 268.646 288.973 268.585 289.008Z" fill="#172233"/>
<path d="M293.285 271.892C293.259 272.014 290.88 271.655 287.976 271.095C285.063 270.535 282.728 269.975 282.754 269.853C282.78 269.73 285.159 270.089 288.063 270.649C290.967 271.209 293.311 271.769 293.285 271.892Z" fill="#172233"/>
<path d="M312.44 234.271C312.344 234.184 314.618 231.593 317.505 228.469C320.391 225.354 322.814 222.895 322.901 222.983C322.998 223.07 320.724 225.66 317.837 228.784C314.951 231.9 312.537 234.359 312.44 234.271Z" fill="#172233"/>
<path d="M331.718 284.44C331.622 284.519 328.797 281.246 325.403 277.125C322.009 273.003 319.341 269.599 319.438 269.52C319.534 269.441 322.359 272.714 325.753 276.836C329.147 280.958 331.814 284.362 331.718 284.44Z" fill="#172233"/>
<path d="M212.072 263.062C212.133 263.184 209.553 264.497 206.737 266.658C203.912 268.802 201.961 270.955 201.856 270.859C201.812 270.824 202.241 270.238 203.046 269.371C203.842 268.514 205.031 267.394 206.457 266.3C207.882 265.215 209.282 264.366 210.323 263.814C211.372 263.272 212.046 263.009 212.072 263.062Z" fill="#172233"/>
<path d="M219.279 243.722C219.384 243.792 218.466 245.359 217.224 247.223C215.982 249.087 214.897 250.539 214.792 250.469C214.687 250.399 215.606 248.833 216.848 246.969C218.09 245.105 219.174 243.652 219.279 243.722Z" fill="#172233"/>
<path d="M235.522 262.712C235.426 262.773 234.507 261.242 234.035 259.115C233.545 256.997 233.711 255.221 233.825 255.23C233.965 255.23 234.009 256.954 234.481 259.01C234.936 261.075 235.644 262.651 235.522 262.712Z" fill="#172233"/>
<path d="M237.927 202.4C237.945 202.523 236.44 202.847 234.56 203.109C232.679 203.38 231.14 203.494 231.122 203.363C231.105 203.24 232.609 202.917 234.49 202.654C236.37 202.392 237.91 202.269 237.927 202.4Z" fill="#172233"/>
<path d="M250.12 180.759C250.181 180.873 248.861 181.722 247.173 182.658C245.485 183.595 244.059 184.268 243.998 184.155C243.936 184.041 245.257 183.192 246.945 182.256C248.642 181.319 250.059 180.654 250.12 180.759Z" fill="#172233"/>
<path d="M284.416 189.904C284.32 189.983 282.807 188.163 281.04 185.844C279.273 183.525 277.926 181.591 278.031 181.512C278.127 181.433 279.64 183.253 281.407 185.572C283.165 187.883 284.512 189.825 284.416 189.904Z" fill="#172233"/>
<path d="M327.948 211.659C327.861 211.738 326.269 210.101 324.799 207.721C323.313 205.341 322.552 203.197 322.657 203.153C322.779 203.1 323.724 205.139 325.184 207.485C326.636 209.821 328.053 211.571 327.948 211.659Z" fill="#172233"/>
<path d="M344.567 217.137C344.681 217.189 343.876 219.22 342.765 221.661C341.654 224.111 340.666 226.054 340.544 226.002C340.43 225.949 341.234 223.919 342.345 221.477C343.456 219.027 344.453 217.084 344.567 217.137Z" fill="#172233"/>
<path d="M346.885 194.446C346.789 194.525 344.812 192.311 342.468 189.493C340.124 186.675 338.304 184.321 338.401 184.242C338.497 184.163 340.474 186.377 342.818 189.195C345.162 192.022 346.981 194.367 346.885 194.446Z" fill="#172233"/>
<path d="M321.511 176.016C321.388 176.025 321.205 174.126 321.117 171.772C321.021 169.427 321.056 167.519 321.178 167.51C321.301 167.502 321.484 169.401 321.572 171.755C321.659 174.1 321.633 176.008 321.511 176.016Z" fill="#172233"/>
<path d="M342.205 174.87C342.223 174.992 339.8 175.421 336.809 175.824C333.809 176.226 331.368 176.445 331.351 176.323C331.333 176.2 333.747 175.771 336.747 175.369C339.739 174.966 342.188 174.739 342.205 174.87Z" fill="#172233"/>
<path d="M374.796 198.821C374.682 198.874 373.23 196.1 371.542 192.626C369.862 189.151 368.585 186.281 368.699 186.229C368.813 186.176 370.265 188.95 371.953 192.424C373.632 195.898 374.909 198.76 374.796 198.821Z" fill="#172233"/>
<path d="M369.303 219.517C369.18 219.491 369.521 217.259 370.064 214.538C370.606 211.808 371.148 209.62 371.271 209.646C371.393 209.672 371.052 211.904 370.51 214.625C369.967 217.347 369.425 219.535 369.303 219.517Z" fill="#172233"/>
<path d="M384.417 235.829C384.294 235.873 383.14 232.862 381.819 229.108C380.507 225.354 379.536 222.274 379.659 222.23C379.781 222.186 380.936 225.197 382.256 228.951C383.568 232.714 384.539 235.785 384.417 235.829Z" fill="#172233"/>
<path d="M382.318 245.367C382.291 245.481 380.201 245.044 377.901 243.784C375.591 242.541 374.078 241.027 374.166 240.948C374.253 240.843 375.863 242.173 378.119 243.39C380.358 244.615 382.353 245.236 382.318 245.367Z" fill="#172233"/>
<path d="M401.683 267.131C401.569 267.184 400.869 265.853 400.117 264.164C399.365 262.476 398.849 261.067 398.963 261.014C399.076 260.962 399.776 262.292 400.528 263.981C401.28 265.67 401.797 267.079 401.683 267.131Z" fill="#172233"/>
<path d="M287.311 297.479C287.189 297.497 286.883 295.755 286.629 293.603C286.375 291.45 286.279 289.691 286.402 289.673C286.524 289.656 286.83 291.397 287.084 293.55C287.337 295.703 287.434 297.462 287.311 297.479Z" fill="#172233"/>
<path d="M346.727 295.974C346.605 295.948 346.859 294.25 347.296 292.185C347.733 290.12 348.188 288.466 348.311 288.492C348.433 288.518 348.179 290.216 347.742 292.281C347.305 294.346 346.85 296 346.727 295.974Z" fill="#172233"/>
<path d="M358.116 122.452L365.795 108.905C362.393 103.384 360.433 96.8904 360.433 89.9334C360.433 69.92 376.65 53.6958 396.653 53.6958C416.657 53.6958 432.874 69.92 432.874 89.9334C432.874 109.947 416.657 126.171 396.653 126.171C388.3 126.171 380.612 123.336 374.489 118.584L374.498 118.601L358.116 122.452Z" fill="#FAFAFA"/>
<path d="M358.116 122.452C358.894 122.277 364.081 121.087 374.524 118.698L374.691 118.663L374.586 118.523L374.577 118.505L374.419 118.663C376.484 120.264 378.959 121.839 381.872 123.161C384.784 124.456 388.125 125.506 391.808 125.996C393.645 126.232 395.569 126.381 397.546 126.285C398.534 126.232 399.54 126.206 400.555 126.118C401.56 125.97 402.584 125.812 403.616 125.655C407.718 124.841 411.908 123.283 415.826 120.859C419.736 118.435 423.357 115.154 426.261 111.119C429.156 107.085 431.352 102.307 432.384 97.1179C433.398 91.9286 433.32 86.3717 431.955 80.9899C430.582 75.6256 428.019 70.3925 424.188 66.0871L422.71 64.4594C422.22 63.9081 421.643 63.4618 421.118 62.9542C420.567 62.4817 420.068 61.9391 419.474 61.5191L417.733 60.2152C417.173 59.7601 416.552 59.3926 415.931 59.0251C415.319 58.6488 414.707 58.2812 414.094 57.9049C413.447 57.5899 412.809 57.2836 412.17 56.9686C411.523 56.6711 410.902 56.321 410.228 56.1023C404.963 54.0108 399.356 53.2144 393.986 53.6082C388.615 53.9933 383.481 55.5334 379.081 58.0187C374.664 60.4777 370.938 63.7681 368.061 67.4347C365.174 71.1101 363.145 75.153 361.885 79.1872C360.635 83.2389 360.294 87.2556 360.311 90.9747C360.416 94.7026 361.098 98.1417 362.087 101.152C363.075 104.171 364.378 106.77 365.716 108.949V108.844C360.862 117.543 358.492 121.787 358.116 122.452C358.5 121.787 360.923 117.578 365.891 108.958L365.926 108.905L365.891 108.853C364.571 106.674 363.294 104.084 362.323 101.082C361.361 98.0805 360.696 94.6764 360.608 90.9747C360.608 87.2818 360.958 83.3089 362.209 79.301C363.469 75.3106 365.489 71.3114 368.349 67.6797C371.201 64.0569 374.892 60.8103 379.265 58.3863C383.621 55.936 388.703 54.4221 394.003 54.0458C399.304 53.6695 404.849 54.4571 410.045 56.5223C410.709 56.7323 411.322 57.0824 411.96 57.3799C412.59 57.6862 413.228 57.9925 413.858 58.3075C414.462 58.675 415.065 59.0426 415.669 59.4101C416.281 59.7776 416.893 60.1364 417.444 60.5915L419.159 61.8779C419.745 62.2892 420.235 62.823 420.777 63.2955C421.293 63.7943 421.87 64.2406 422.351 64.7832L423.812 66.3934C427.599 70.6463 430.127 75.8181 431.483 81.1124C432.83 86.4242 432.917 91.9198 431.92 97.0479C430.905 102.176 428.745 106.91 425.885 110.892C423.025 114.891 419.447 118.146 415.581 120.544C411.715 122.959 407.569 124.508 403.511 125.322C402.487 125.48 401.473 125.637 400.485 125.786C399.479 125.873 398.482 125.9 397.511 125.961C395.551 126.066 393.645 125.917 391.825 125.69C388.169 125.217 384.854 124.185 381.959 122.916C379.064 121.621 376.597 120.072 374.533 118.496L373.86 117.98L374.376 118.654L374.384 118.671L374.446 118.496C364.063 121.008 358.894 122.268 358.116 122.452Z" fill="#263238"/>
<path d="M406.432 88.4195C406.432 90.3709 408.015 91.9636 409.975 91.9636C411.934 91.9636 413.517 90.3797 413.517 88.4195C413.517 86.468 411.934 84.8753 409.975 84.8753C408.015 84.8753 406.432 86.4592 406.432 88.4195Z" fill="#263238"/>
<path d="M392.271 88.4195C392.271 90.3709 393.855 91.9636 395.814 91.9636C397.773 91.9636 399.356 90.3797 399.356 88.4195C399.356 86.468 397.773 84.8753 395.814 84.8753C393.855 84.8753 392.271 86.4592 392.271 88.4195Z" fill="#263238"/>
<path d="M378.137 86.6524C377.157 88.35 377.743 90.5115 379.431 91.4916C381.128 92.4717 383.289 91.8854 384.268 90.1965C385.248 88.4988 384.662 86.3373 382.974 85.3572C381.286 84.3771 379.116 84.9547 378.137 86.6524Z" fill="#263238"/>
</g>
<defs>
<filter id="filter0_i" x="542.405" y="301.653" width="48.5945" height="51.8915" filterUnits="userSpaceOnUse" color-interpolation-filters="sRGB">
<feFlood flood-opacity="0" result="BackgroundImageFix"/>
<feBlend mode="normal" in="SourceGraphic" in2="BackgroundImageFix" result="shape"/>
<feColorMatrix in="SourceAlpha" type="matrix" values="0 0 0 0 0 0 0 0 0 0 0 0 0 0 0 0 0 0 127 0" result="hardAlpha"/>
<feOffset dx="-1" dy="4"/>
<feGaussianBlur stdDeviation="1.5"/>
<feComposite in2="hardAlpha" operator="arithmetic" k2="-1" k3="1"/>
<feColorMatrix type="matrix" values="0 0 0 0 0 0 0 0 0 0 0 0 0 0 0 0 0 0 0.25 0"/>
<feBlend mode="overlay" in2="shape" result="effect1_innerShadow"/>
</filter>
<filter id="filter1_i" x="27.9953" y="325.027" width="37.2463" height="10.2108" filterUnits="userSpaceOnUse" color-interpolation-filters="sRGB">
<feFlood flood-opacity="0" result="BackgroundImageFix"/>
<feBlend mode="normal" in="SourceGraphic" in2="BackgroundImageFix" result="shape"/>
<feColorMatrix in="SourceAlpha" type="matrix" values="0 0 0 0 0 0 0 0 0 0 0 0 0 0 0 0 0 0 127 0" result="hardAlpha"/>
<feOffset dx="-1" dy="4"/>
<feGaussianBlur stdDeviation="1.5"/>
<feComposite in2="hardAlpha" operator="arithmetic" k2="-1" k3="1"/>
<feColorMatrix type="matrix" values="0 0 0 0 0 0 0 0 0 0 0 0 0 0 0 0 0 0 0.25 0"/>
<feBlend mode="overlay" in2="shape" result="effect1_innerShadow"/>
</filter>
<filter id="filter2_i" x="31.0566" y="328.633" width="31.5172" height="25.0174" filterUnits="userSpaceOnUse" color-interpolation-filters="sRGB">
<feFlood flood-opacity="0" result="BackgroundImageFix"/>
<feBlend mode="normal" in="SourceGraphic" in2="BackgroundImageFix" result="shape"/>
<feColorMatrix in="SourceAlpha" type="matrix" values="0 0 0 0 0 0 0 0 0 0 0 0 0 0 0 0 0 0 127 0" result="hardAlpha"/>
<feOffset dx="-1" dy="4"/>
<feGaussianBlur stdDeviation="1.5"/>
<feComposite in2="hardAlpha" operator="arithmetic" k2="-1" k3="1"/>
<feColorMatrix type="matrix" values="0 0 0 0 0 0 0 0 0 0 0 0 0 0 0 0 0 0 0.25 0"/>
<feBlend mode="overlay" in2="shape" result="effect1_innerShadow"/>
</filter>
<filter id="filter3_i" x="139.349" y="306.642" width="98.9192" height="6.8154" filterUnits="userSpaceOnUse" color-interpolation-filters="sRGB">
<feFlood flood-opacity="0" result="BackgroundImageFix"/>
<feBlend mode="normal" in="SourceGraphic" in2="BackgroundImageFix" result="shape"/>
<feColorMatrix in="SourceAlpha" type="matrix" values="0 0 0 0 0 0 0 0 0 0 0 0 0 0 0 0 0 0 127 0" result="hardAlpha"/>
<feOffset dx="-1" dy="4"/>
<feGaussianBlur stdDeviation="1.5"/>
<feComposite in2="hardAlpha" operator="arithmetic" k2="-1" k3="1"/>
<feColorMatrix type="matrix" values="0 0 0 0 0 0 0 0 0 0 0 0 0 0 0 0 0 0 0.25 0"/>
<feBlend mode="overlay" in2="shape" result="effect1_innerShadow"/>
</filter>
<filter id="filter4_i" x="230.901" y="304.13" width="10.5339" height="12.5385" filterUnits="userSpaceOnUse" color-interpolation-filters="sRGB">
<feFlood flood-opacity="0" result="BackgroundImageFix"/>
<feBlend mode="normal" in="SourceGraphic" in2="BackgroundImageFix" result="shape"/>
<feColorMatrix in="SourceAlpha" type="matrix" values="0 0 0 0 0 0 0 0 0 0 0 0 0 0 0 0 0 0 127 0" result="hardAlpha"/>
<feOffset dx="-1" dy="4"/>
<feGaussianBlur stdDeviation="1.5"/>
<feComposite in2="hardAlpha" operator="arithmetic" k2="-1" k3="1"/>
<feColorMatrix type="matrix" values="0 0 0 0 0 0 0 0 0 0 0 0 0 0 0 0 0 0 0.25 0"/>
<feBlend mode="overlay" in2="shape" result="effect1_innerShadow"/>
</filter>
<linearGradient id="paint0_linear" x1="591.017" y1="341.088" x2="542.21" y2="339.512" gradientUnits="userSpaceOnUse">
<stop stop-color="#29B67F"/>
<stop offset="1" stop-color="#3FC7F4"/>
</linearGradient>
<linearGradient id="paint1_linear" x1="65.2543" y1="330.843" x2="29.052" y2="324.809" gradientUnits="userSpaceOnUse">
<stop stop-color="#29B67F"/>
<stop offset="1" stop-color="#3FC7F4"/>
</linearGradient>
<linearGradient id="paint2_linear" x1="62.5845" y1="346.391" x2="31.3235" y2="344.954" gradientUnits="userSpaceOnUse">
<stop stop-color="#29B67F"/>
<stop offset="1" stop-color="#3FC7F4"/>
</linearGradient>
<linearGradient id="paint3_linear" x1="238.303" y1="309.719" x2="180.007" y2="260.107" gradientUnits="userSpaceOnUse">
<stop stop-color="#29B67F"/>
<stop offset="1" stop-color="#3FC7F4"/>
</linearGradient>
<linearGradient id="paint4_linear" x1="241.438" y1="311.823" x2="231.662" y2="311.499" gradientUnits="userSpaceOnUse">
<stop stop-color="#29B67F"/>
<stop offset="1" stop-color="#3FC7F4"/>
</linearGradient>
<clipPath id="clip0">
<rect width="617" height="351" fill="white"/>
</clipPath>
</defs>
</svg>
