<svg width="272" height="355" viewBox="0 0 272 355" fill="none" xmlns="http://www.w3.org/2000/svg">
<path d="M0 129.023C0 119.647 7.60075 112.047 16.9767 112.047H254.651C264.027 112.047 271.628 119.647 271.628 129.023V337.837C271.628 347.213 264.027 354.814 254.651 354.814H16.9768C7.60076 354.814 0 347.213 0 337.837V129.023Z" fill="url(#paint0_linear)"/>
<g filter="url(#filter0_d)">
<circle cx="135.814" cy="120.535" r="120.535" fill="white"/>
</g>
<path d="M225.752 118.776C225.632 113.967 225.974 105.767 222.109 102.391C218.713 99.4261 216.072 103.449 215.119 106.695C212.81 114.568 213.894 123.249 213.901 131.377C213.901 131.5 213.901 131.623 213.901 131.762C213.721 137.744 213.061 144.216 213.661 150.187C213.661 150.187 213.071 144.205 208.765 146.769C204.458 149.333 210.918 162.788 210.918 162.788C210.918 162.788 205.827 158.73 203.476 162.149C201.125 165.568 206.413 169.41 206.413 169.41C206.413 169.41 201.517 167.916 201.517 169.41C201.517 170.904 203.084 172.186 207.589 172.829H231.87C231.87 172.829 235.788 170.476 235.005 167.916C234.221 165.356 230.105 166.831 230.105 166.831C230.105 166.831 236.374 158.499 235.982 154.869C235.591 151.238 227.559 155.512 227.559 155.512C227.559 155.512 233.825 138.21 232.65 130.522C231.725 124.466 227.415 128.597 225.067 130.938C225.62 126.913 225.849 122.844 225.752 118.776Z" fill="#39B7FD" stroke="white" stroke-width="1.69767" stroke-linecap="round" stroke-linejoin="round"/>
<path d="M225.235 118.416C225.115 113.608 225.457 105.407 221.592 102.031C218.196 99.0664 215.555 103.09 214.602 106.335C212.293 114.208 213.377 122.89 213.384 131.017C213.384 131.14 213.384 131.263 213.384 131.402C213.204 137.385 212.544 143.856 213.144 149.828C213.144 149.828 212.554 143.845 208.247 146.409C203.941 148.973 210.401 162.428 210.401 162.428C210.401 162.428 205.31 158.371 202.959 161.789C200.608 165.208 205.896 169.05 205.896 169.05C205.896 169.05 201 167.556 201 169.05C201 170.544 202.567 171.826 207.072 172.469H231.353C231.353 172.469 235.271 170.117 234.487 167.556C233.704 164.996 229.588 166.471 229.588 166.471C229.588 166.471 235.857 158.14 235.465 154.509C235.073 150.879 227.042 155.152 227.042 155.152C227.042 155.152 233.308 137.85 232.133 130.162C231.208 124.106 226.897 128.237 224.55 130.578C225.103 126.554 225.332 122.484 225.235 118.416Z" fill="url(#paint1_linear)"/>
<path d="M217.961 172.597L219.726 113.859" stroke="white" stroke-width="1.69767" stroke-linecap="round" stroke-linejoin="round"/>
<path d="M218.942 148.035L228.145 138.637" stroke="white" stroke-width="1.69767" stroke-linecap="round" stroke-linejoin="round"/>
<path d="M223.249 143.762L225.208 137.783" stroke="white" stroke-width="1.69767" stroke-linecap="round" stroke-linejoin="round"/>
<path d="M211.303 155.296L218.352 163.627" stroke="white" stroke-width="1.69767" stroke-linecap="round" stroke-linejoin="round"/>
<path d="M230.104 159.997L218.352 166.619" stroke="white" stroke-width="1.69767" stroke-linecap="round" stroke-linejoin="round"/>
<path d="M223.838 163.839L228.145 163.627" stroke="white" stroke-width="1.69767" stroke-linecap="round" stroke-linejoin="round"/>
<path d="M217.961 172.597L219.726 113.859" stroke="#407BFF" stroke-width="1.69767" stroke-linecap="round" stroke-linejoin="round"/>
<path d="M218.942 148.035L228.145 138.637" stroke="#407BFF" stroke-width="1.69767" stroke-linecap="round" stroke-linejoin="round"/>
<path d="M223.249 143.762L225.208 137.783" stroke="#407BFF" stroke-width="1.69767" stroke-linecap="round" stroke-linejoin="round"/>
<path d="M211.303 155.296L218.352 163.627" stroke="#407BFF" stroke-width="1.69767" stroke-linecap="round" stroke-linejoin="round"/>
<path d="M230.104 159.997L218.352 166.619" stroke="#407BFF" stroke-width="1.69767" stroke-linecap="round" stroke-linejoin="round"/>
<path d="M223.838 163.839L228.145 163.627" stroke="#407BFF" stroke-width="1.69767" stroke-linecap="round" stroke-linejoin="round"/>
<g opacity="0.8">
<path opacity="0.8" d="M217.961 172.597L219.726 113.859" stroke="white" stroke-width="1.69767" stroke-linecap="round" stroke-linejoin="round"/>
<path opacity="0.8" d="M218.942 148.035L228.145 138.637" stroke="white" stroke-width="1.69767" stroke-linecap="round" stroke-linejoin="round"/>
<path opacity="0.8" d="M223.249 143.762L225.208 137.783" stroke="white" stroke-width="1.69767" stroke-linecap="round" stroke-linejoin="round"/>
<path opacity="0.8" d="M211.303 155.296L218.353 163.627" stroke="white" stroke-width="1.69767" stroke-linecap="round" stroke-linejoin="round"/>
<path opacity="0.8" d="M230.105 159.997L218.353 166.618" stroke="white" stroke-width="1.69767" stroke-linecap="round" stroke-linejoin="round"/>
<path opacity="0.8" d="M223.838 163.839L228.145 163.627" stroke="white" stroke-width="1.69767" stroke-linecap="round" stroke-linejoin="round"/>
</g>
<path d="M184.318 160.728C184.318 166.699 188.656 171.542 188.656 171.542C188.656 171.542 192.995 166.699 192.995 160.728C192.995 154.757 188.656 149.914 188.656 149.914C188.656 149.914 184.318 154.753 184.318 160.728Z" fill="#407BFF"/>
<path d="M181.31 169.941C183.428 172.532 187.008 172.813 187.008 172.813C187.008 172.813 187.181 168.89 185.077 166.299C182.973 163.708 179.379 163.427 179.379 163.427C179.379 163.427 179.203 167.35 181.31 169.941Z" fill="#407BFF"/>
<path d="M192.367 166.21C190.153 168.694 190.167 172.621 190.167 172.621C190.167 172.621 193.765 172.517 195.975 170.03C198.185 167.542 198.177 163.619 198.177 163.619C198.177 163.619 194.577 163.723 192.367 166.21Z" fill="#407BFF"/>
<g opacity="0.5">
<path opacity="0.5" d="M184.318 160.728C184.318 166.699 188.656 171.543 188.656 171.543C188.656 171.543 192.995 166.699 192.995 160.728C192.995 154.757 188.656 149.914 188.656 149.914C188.656 149.914 184.318 154.753 184.318 160.728Z" fill="white"/>
<path opacity="0.5" d="M188.656 171.543V149.914" stroke="white" stroke-width="1.69767" stroke-linecap="round" stroke-linejoin="round"/>
<path opacity="0.5" d="M188.656 157.603L186.227 155.289" stroke="white" stroke-width="1.69767" stroke-linecap="round" stroke-linejoin="round"/>
<path opacity="0.5" d="M188.695 161.176L191.703 156.424" stroke="white" stroke-width="1.69767" stroke-linecap="round" stroke-linejoin="round"/>
<path opacity="0.5" d="M188.656 163.235L185.07 159.746" stroke="white" stroke-width="1.69767" stroke-linecap="round" stroke-linejoin="round"/>
<path opacity="0.5" d="M188.695 166.011L192.243 162.565" stroke="white" stroke-width="1.69767" stroke-linecap="round" stroke-linejoin="round"/>
<path opacity="0.5" d="M188.695 168.409L185.917 166.01" stroke="white" stroke-width="1.69767" stroke-linecap="round" stroke-linejoin="round"/>
<path opacity="0.5" d="M181.31 169.941C183.428 172.532 187.008 172.813 187.008 172.813C187.008 172.813 187.181 168.89 185.077 166.299C182.973 163.708 179.379 163.427 179.379 163.427C179.379 163.427 179.203 167.35 181.31 169.941Z" fill="white"/>
<path opacity="0.5" d="M187.007 172.813L179.378 163.427" stroke="white" stroke-width="1.69767" stroke-linecap="round" stroke-linejoin="round"/>
<path opacity="0.5" d="M182.09 166.765L180.219 166.779" stroke="white" stroke-width="1.69767" stroke-linecap="round" stroke-linejoin="round"/>
<path opacity="0.5" d="M183.368 168.298L182.998 164.975" stroke="white" stroke-width="1.69767" stroke-linecap="round" stroke-linejoin="round"/>
<path opacity="0.5" d="M184.078 169.209L181.292 169.198" stroke="white" stroke-width="1.69767" stroke-linecap="round" stroke-linejoin="round"/>
<path opacity="0.5" d="M185.073 170.396L185.394 167.411" stroke="white" stroke-width="1.69767" stroke-linecap="round" stroke-linejoin="round"/>
<path opacity="0.5" d="M185.921 171.435L183.87 171.562" stroke="white" stroke-width="1.69767" stroke-linecap="round" stroke-linejoin="round"/>
<path opacity="0.5" d="M192.367 166.21C190.153 168.694 190.167 172.621 190.167 172.621C190.167 172.621 193.765 172.517 195.975 170.03C198.185 167.542 198.177 163.619 198.177 163.619C198.177 163.619 194.577 163.723 192.367 166.21Z" fill="white"/>
<path opacity="0.5" d="M190.167 172.621L198.177 163.619" stroke="white" stroke-width="1.69767" stroke-linecap="round" stroke-linejoin="round"/>
<path opacity="0.5" d="M195.329 166.819L195.177 164.786" stroke="white" stroke-width="1.69767" stroke-linecap="round" stroke-linejoin="round"/>
<path opacity="0.5" d="M194.022 168.323L197.034 167.669" stroke="white" stroke-width="1.69767" stroke-linecap="round" stroke-linejoin="round"/>
<path opacity="0.5" d="M193.242 169.164L193.044 166.133" stroke="white" stroke-width="1.69767" stroke-linecap="round" stroke-linejoin="round"/>
<path opacity="0.5" d="M192.229 170.334L194.982 170.465" stroke="white" stroke-width="1.69767" stroke-linecap="round" stroke-linejoin="round"/>
<path opacity="0.5" d="M191.343 171.331L191.075 169.113" stroke="white" stroke-width="1.69767" stroke-linecap="round" stroke-linejoin="round"/>
</g>
<path d="M188.656 171.542V149.914" stroke="#407BFF" stroke-width="1.69767" stroke-linecap="round" stroke-linejoin="round"/>
<path d="M188.657 157.602L186.228 155.288" stroke="#407BFF" stroke-width="1.69767" stroke-linecap="round" stroke-linejoin="round"/>
<path d="M188.695 161.176L191.703 156.424" stroke="#407BFF" stroke-width="1.69767" stroke-linecap="round" stroke-linejoin="round"/>
<path d="M188.656 163.235L185.07 159.746" stroke="#407BFF" stroke-width="1.69767" stroke-linecap="round" stroke-linejoin="round"/>
<path d="M188.695 166.011L192.243 162.565" stroke="#407BFF" stroke-width="1.69767" stroke-linecap="round" stroke-linejoin="round"/>
<path d="M188.695 168.409L185.917 166.01" stroke="#407BFF" stroke-width="1.69767" stroke-linecap="round" stroke-linejoin="round"/>
<g opacity="0.7">
<path opacity="0.7" d="M188.656 171.543V149.914" stroke="white" stroke-width="1.69767" stroke-linecap="round" stroke-linejoin="round"/>
<path opacity="0.7" d="M188.657 157.603L186.228 155.289" stroke="white" stroke-width="1.69767" stroke-linecap="round" stroke-linejoin="round"/>
<path opacity="0.7" d="M188.695 161.176L191.703 156.424" stroke="white" stroke-width="1.69767" stroke-linecap="round" stroke-linejoin="round"/>
<path opacity="0.7" d="M188.656 163.235L185.07 159.746" stroke="white" stroke-width="1.69767" stroke-linecap="round" stroke-linejoin="round"/>
<path opacity="0.7" d="M188.695 166.011L192.243 162.565" stroke="white" stroke-width="1.69767" stroke-linecap="round" stroke-linejoin="round"/>
<path opacity="0.7" d="M188.695 168.409L185.917 166.01" stroke="white" stroke-width="1.69767" stroke-linecap="round" stroke-linejoin="round"/>
</g>
<path d="M187.008 172.813L179.379 163.427" stroke="#407BFF" stroke-width="1.69767" stroke-linecap="round" stroke-linejoin="round"/>
<path d="M182.09 166.765L180.219 166.779" stroke="#407BFF" stroke-width="1.69767" stroke-linecap="round" stroke-linejoin="round"/>
<path d="M183.368 168.298L182.997 164.975" stroke="#407BFF" stroke-width="1.69767" stroke-linecap="round" stroke-linejoin="round"/>
<path d="M184.078 169.209L181.292 169.198" stroke="#407BFF" stroke-width="1.69767" stroke-linecap="round" stroke-linejoin="round"/>
<path d="M185.073 170.396L185.394 167.412" stroke="#407BFF" stroke-width="1.69767" stroke-linecap="round" stroke-linejoin="round"/>
<path d="M185.921 171.435L183.87 171.562" stroke="#407BFF" stroke-width="1.69767" stroke-linecap="round" stroke-linejoin="round"/>
<g opacity="0.7">
<path opacity="0.7" d="M187.008 172.813L179.379 163.427" stroke="white" stroke-width="1.69767" stroke-linecap="round" stroke-linejoin="round"/>
<path opacity="0.7" d="M182.09 166.766L180.219 166.78" stroke="white" stroke-width="1.69767" stroke-linecap="round" stroke-linejoin="round"/>
<path opacity="0.7" d="M183.368 168.298L182.998 164.975" stroke="white" stroke-width="1.69767" stroke-linecap="round" stroke-linejoin="round"/>
<path opacity="0.7" d="M184.078 169.209L181.293 169.198" stroke="white" stroke-width="1.69767" stroke-linecap="round" stroke-linejoin="round"/>
<path opacity="0.7" d="M185.074 170.397L185.395 167.412" stroke="white" stroke-width="1.69767" stroke-linecap="round" stroke-linejoin="round"/>
<path opacity="0.7" d="M185.921 171.435L183.87 171.562" stroke="white" stroke-width="1.69767" stroke-linecap="round" stroke-linejoin="round"/>
</g>
<path d="M190.167 172.621L198.177 163.619" stroke="#407BFF" stroke-width="1.69767" stroke-linecap="round" stroke-linejoin="round"/>
<path d="M195.329 166.819L195.177 164.786" stroke="#407BFF" stroke-width="1.69767" stroke-linecap="round" stroke-linejoin="round"/>
<path d="M194.022 168.324L197.034 167.669" stroke="#407BFF" stroke-width="1.69767" stroke-linecap="round" stroke-linejoin="round"/>
<path d="M193.242 169.164L193.044 166.133" stroke="#407BFF" stroke-width="1.69767" stroke-linecap="round" stroke-linejoin="round"/>
<path d="M192.229 170.334L194.982 170.465" stroke="#407BFF" stroke-width="1.69767" stroke-linecap="round" stroke-linejoin="round"/>
<path d="M191.343 171.331L191.075 169.113" stroke="#407BFF" stroke-width="1.69767" stroke-linecap="round" stroke-linejoin="round"/>
<g opacity="0.7">
<path opacity="0.7" d="M190.167 172.621L198.177 163.619" stroke="white" stroke-width="1.69767" stroke-linecap="round" stroke-linejoin="round"/>
<path opacity="0.7" d="M195.329 166.819L195.177 164.786" stroke="white" stroke-width="1.69767" stroke-linecap="round" stroke-linejoin="round"/>
<path opacity="0.7" d="M194.022 168.324L197.034 167.67" stroke="white" stroke-width="1.69767" stroke-linecap="round" stroke-linejoin="round"/>
<path opacity="0.7" d="M193.242 169.164L193.044 166.134" stroke="white" stroke-width="1.69767" stroke-linecap="round" stroke-linejoin="round"/>
<path opacity="0.7" d="M192.229 170.334L194.983 170.465" stroke="white" stroke-width="1.69767" stroke-linecap="round" stroke-linejoin="round"/>
<path opacity="0.7" d="M191.343 171.331L191.075 169.113" stroke="white" stroke-width="1.69767" stroke-linecap="round" stroke-linejoin="round"/>
</g>
<path d="M46.2482 118.776C46.3647 113.967 46.0258 105.767 49.8913 102.391C53.2874 99.4262 55.928 103.449 56.8776 106.695C59.1899 114.568 58.1026 123.249 58.099 131.377C58.099 131.5 58.099 131.623 58.099 131.762C58.2826 137.744 58.9392 144.216 58.3426 150.187C58.3426 150.187 58.9286 144.205 63.239 146.769C67.5494 149.333 61.0821 162.788 61.0821 162.788C61.0821 162.788 66.1761 158.73 68.5273 162.149C70.8784 165.568 65.5972 169.395 65.5972 169.395C65.5972 169.395 70.4936 167.901 70.4936 169.395C70.4936 170.888 68.9262 172.17 64.4216 172.813H40.1303C40.1303 172.813 36.2118 170.461 36.9955 167.901C37.7792 165.341 41.8919 166.831 41.8919 166.831C41.8919 166.831 35.6258 158.499 36.0176 154.869C36.4095 151.238 44.4407 155.512 44.4407 155.512C44.4407 155.512 38.1711 138.21 39.3466 130.534C40.2715 124.478 44.5854 128.609 46.9295 130.949C46.3774 126.921 46.1495 122.848 46.2482 118.776Z" fill="#39B7FD" stroke="white" stroke-width="1.69767" stroke-linecap="round" stroke-linejoin="round"/>
<path opacity="0.5" d="M46.2482 117.439C46.3647 112.631 46.0258 104.43 49.8913 101.054C53.2874 98.0895 55.928 102.113 56.8776 105.358C59.1899 113.231 58.1026 121.913 58.099 130.04C58.099 130.163 58.099 130.286 58.099 130.425C58.2826 136.408 58.9392 142.879 58.3426 148.851C58.3426 148.851 58.9286 142.868 63.239 145.432C67.5494 147.996 61.0821 161.451 61.0821 161.451C61.0821 161.451 66.1761 157.394 68.5273 160.812C70.8784 164.231 65.5972 168.058 65.5972 168.058C65.5972 168.058 70.4936 166.564 70.4936 168.058C70.4936 169.552 68.9262 170.834 64.4216 171.477H40.1303C40.1303 171.477 36.2118 169.124 36.9955 166.564C37.7792 164.004 41.8919 165.494 41.8919 165.494C41.8919 165.494 35.6258 157.163 36.0176 153.532C36.4095 149.902 44.4407 154.175 44.4407 154.175C44.4407 154.175 38.1711 136.874 39.3466 129.197C40.2715 123.141 44.5854 127.272 46.9295 129.613C46.3774 125.584 46.1495 121.511 46.2482 117.439Z" fill="white"/>
<path d="M54.036 172.597L52.2744 113.859" stroke="white" stroke-width="1.69767" stroke-linecap="round" stroke-linejoin="round"/>
<path d="M53.0578 148.035L43.8511 138.637" stroke="white" stroke-width="1.69767" stroke-linecap="round" stroke-linejoin="round"/>
<path d="M48.7476 143.762L46.7883 137.783" stroke="white" stroke-width="1.69767" stroke-linecap="round" stroke-linejoin="round"/>
<path d="M60.6939 155.296L53.644 163.627" stroke="white" stroke-width="1.69767" stroke-linecap="round" stroke-linejoin="round"/>
<path d="M41.8921 159.997L53.6441 166.619" stroke="white" stroke-width="1.69767" stroke-linecap="round" stroke-linejoin="round"/>
<path d="M48.1615 163.839L43.8511 163.627" stroke="white" stroke-width="1.69767" stroke-linecap="round" stroke-linejoin="round"/>
<path d="M54.036 172.597L52.2744 113.859" stroke="#407BFF" stroke-width="1.69767" stroke-linecap="round" stroke-linejoin="round"/>
<path d="M53.0578 148.035L43.8511 138.637" stroke="#407BFF" stroke-width="1.69767" stroke-linecap="round" stroke-linejoin="round"/>
<path d="M48.7476 143.762L46.7883 137.783" stroke="#407BFF" stroke-width="1.69767" stroke-linecap="round" stroke-linejoin="round"/>
<path d="M60.6939 155.296L53.644 163.627" stroke="#407BFF" stroke-width="1.69767" stroke-linecap="round" stroke-linejoin="round"/>
<path d="M41.8921 159.997L53.6441 166.619" stroke="#407BFF" stroke-width="1.69767" stroke-linecap="round" stroke-linejoin="round"/>
<path d="M48.1615 163.839L43.8511 163.627" stroke="#407BFF" stroke-width="1.69767" stroke-linecap="round" stroke-linejoin="round"/>
<g opacity="0.8">
<path opacity="0.8" d="M54.0359 172.597L52.2744 113.859" stroke="white" stroke-width="1.69767" stroke-linecap="round" stroke-linejoin="round"/>
<path opacity="0.8" d="M53.058 148.035L43.8513 138.637" stroke="white" stroke-width="1.69767" stroke-linecap="round" stroke-linejoin="round"/>
<path opacity="0.8" d="M48.7476 143.762L46.7883 137.783" stroke="white" stroke-width="1.69767" stroke-linecap="round" stroke-linejoin="round"/>
<path opacity="0.8" d="M60.6938 155.296L53.644 163.627" stroke="white" stroke-width="1.69767" stroke-linecap="round" stroke-linejoin="round"/>
<path opacity="0.8" d="M41.8921 159.997L53.6441 166.618" stroke="white" stroke-width="1.69767" stroke-linecap="round" stroke-linejoin="round"/>
<path opacity="0.8" d="M48.1616 163.839L43.8513 163.627" stroke="white" stroke-width="1.69767" stroke-linecap="round" stroke-linejoin="round"/>
</g>
<path d="M88.3882 160.728C88.3882 166.699 84.0495 171.542 84.0495 171.542C84.0495 171.542 79.718 166.699 79.718 160.728C79.718 154.757 84.0566 149.914 84.0566 149.914C84.0566 149.914 88.3882 154.753 88.3882 160.728Z" fill="#407BFF"/>
<path d="M91.3923 169.941C89.2742 172.532 85.6946 172.813 85.6946 172.813C85.6946 172.813 85.5216 168.89 87.6291 166.299C89.7367 163.708 93.3269 163.427 93.3269 163.427C93.3269 163.427 93.4857 167.35 91.3923 169.941Z" fill="#407BFF"/>
<path d="M80.3392 166.21C82.5491 168.694 82.5386 172.621 82.5386 172.621C82.5386 172.621 78.9413 172.517 76.7278 170.03C74.5144 167.542 74.5285 163.619 74.5285 163.619C74.5285 163.619 78.1258 163.723 80.3392 166.21Z" fill="#407BFF"/>
<g opacity="0.5">
<path opacity="0.5" d="M88.3884 160.728C88.3884 166.699 84.0498 171.543 84.0498 171.543C84.0498 171.543 79.7182 166.699 79.7182 160.728C79.7182 154.757 84.0568 149.914 84.0568 149.914C84.0568 149.914 88.3884 154.753 88.3884 160.728Z" fill="white"/>
<path opacity="0.5" d="M84.0498 171.543V149.914" stroke="white" stroke-width="1.69767" stroke-linecap="round" stroke-linejoin="round"/>
<path opacity="0.5" d="M84.0498 157.603L86.4786 155.289" stroke="white" stroke-width="1.69767" stroke-linecap="round" stroke-linejoin="round"/>
<path opacity="0.5" d="M84.0109 161.176L81.0032 156.424" stroke="white" stroke-width="1.69767" stroke-linecap="round" stroke-linejoin="round"/>
<path opacity="0.5" d="M84.0498 163.235L87.6365 159.746" stroke="white" stroke-width="1.69767" stroke-linecap="round" stroke-linejoin="round"/>
<path opacity="0.5" d="M84.011 166.011L80.4631 162.565" stroke="white" stroke-width="1.69767" stroke-linecap="round" stroke-linejoin="round"/>
<path opacity="0.5" d="M84.011 168.409L86.7857 166.01" stroke="white" stroke-width="1.69767" stroke-linecap="round" stroke-linejoin="round"/>
<path opacity="0.5" d="M91.3926 169.941C89.2744 172.532 85.6948 172.813 85.6948 172.813C85.6948 172.813 85.5218 168.89 87.6294 166.299C89.7369 163.708 93.3271 163.427 93.3271 163.427C93.3271 163.427 93.486 167.35 91.3926 169.941Z" fill="white"/>
<path opacity="0.5" d="M85.6948 172.813L93.3271 163.427" stroke="white" stroke-width="1.69767" stroke-linecap="round" stroke-linejoin="round"/>
<path opacity="0.5" d="M90.6159 166.765L92.4834 166.779" stroke="white" stroke-width="1.69767" stroke-linecap="round" stroke-linejoin="round"/>
<path opacity="0.5" d="M89.3379 168.298L89.7085 164.975" stroke="white" stroke-width="1.69767" stroke-linecap="round" stroke-linejoin="round"/>
<path opacity="0.5" d="M88.6248 169.209L91.4136 169.198" stroke="white" stroke-width="1.69767" stroke-linecap="round" stroke-linejoin="round"/>
<path opacity="0.5" d="M87.6293 170.396L87.3081 167.411" stroke="white" stroke-width="1.69767" stroke-linecap="round" stroke-linejoin="round"/>
<path opacity="0.5" d="M86.7856 171.435L88.8367 171.562" stroke="white" stroke-width="1.69767" stroke-linecap="round" stroke-linejoin="round"/>
<path opacity="0.5" d="M80.3395 166.21C82.5494 168.694 82.5388 172.621 82.5388 172.621C82.5388 172.621 78.9416 172.517 76.7281 170.03C74.5147 167.542 74.5288 163.619 74.5288 163.619C74.5288 163.619 78.1261 163.723 80.3395 166.21Z" fill="white"/>
<path opacity="0.5" d="M82.5388 172.621L74.5288 163.619" stroke="white" stroke-width="1.69767" stroke-linecap="round" stroke-linejoin="round"/>
<path opacity="0.5" d="M77.3743 166.819L77.5296 164.786" stroke="white" stroke-width="1.69767" stroke-linecap="round" stroke-linejoin="round"/>
<path opacity="0.5" d="M78.6836 168.323L75.6724 167.669" stroke="white" stroke-width="1.69767" stroke-linecap="round" stroke-linejoin="round"/>
<path opacity="0.5" d="M79.4604 169.164L79.6616 166.133" stroke="white" stroke-width="1.69767" stroke-linecap="round" stroke-linejoin="round"/>
<path opacity="0.5" d="M80.4735 170.334L77.7199 170.465" stroke="white" stroke-width="1.69767" stroke-linecap="round" stroke-linejoin="round"/>
<path opacity="0.5" d="M81.3633 171.331L81.628 169.113" stroke="white" stroke-width="1.69767" stroke-linecap="round" stroke-linejoin="round"/>
</g>
<path d="M84.0496 171.542V149.914" stroke="#407BFF" stroke-width="1.69767" stroke-linecap="round" stroke-linejoin="round"/>
<path d="M84.0496 157.602L86.4783 155.288" stroke="#407BFF" stroke-width="1.69767" stroke-linecap="round" stroke-linejoin="round"/>
<path d="M84.0107 161.176L81.0029 156.424" stroke="#407BFF" stroke-width="1.69767" stroke-linecap="round" stroke-linejoin="round"/>
<path d="M84.0496 163.235L87.6362 159.746" stroke="#407BFF" stroke-width="1.69767" stroke-linecap="round" stroke-linejoin="round"/>
<path d="M84.0107 166.011L80.4629 162.565" stroke="#407BFF" stroke-width="1.69767" stroke-linecap="round" stroke-linejoin="round"/>
<path d="M84.0107 168.409L86.7854 166.01" stroke="#407BFF" stroke-width="1.69767" stroke-linecap="round" stroke-linejoin="round"/>
<g opacity="0.7">
<path opacity="0.7" d="M84.0496 171.543V149.914" stroke="white" stroke-width="1.69767" stroke-linecap="round" stroke-linejoin="round"/>
<path opacity="0.7" d="M84.0496 157.603L86.4783 155.289" stroke="white" stroke-width="1.69767" stroke-linecap="round" stroke-linejoin="round"/>
<path opacity="0.7" d="M84.0107 161.176L81.0029 156.424" stroke="white" stroke-width="1.69767" stroke-linecap="round" stroke-linejoin="round"/>
<path opacity="0.7" d="M84.0496 163.235L87.6362 159.746" stroke="white" stroke-width="1.69767" stroke-linecap="round" stroke-linejoin="round"/>
<path opacity="0.7" d="M84.0107 166.011L80.4629 162.565" stroke="white" stroke-width="1.69767" stroke-linecap="round" stroke-linejoin="round"/>
<path opacity="0.7" d="M84.0107 168.409L86.7855 166.01" stroke="white" stroke-width="1.69767" stroke-linecap="round" stroke-linejoin="round"/>
</g>
<path d="M85.6946 172.813L93.3269 163.427" stroke="#407BFF" stroke-width="1.69767" stroke-linecap="round" stroke-linejoin="round"/>
<path d="M90.6157 166.765L92.4832 166.779" stroke="#407BFF" stroke-width="1.69767" stroke-linecap="round" stroke-linejoin="round"/>
<path d="M89.3379 168.298L89.7085 164.975" stroke="#407BFF" stroke-width="1.69767" stroke-linecap="round" stroke-linejoin="round"/>
<path d="M88.6248 169.209L91.4136 169.198" stroke="#407BFF" stroke-width="1.69767" stroke-linecap="round" stroke-linejoin="round"/>
<path d="M87.6291 170.396L87.3078 167.412" stroke="#407BFF" stroke-width="1.69767" stroke-linecap="round" stroke-linejoin="round"/>
<path d="M86.7856 171.435L88.8367 171.562" stroke="#407BFF" stroke-width="1.69767" stroke-linecap="round" stroke-linejoin="round"/>
<g opacity="0.7">
<path opacity="0.7" d="M85.6946 172.813L93.3269 163.427" stroke="white" stroke-width="1.69767" stroke-linecap="round" stroke-linejoin="round"/>
<path opacity="0.7" d="M90.6159 166.766L92.4834 166.78" stroke="white" stroke-width="1.69767" stroke-linecap="round" stroke-linejoin="round"/>
<path opacity="0.7" d="M89.3381 168.298L89.7088 164.975" stroke="white" stroke-width="1.69767" stroke-linecap="round" stroke-linejoin="round"/>
<path opacity="0.7" d="M88.625 169.209L91.4138 169.198" stroke="white" stroke-width="1.69767" stroke-linecap="round" stroke-linejoin="round"/>
<path opacity="0.7" d="M87.6293 170.397L87.3081 167.412" stroke="white" stroke-width="1.69767" stroke-linecap="round" stroke-linejoin="round"/>
<path opacity="0.7" d="M86.7856 171.435L88.8367 171.562" stroke="white" stroke-width="1.69767" stroke-linecap="round" stroke-linejoin="round"/>
</g>
<path d="M82.5386 172.621L74.5285 163.619" stroke="#407BFF" stroke-width="1.69767" stroke-linecap="round" stroke-linejoin="round"/>
<path d="M77.374 166.819L77.5294 164.786" stroke="#407BFF" stroke-width="1.69767" stroke-linecap="round" stroke-linejoin="round"/>
<path d="M78.6836 168.324L75.6724 167.669" stroke="#407BFF" stroke-width="1.69767" stroke-linecap="round" stroke-linejoin="round"/>
<path d="M79.4602 169.164L79.6614 166.133" stroke="#407BFF" stroke-width="1.69767" stroke-linecap="round" stroke-linejoin="round"/>
<path d="M80.4735 170.334L77.7199 170.465" stroke="#407BFF" stroke-width="1.69767" stroke-linecap="round" stroke-linejoin="round"/>
<path d="M81.363 171.331L81.6278 169.113" stroke="#407BFF" stroke-width="1.69767" stroke-linecap="round" stroke-linejoin="round"/>
<g opacity="0.7">
<path opacity="0.7" d="M82.5386 172.621L74.5285 163.619" stroke="white" stroke-width="1.69767" stroke-linecap="round" stroke-linejoin="round"/>
<path opacity="0.7" d="M77.3743 166.819L77.5296 164.786" stroke="white" stroke-width="1.69767" stroke-linecap="round" stroke-linejoin="round"/>
<path opacity="0.7" d="M78.6839 168.324L75.6726 167.67" stroke="white" stroke-width="1.69767" stroke-linecap="round" stroke-linejoin="round"/>
<path opacity="0.7" d="M79.4604 169.164L79.6616 166.134" stroke="white" stroke-width="1.69767" stroke-linecap="round" stroke-linejoin="round"/>
<path opacity="0.7" d="M80.4738 170.334L77.7202 170.465" stroke="white" stroke-width="1.69767" stroke-linecap="round" stroke-linejoin="round"/>
<path opacity="0.7" d="M81.3633 171.331L81.628 169.113" stroke="white" stroke-width="1.69767" stroke-linecap="round" stroke-linejoin="round"/>
</g>
<path d="M186.112 58.3937H90.6796C90.651 58.3942 90.6226 58.3885 90.5961 58.3769C90.5695 58.3653 90.5454 58.3481 90.525 58.3262C90.5046 58.3044 90.4885 58.2783 90.4774 58.2495C90.4664 58.2208 90.4607 58.1899 90.4607 58.1587C90.4607 58.0954 90.4838 58.0347 90.5248 57.9899C90.5658 57.9451 90.6215 57.92 90.6796 57.92H186.112C186.14 57.9199 186.168 57.9262 186.195 57.9382C186.221 57.9502 186.245 57.9679 186.265 57.9901C186.285 58.0123 186.301 58.0387 186.311 58.0677C186.322 58.0966 186.327 58.1276 186.327 58.1587C186.327 58.221 186.304 58.2808 186.264 58.3249C186.223 58.3689 186.169 58.3937 186.112 58.3937Z" fill="#407BFF"/>
<g opacity="0.3">
<path opacity="0.3" d="M186.112 58.3937H90.6796C90.651 58.3942 90.6226 58.3885 90.5961 58.3769C90.5695 58.3653 90.5454 58.3481 90.525 58.3262C90.5046 58.3044 90.4885 58.2783 90.4774 58.2495C90.4664 58.2208 90.4607 58.1899 90.4607 58.1587C90.4607 58.0954 90.4838 58.0347 90.5248 57.9899C90.5658 57.9451 90.6215 57.92 90.6796 57.92H186.112C186.14 57.9199 186.168 57.9262 186.195 57.9382C186.221 57.9502 186.245 57.9679 186.265 57.9901C186.285 58.0123 186.301 58.0387 186.311 58.0677C186.322 58.0966 186.327 58.1276 186.327 58.1587C186.327 58.221 186.304 58.2808 186.264 58.3249C186.223 58.3689 186.169 58.3937 186.112 58.3937Z" fill="white"/>
</g>
<path d="M185.921 99.6725H90.4889C90.4603 99.673 90.4319 99.6673 90.4054 99.6558C90.3788 99.6442 90.3547 99.627 90.3343 99.6051C90.3139 99.5832 90.2978 99.5571 90.2867 99.5284C90.2757 99.4996 90.27 99.4688 90.27 99.4376C90.27 99.3743 90.293 99.3135 90.3341 99.2687C90.3751 99.224 90.4308 99.1988 90.4889 99.1988H185.921C185.949 99.1988 185.978 99.205 186.004 99.217C186.03 99.2291 186.054 99.2467 186.074 99.269C186.094 99.2912 186.11 99.3175 186.121 99.3465C186.131 99.3754 186.137 99.4064 186.136 99.4376C186.136 99.4684 186.131 99.499 186.12 99.5275C186.109 99.556 186.093 99.5819 186.073 99.6037C186.053 99.6255 186.029 99.6428 186.003 99.6546C185.977 99.6664 185.949 99.6725 185.921 99.6725Z" fill="#407BFF"/>
<g opacity="0.3">
<path opacity="0.3" d="M185.921 99.6725H90.4889C90.4603 99.673 90.4319 99.6673 90.4054 99.6558C90.3788 99.6442 90.3547 99.627 90.3343 99.6051C90.3139 99.5832 90.2978 99.5571 90.2867 99.5284C90.2757 99.4996 90.27 99.4688 90.27 99.4376C90.27 99.3743 90.293 99.3135 90.3341 99.2687C90.3751 99.224 90.4308 99.1988 90.4889 99.1988H185.921C185.949 99.1988 185.978 99.205 186.004 99.217C186.03 99.2291 186.054 99.2467 186.074 99.269C186.094 99.2912 186.11 99.3175 186.121 99.3465C186.131 99.3754 186.137 99.4064 186.136 99.4376C186.136 99.4684 186.131 99.499 186.12 99.5275C186.109 99.556 186.093 99.5819 186.073 99.6037C186.053 99.6255 186.029 99.6428 186.003 99.6546C185.977 99.6664 185.949 99.6725 185.921 99.6725Z" fill="white"/>
</g>
<path d="M185.921 133.417H90.4889C90.4308 133.417 90.3751 133.392 90.3341 133.347C90.293 133.302 90.27 133.242 90.27 133.178C90.27 133.147 90.2757 133.116 90.2867 133.087C90.2978 133.059 90.3139 133.033 90.3343 133.011C90.3547 132.989 90.3788 132.972 90.4054 132.96C90.4319 132.948 90.4603 132.943 90.4889 132.943H185.921C185.949 132.943 185.977 132.949 186.003 132.961C186.029 132.973 186.053 132.99 186.073 133.012C186.093 133.034 186.109 133.06 186.12 133.088C186.131 133.117 186.136 133.147 186.136 133.178C186.137 133.209 186.131 133.24 186.121 133.269C186.11 133.298 186.094 133.325 186.074 133.347C186.054 133.369 186.03 133.387 186.004 133.399C185.978 133.411 185.949 133.417 185.921 133.417Z" fill="#407BFF"/>
<g opacity="0.3">
<path opacity="0.3" d="M185.921 133.417H90.4889C90.4308 133.417 90.3751 133.392 90.3341 133.347C90.293 133.302 90.27 133.242 90.27 133.178C90.27 133.147 90.2757 133.116 90.2867 133.087C90.2978 133.059 90.3139 133.033 90.3343 133.011C90.3547 132.989 90.3788 132.972 90.4054 132.96C90.4319 132.948 90.4603 132.943 90.4889 132.943H185.921C185.949 132.943 185.977 132.949 186.003 132.961C186.029 132.973 186.053 132.99 186.073 133.012C186.093 133.034 186.109 133.06 186.12 133.088C186.131 133.117 186.136 133.147 186.136 133.178C186.137 133.209 186.131 133.24 186.121 133.269C186.11 133.298 186.094 133.325 186.074 133.347C186.054 133.369 186.03 133.387 186.004 133.399C185.978 133.411 185.949 133.417 185.921 133.417Z" fill="white"/>
</g>
<path d="M110.777 139.126V174.245" stroke="#263238" stroke-width="0.450174" stroke-miterlimit="10"/>
<path d="M115.377 139.126V174.245" stroke="#263238" stroke-width="0.450174" stroke-miterlimit="10"/>
<path d="M119.977 139.126V174.245" stroke="#263238" stroke-width="0.450174" stroke-miterlimit="10"/>
<path d="M124.576 139.126V174.245" stroke="#263238" stroke-width="0.450174" stroke-miterlimit="10"/>
<path d="M129.176 139.126V174.245" stroke="#263238" stroke-width="0.450174" stroke-miterlimit="10"/>
<path d="M133.776 139.126V174.245" stroke="#263238" stroke-width="0.450174" stroke-miterlimit="10"/>
<path d="M138.376 139.126V174.245" stroke="#263238" stroke-width="0.450174" stroke-miterlimit="10"/>
<path d="M142.976 139.126V174.245" stroke="#263238" stroke-width="0.450174" stroke-miterlimit="10"/>
<path d="M147.576 139.126V174.245" stroke="#263238" stroke-width="0.450174" stroke-miterlimit="10"/>
<path d="M152.176 139.126V174.245" stroke="#263238" stroke-width="0.450174" stroke-miterlimit="10"/>
<path d="M156.775 139.126V174.245" stroke="#263238" stroke-width="0.450174" stroke-miterlimit="10"/>
<path d="M161.375 139.126V174.245" stroke="#263238" stroke-width="0.450174" stroke-miterlimit="10"/>
<path d="M111.006 142.388H161.146" stroke="#263238" stroke-width="0.450174" stroke-miterlimit="10"/>
<path d="M111.006 147.153H161.146" stroke="#263238" stroke-width="0.450174" stroke-miterlimit="10"/>
<path d="M111.006 151.92H161.146" stroke="#263238" stroke-width="0.450174" stroke-miterlimit="10"/>
<path d="M111.006 156.686H161.146" stroke="#263238" stroke-width="0.450174" stroke-miterlimit="10"/>
<path d="M111.006 161.452H161.146" stroke="#263238" stroke-width="0.450174" stroke-miterlimit="10"/>
<path d="M111.006 166.218H161.146" stroke="#263238" stroke-width="0.450174" stroke-miterlimit="10"/>
<path d="M111.006 170.984H161.146" stroke="#263238" stroke-width="0.450174" stroke-miterlimit="10"/>
<path d="M134.369 143.955L125.413 174.069H143.968L135.001 143.955C134.98 143.882 134.937 143.818 134.881 143.773C134.824 143.728 134.755 143.704 134.685 143.704C134.615 143.704 134.546 143.728 134.49 143.773C134.433 143.818 134.391 143.882 134.369 143.955Z" fill="#263238" stroke="#263238" stroke-width="1.80069" stroke-miterlimit="10"/>
<path d="M153.288 162.611L149.881 174.068H157.326L153.919 162.611C153.898 162.538 153.856 162.474 153.799 162.429C153.742 162.384 153.674 162.359 153.603 162.359C153.533 162.359 153.465 162.384 153.408 162.429C153.351 162.474 153.309 162.538 153.288 162.611Z" fill="#263238" stroke="#263238" stroke-width="1.80069" stroke-miterlimit="10"/>
<path d="M125.54 151.446L118.812 174.068H132.904L126.172 151.446C126.151 151.373 126.109 151.309 126.052 151.264C125.995 151.219 125.927 151.195 125.856 151.195C125.786 151.195 125.718 151.219 125.661 151.264C125.604 151.309 125.562 151.373 125.54 151.446Z" fill="url(#paint2_linear)"/>
<path d="M150.174 156.62L144.981 174.068H155.995L150.792 156.62C150.768 156.553 150.725 156.495 150.67 156.454C150.615 156.413 150.55 156.391 150.483 156.391C150.416 156.391 150.351 156.413 150.296 156.454C150.241 156.495 150.198 156.553 150.174 156.62Z" fill="url(#paint3_linear)"/>
<path d="M110.17 128.027C108.151 128.027 106.178 127.374 104.5 126.151C102.821 124.928 101.513 123.19 100.741 121.156C99.9683 119.122 99.7662 116.885 100.16 114.725C100.554 112.566 101.526 110.583 102.953 109.027C104.38 107.47 106.199 106.41 108.179 105.981C110.158 105.551 112.21 105.772 114.075 106.614C115.94 107.456 117.534 108.883 118.656 110.713C119.777 112.544 120.375 114.696 120.375 116.897C120.373 119.848 119.297 122.677 117.383 124.764C115.47 126.85 112.876 128.024 110.17 128.027ZM110.17 109.035C108.744 109.036 107.351 109.498 106.166 110.362C104.981 111.226 104.057 112.454 103.512 113.891C102.967 115.328 102.825 116.908 103.103 118.433C103.382 119.958 104.069 121.358 105.077 122.457C106.085 123.556 107.37 124.305 108.768 124.608C110.166 124.911 111.616 124.755 112.933 124.16C114.25 123.564 115.375 122.557 116.167 121.264C116.959 119.971 117.382 118.452 117.382 116.897C117.38 114.812 116.619 112.813 115.267 111.339C113.915 109.865 112.082 109.036 110.17 109.035Z" fill="#263238" stroke="#263238" stroke-width="1.80069" stroke-miterlimit="10"/>
<path d="M135.34 128.027C133.321 128.028 131.348 127.376 129.669 126.153C127.99 124.931 126.681 123.193 125.908 121.159C125.135 119.125 124.933 116.887 125.326 114.728C125.72 112.569 126.691 110.585 128.119 109.028C129.546 107.471 131.364 106.411 133.344 105.981C135.324 105.551 137.376 105.771 139.241 106.614C141.106 107.456 142.7 108.882 143.822 110.713C144.944 112.543 145.542 114.695 145.542 116.897C145.539 119.847 144.464 122.676 142.551 124.762C140.639 126.849 138.045 128.023 135.34 128.027ZM135.34 109.035C133.914 109.037 132.521 109.499 131.337 110.364C130.152 111.229 129.23 112.457 128.685 113.894C128.141 115.33 127.999 116.911 128.278 118.435C128.557 119.96 129.244 121.36 130.252 122.459C131.261 123.557 132.545 124.305 133.943 124.608C135.341 124.911 136.79 124.754 138.107 124.159C139.424 123.564 140.549 122.556 141.341 121.264C142.133 119.971 142.556 118.451 142.556 116.897C142.553 114.811 141.792 112.812 140.439 111.339C139.086 109.865 137.252 109.036 135.34 109.035Z" fill="#263238" stroke="#263238" stroke-width="1.80069" stroke-miterlimit="10"/>
<path d="M160.507 128.027C158.488 128.027 156.515 127.374 154.837 126.151C153.158 124.928 151.85 123.19 151.078 121.156C150.305 119.122 150.103 116.885 150.497 114.725C150.891 112.566 151.863 110.583 153.29 109.027C154.718 107.47 156.536 106.41 158.516 105.981C160.495 105.551 162.548 105.772 164.412 106.614C166.277 107.456 167.871 108.883 168.993 110.713C170.114 112.544 170.713 114.696 170.713 116.897C170.71 119.848 169.634 122.677 167.72 124.764C165.807 126.85 163.213 128.024 160.507 128.027ZM160.507 109.035C159.081 109.035 157.687 109.496 156.502 110.36C155.316 111.224 154.392 112.452 153.847 113.888C153.301 115.325 153.159 116.906 153.437 118.431C153.715 119.956 154.401 121.356 155.41 122.456C156.418 123.555 157.702 124.304 159.1 124.607C160.499 124.911 161.948 124.755 163.265 124.16C164.583 123.565 165.709 122.557 166.501 121.264C167.293 119.972 167.715 118.452 167.715 116.897C167.714 114.812 166.954 112.814 165.602 111.34C164.251 109.866 162.418 109.037 160.507 109.035Z" fill="#263238" stroke="#263238" stroke-width="1.80069" stroke-miterlimit="10"/>
<path d="M110.17 128.027C108.792 128.032 107.429 127.73 106.162 127.14C104.895 126.55 103.752 125.685 102.802 124.597L104.966 122.337C105.637 123.105 106.444 123.717 107.339 124.133C108.234 124.55 109.197 124.762 110.17 124.758C111.116 124.758 112.054 124.555 112.928 124.16C113.803 123.765 114.598 123.186 115.267 122.456C115.936 121.726 116.467 120.859 116.83 119.905C117.192 118.952 117.378 117.929 117.378 116.897C117.378 115.864 117.192 114.842 116.83 113.888C116.467 112.935 115.936 112.068 115.267 111.338C114.598 110.608 113.803 110.029 112.928 109.634C112.054 109.239 111.116 109.035 110.17 109.035V105.767C111.51 105.767 112.837 106.055 114.075 106.614C115.314 107.173 116.439 107.993 117.386 109.027C118.334 110.06 119.086 111.287 119.599 112.638C120.112 113.988 120.376 115.435 120.376 116.897C120.376 118.358 120.112 119.806 119.599 121.156C119.086 122.507 118.334 123.734 117.386 124.767C116.439 125.801 115.314 126.62 114.075 127.18C112.837 127.739 111.51 128.027 110.17 128.027Z" fill="url(#paint4_linear)"/>
<path d="M139.312 127.149L138.147 124.142C139.678 123.435 140.937 122.172 141.712 120.568C142.488 118.963 142.731 117.116 142.401 115.339C142.07 113.562 141.187 111.963 139.901 110.815C138.614 109.666 137.003 109.037 135.34 109.035V105.767C137.695 105.767 139.977 106.655 141.8 108.281C143.623 109.907 144.874 112.17 145.342 114.687C145.809 117.204 145.464 119.82 144.365 122.091C143.266 124.363 141.481 126.15 139.312 127.149Z" fill="url(#paint5_linear)"/>
<path d="M167.574 115.33C167.239 113.556 166.355 111.962 165.069 110.816C163.783 109.669 162.175 109.041 160.514 109.035V105.767C162.866 105.773 165.144 106.663 166.966 108.286C168.787 109.909 170.04 112.167 170.515 114.679L167.574 115.33Z" fill="url(#paint6_linear)"/>
<path d="M114.24 93.4431H162.169" stroke="#263238" stroke-width="1.80069" stroke-miterlimit="10"/>
<path d="M114.24 93.4435V92.3305" stroke="#263238" stroke-width="1.80069" stroke-miterlimit="10"/>
<path d="M123.824 93.4435V92.3305" stroke="#263238" stroke-width="1.80069" stroke-miterlimit="10"/>
<path d="M133.412 93.4435V92.3305" stroke="#263238" stroke-width="1.80069" stroke-miterlimit="10"/>
<path d="M142.997 93.4435V92.3305" stroke="#263238" stroke-width="1.80069" stroke-miterlimit="10"/>
<path d="M152.581 93.4435V92.3305" stroke="#263238" stroke-width="1.80069" stroke-miterlimit="10"/>
<path d="M162.169 93.4435V92.3305" stroke="#263238" stroke-width="1.80069" stroke-miterlimit="10"/>
<path d="M122.483 78.5863H115.581V87.4988H122.483V78.5863Z" fill="url(#paint7_linear)"/>
<path d="M132.067 68.1876H125.166V88.9849H132.067V68.1876Z" fill="url(#paint8_linear)"/>
<path d="M141.655 53.631H134.754V76.8076H141.655V53.631Z" fill="url(#paint9_linear)"/>
<path d="M151.24 75.3214H144.338V79.7805H151.24V75.3214Z" fill="url(#paint10_linear)"/>
<path d="M160.824 72.6458H153.923V84.234H160.824V72.6458Z" fill="url(#paint11_linear)"/>
<path d="M122.483 87.5027H115.581V93.4469H122.483V87.5027Z" fill="#263238" stroke="#263238" stroke-width="1.80069" stroke-miterlimit="10"/>
<path d="M132.067 88.9887H125.166V93.4476H132.067V88.9887Z" fill="#263238" stroke="#263238" stroke-width="1.80069" stroke-miterlimit="10"/>
<path d="M141.655 76.8037H134.754V93.4431H141.655V76.8037Z" fill="#263238" stroke="#263238" stroke-width="1.80069" stroke-miterlimit="10"/>
<path d="M151.24 79.7758H144.338V93.4431H151.24V79.7758Z" fill="#263238" stroke="#263238" stroke-width="1.80069" stroke-miterlimit="10"/>
<path d="M160.824 84.234H153.923V93.4431H160.824V84.234Z" fill="#263238" stroke="#263238" stroke-width="1.80069" stroke-miterlimit="10"/>
<path d="M174.941 49.4233C174.858 49.4239 174.777 49.4021 174.703 49.3598C174.63 49.3174 174.567 49.2559 174.521 49.1807L159.673 25.5653L144.61 43.0824L129.229 32.1487L114.349 35.9139L99.2362 49.3001C99.1313 49.393 98.9969 49.4367 98.8625 49.4215C98.7281 49.4063 98.6047 49.3336 98.5195 49.2192C98.4343 49.1049 98.3943 48.9583 98.4082 48.8117C98.4221 48.6651 98.4888 48.5306 98.5937 48.4377L113.89 34.8898L129.423 30.959L144.455 41.6464L159.8 23.7982L175.361 48.5532C175.414 48.6363 175.445 48.7335 175.451 48.8344C175.457 48.9352 175.437 49.0359 175.394 49.1255C175.351 49.2151 175.287 49.2902 175.208 49.3426C175.128 49.3951 175.038 49.423 174.945 49.4233H174.941Z" fill="#263238"/>
<path d="M100.193 48.869C100.193 49.1408 100.119 49.4066 99.9805 49.6326C99.842 49.8587 99.6452 50.0349 99.4149 50.1389C99.1846 50.243 98.9312 50.2702 98.6867 50.2171C98.4423 50.1641 98.2177 50.0332 98.0415 49.8409C97.8652 49.6487 97.7452 49.4038 97.6966 49.1371C97.6479 48.8705 97.6729 48.5941 97.7683 48.3429C97.8637 48.0917 98.0252 47.8771 98.2324 47.726C98.4397 47.575 98.6834 47.4944 98.9326 47.4944C99.2669 47.4944 99.5874 47.6392 99.8238 47.897C100.06 48.1548 100.193 48.5044 100.193 48.869Z" fill="#39B7FD"/>
<path d="M114.12 36.7766C114.816 36.7766 115.38 36.1612 115.38 35.4019C115.38 34.6427 114.816 34.0272 114.12 34.0272C113.424 34.0272 112.859 34.6427 112.859 35.4019C112.859 36.1612 113.424 36.7766 114.12 36.7766Z" fill="url(#paint12_linear)"/>
<path d="M129.324 32.9268C130.02 32.9268 130.584 32.3113 130.584 31.5521C130.584 30.7928 130.02 30.1773 129.324 30.1773C128.628 30.1773 128.064 30.7928 128.064 31.5521C128.064 32.3113 128.628 32.9268 129.324 32.9268Z" fill="url(#paint13_linear)"/>
<path d="M144.529 43.7372C145.225 43.7372 145.789 43.1217 145.789 42.3625C145.789 41.6034 145.225 40.9879 144.529 40.9879C143.833 40.9879 143.269 41.6034 143.269 42.3625C143.269 43.1217 143.833 43.7372 144.529 43.7372Z" fill="url(#paint14_linear)"/>
<path d="M160.994 24.6838C160.994 24.9557 160.92 25.2214 160.781 25.4475C160.643 25.6735 160.446 25.8497 160.216 25.9538C159.985 26.0578 159.732 26.085 159.488 26.032C159.243 25.979 159.018 25.848 158.842 25.6558C158.666 25.4636 158.546 25.2186 158.497 24.952C158.449 24.6853 158.474 24.4089 158.569 24.1578C158.664 23.9066 158.826 23.6919 159.033 23.5409C159.24 23.3898 159.484 23.3092 159.733 23.3092C160.068 23.3092 160.388 23.454 160.625 23.7118C160.861 23.9696 160.994 24.3192 160.994 24.6838Z" fill="url(#paint15_linear)"/>
<path d="M176.198 48.869C176.198 49.1408 176.124 49.4066 175.986 49.6326C175.847 49.8587 175.651 50.0349 175.42 50.1389C175.19 50.243 174.937 50.2702 174.692 50.2171C174.448 50.1641 174.223 50.0332 174.047 49.8409C173.871 49.6487 173.751 49.4038 173.702 49.1371C173.653 48.8705 173.678 48.5941 173.774 48.3429C173.869 48.0917 174.031 47.8771 174.238 47.726C174.445 47.575 174.689 47.4944 174.938 47.4944C175.272 47.4944 175.593 47.6392 175.829 47.897C176.065 48.1548 176.198 48.5044 176.198 48.869Z" fill="url(#paint16_linear)"/>
<path d="M202.117 179.866C215.574 179.866 226.482 178.268 226.482 176.297C226.482 174.326 215.574 172.728 202.117 172.728C188.66 172.728 177.751 174.326 177.751 176.297C177.751 178.268 188.66 179.866 202.117 179.866Z" fill="#407BFF"/>
<path opacity="0.7" d="M202.117 179.866C215.574 179.866 226.482 178.268 226.482 176.297C226.482 174.326 215.574 172.728 202.117 172.728C188.66 172.728 177.751 174.326 177.751 176.297C177.751 178.268 188.66 179.866 202.117 179.866Z" fill="white"/>
<path d="M68.6262 179.867C81.0437 179.867 91.11 178.269 91.11 176.298C91.11 174.327 81.0437 172.729 68.6262 172.729C56.2087 172.729 46.1423 174.327 46.1423 176.298C46.1423 178.269 56.2087 179.867 68.6262 179.867Z" fill="#407BFF"/>
<path opacity="0.7" d="M68.6262 179.867C81.0437 179.867 91.11 178.269 91.11 176.298C91.11 174.327 81.0437 172.729 68.6262 172.729C56.2087 172.729 46.1423 174.327 46.1423 176.298C46.1423 178.269 56.2087 179.867 68.6262 179.867Z" fill="white"/>
<path d="M195.24 50.5713C195.24 50.5713 204.496 49.5935 205.026 51.2759C205.555 52.9583 205.379 56.8005 205.379 56.8005C205.845 56.9327 206.3 57.1092 206.738 57.328C206.861 57.4588 208.231 58.4367 206.953 60.0421C206.619 60.4492 206.215 60.7803 205.763 61.0162C205.2 61.2882 204.664 61.6237 204.164 62.0171L202.307 64.3156L202.66 67.2761C202.66 67.2761 203.49 67.9306 204.503 70.2136C204.503 70.2136 206.897 71.7536 208.302 72.6275C209.457 73.2896 210.659 73.8509 211.895 74.3061C211.895 74.3061 212.538 74.5332 212.492 75.0376C212.446 75.5419 209.294 86.9723 209.294 86.9723L207.634 92.7472C207.603 93.4569 207.518 94.1625 207.38 94.857C207.144 96.1005 206.254 96.9167 205.333 96.6626L205.424 100.897C205.424 100.897 201.096 103.257 193.958 102.857C193.958 102.857 190.598 102.503 188.112 100.497L188.066 90.6028L176.614 88.185C176.614 88.185 175.164 87.8501 175.908 86.4256C176.653 85.0012 179.156 81.4669 179.156 81.4669L187.202 70.7334C187.202 70.7334 187.756 70.0211 187.961 69.794C188.165 69.5668 188.667 69.409 190.654 69.228C192.642 69.0471 194.869 68.6275 194.869 68.6275C194.869 68.6275 196.076 67.4956 196.249 67.4956C196.422 67.4956 196.458 65.8016 196.458 65.8016C195.847 65.3211 195.339 64.702 194.969 63.9868C194.6 63.2716 194.376 62.4775 194.315 61.6591C194.142 58.9103 195.247 52.4693 195.247 52.4693L195.24 50.5713Z" fill="white"/>
<path d="M188.254 100.458C188.254 100.458 187.28 116.242 187.28 123.796C187.28 131.349 187.714 137.467 187.929 142.772C188.145 148.077 187.28 151.731 188.035 155.619C188.791 159.508 190.524 170.826 190.524 170.826L192.561 172.166C192.561 172.166 192.914 163.161 193.655 159.981C194.397 156.801 194.63 143.361 195.067 139.234C195.505 135.107 196.907 120.493 196.907 120.493C196.907 120.493 202.311 135.815 203.614 141.829C204.917 147.842 209.344 161.394 210.321 164.693C211.299 167.993 212.807 172.882 212.807 172.882C213.265 173.028 213.746 173.068 214.219 172.998C214.423 172.98 214.62 172.905 214.79 172.781C214.961 172.658 215.099 172.488 215.193 172.289C215.193 172.289 213.756 162.418 213.124 157.621C212.344 151.688 211.073 142.772 210.3 139.473C209.527 136.173 208.355 130.984 208.355 128.508C208.355 126.033 205.439 101.174 205.439 101.174C205.439 101.174 195.279 105.998 188.254 100.458Z" fill="#263238"/>
<path d="M196.9 120.493L192.564 114.98" stroke="white" stroke-width="0.900346" stroke-miterlimit="10" stroke-linecap="round"/>
<path d="M191.456 115.384L195.025 119.007" stroke="white" stroke-width="0.900346" stroke-miterlimit="10" stroke-linecap="round"/>
<path d="M199.085 115.788C199.999 113.266 201.697 111.176 203.882 109.882" stroke="white" stroke-width="0.900346" stroke-miterlimit="10" stroke-linecap="round"/>
<path d="M204.126 102.506C204.126 102.506 203.635 104.515 204.249 105.724C204.864 106.933 205.481 106.933 205.481 106.933C205.481 106.933 206.586 113.505 206.586 117.262C206.586 121.02 205.848 121.42 206.586 125.578C207.324 129.736 207.818 131.08 207.818 133.494C207.818 135.908 208.8 137.521 209.661 138.995C210.522 140.47 210.77 144.77 210.77 146.506C210.77 148.243 211.26 150.129 211.755 151.873C211.755 151.873 211.871 155.785 212.492 156.701C213.114 157.617 213.23 160.728 213.23 160.728" stroke="white" stroke-width="0.900346" stroke-miterlimit="10" stroke-linecap="round"/>
<path d="M196.01 119.946C196.01 119.946 196.253 123.026 195.392 128.396C194.531 133.767 193.916 135.238 193.793 141.409C193.669 147.581 194.163 148.655 193.916 151.873C193.669 155.092 192.194 160.178 192.194 162.487C192.194 164.797 192.42 172.182 192.42 172.182" stroke="white" stroke-width="0.900346" stroke-miterlimit="10" stroke-linecap="round"/>
<path d="M193.302 103.31L193.549 104.385L195.148 104.785L194.901 103.445" stroke="white" stroke-width="0.900346" stroke-miterlimit="10" stroke-linecap="round"/>
<path d="M195.155 104.785C195.155 104.785 198.107 104.65 199.582 104.115L199.229 103.041" stroke="white" stroke-width="0.900346" stroke-miterlimit="10" stroke-linecap="round"/>
<path d="M200.56 102.772L200.913 104.116C200.913 104.116 203.275 103.97 203.628 103.584" stroke="white" stroke-width="0.900346" stroke-miterlimit="10" stroke-linecap="round"/>
<path d="M193.549 104.385C192.733 104.357 191.934 104.127 191.212 103.711L190.104 103.041L190.457 102.102" stroke="white" stroke-width="0.900346" stroke-miterlimit="10" stroke-linecap="round"/>
<path d="M190.524 170.827C190.524 170.827 185.229 174.596 184.47 176.363C183.711 178.13 186.739 177.425 188.9 176.482C191.06 175.539 192.43 172.166 192.43 172.166L190.524 170.827Z" fill="white" stroke="#263238" stroke-width="1.80069" stroke-miterlimit="10" stroke-linecap="round"/>
<path d="M212.976 172.932C213.243 174.547 213.769 176.098 214.529 177.514C215.694 179.489 217.894 181.183 217.894 178.076C217.894 174.969 215.179 172.301 215.179 172.301C215.179 172.301 213.83 173.098 212.976 172.932Z" fill="white" stroke="#263238" stroke-width="1.80069" stroke-miterlimit="10" stroke-linecap="round"/>
<path d="M195.208 52.7032C195.208 52.7032 194.061 60.4646 194.449 62.3896C195.335 66.6977 198.446 66.5129 200.391 65.689C202.209 64.919 204.023 62.1971 204.256 61.8391C204.273 61.8138 204.296 61.7949 204.323 61.7852C204.613 61.6966 206.41 61.0729 207.2 59.5599C208.065 57.9083 206.445 57.2037 206.445 57.2037" fill="white"/>
<g style="mix-blend-mode:multiply" opacity="0.5">
<path d="M202.569 63.8372L204.284 61.7813C204.284 61.7813 206.314 61.0999 207.2 59.5407C207.719 58.6282 207.433 57.8313 207.119 57.6157C206.689 57.3615 206.244 57.1365 205.788 56.942L205.213 58.3241L204.722 58.4165C204.722 58.4165 204.927 56.992 204.334 56.1489C203.741 55.3058 203.607 52.8649 203.607 52.8649C203.607 52.8649 202.777 57.7312 202.675 59.7678C202.648 60.9012 202.324 62.0025 201.739 62.9402C201.739 62.9402 201.845 64.1837 202.05 65.4272C202.075 65.5735 202.099 65.793 202.124 66.0663L202.406 65.5735L202.562 66.0432C202.385 65.2347 202.304 64.3762 202.569 63.8372Z" fill="#407BFF"/>
</g>
<path d="M195.208 52.7032C195.208 52.7032 194.061 60.4646 194.449 62.3896C195.335 66.6977 198.446 66.5129 200.391 65.689C202.209 64.919 204.023 62.1971 204.256 61.8391C204.273 61.8138 204.296 61.7949 204.323 61.7852C204.613 61.6966 206.41 61.0729 207.2 59.5599C208.065 57.9083 206.445 57.2037 206.445 57.2037" stroke="#263238" stroke-width="1.80069" stroke-miterlimit="10" stroke-linecap="round"/>
<path d="M199.6 56.6496C199.533 56.9578 199.6 57.2351 199.731 57.2698C199.861 57.3044 200.038 57.0887 200.105 56.7844C200.172 56.4801 200.105 56.2028 199.974 56.1643C199.844 56.1257 199.667 56.3453 199.6 56.6496Z" fill="#263238"/>
<path d="M196.568 55.8448C196.501 56.1527 196.568 56.4299 196.698 56.4646C196.829 56.4992 197.005 56.2836 197.072 55.9795C197.139 55.6754 197.072 55.3943 196.942 55.3597C196.811 55.325 196.631 55.5368 196.568 55.8448Z" fill="#263238"/>
<path d="M201.482 55.3019C201.315 54.9818 201.077 54.7123 200.791 54.5179C200.504 54.3236 200.177 54.2106 199.84 54.1892" stroke="#263238" stroke-width="1.80069" stroke-miterlimit="10" stroke-linecap="round"/>
<path d="M197.517 54.2471C197.239 54.1146 196.931 54.0775 196.634 54.1408C196.336 54.2041 196.063 54.3648 195.851 54.6015" stroke="#263238" stroke-width="1.80069" stroke-miterlimit="10" stroke-linecap="round"/>
<path d="M197.722 55.6485C197.729 56.1643 197.693 56.6797 197.616 57.1887C197.5 57.8317 197.041 57.9588 197.157 58.4555C197.274 58.9522 197.863 59.0023 197.863 59.0023" stroke="#263238" stroke-width="1.80069" stroke-miterlimit="10" stroke-linecap="round"/>
<path d="M198.478 61.0075C198.727 61.0944 198.992 61.1211 199.252 61.0859C199.512 61.0506 199.762 60.9542 199.985 60.8033" stroke="#263238" stroke-width="1.80069" stroke-miterlimit="10" stroke-linecap="round"/>
<path d="M204.069 47.2827C204.069 47.2827 201.693 45.042 199.424 45.042C197.154 45.042 195.314 46.4588 193.909 46.582C192.504 46.7052 191.534 45.2845 190.669 47.171C189.804 49.0575 193.048 52.2414 195.208 52.7111C197.369 53.1808 200.394 52.4762 201.259 52.3569C202.088 52.2949 202.919 52.2949 203.748 52.3569C203.748 52.3569 203.098 54.5975 203.748 55.3059C204.398 56.0143 204.503 56.484 204.503 56.9537C204.541 57.4721 204.613 57.9868 204.719 58.4937L205.368 58.7324L205.693 57.4349C206.57 56.4158 207.168 55.1507 207.423 53.7813C207.744 51.66 206.124 49.5464 206.124 49.5464L204.069 47.2827Z" fill="#263238"/>
<path d="M194.968 51.7457C194.968 51.7457 198.665 52.5159 201.559 51.2028C204.454 49.8898 201.958 47.2829 201.958 47.2829" stroke="white" stroke-width="0.900346" stroke-miterlimit="10" stroke-linecap="round"/>
<path d="M202.569 47.0635C202.869 47.0635 205.365 49.1313 204.863 50.6561C204.362 52.181 203.367 52.2926 203.367 52.2926" stroke="white" stroke-width="0.900346" stroke-miterlimit="10" stroke-linecap="round"/>
<path d="M202.159 93.828L199.039 92.034C198.237 91.9856 197.439 91.8723 196.652 91.6952C195.925 91.468 188.462 90.6903 188.462 90.6903L188.349 92.6153C188.349 92.6153 196.861 93.8627 198.622 94.0898C200.384 94.317 201.944 95.2217 202.255 95.7877C202.565 96.3536 203.19 96.9195 202.88 98.4826C202.569 100.046 200.493 102.333 200.493 102.333C200.394 102.171 205.485 101.77 205.435 101.178C205.326 99.9995 204.751 96.5576 204.751 96.5576L202.159 93.828Z" fill="#407BFF"/>
<path opacity="0.5" d="M202.159 93.828L199.039 92.034C198.237 91.9856 197.439 91.8723 196.652 91.6952C195.925 91.468 188.462 90.6903 188.462 90.6903L188.349 92.6153C188.349 92.6153 196.861 93.8627 198.622 94.0898C200.384 94.317 201.944 95.2217 202.255 95.7877C202.565 96.3536 203.19 96.9195 202.88 98.4826C202.569 100.046 200.493 102.333 200.493 102.333C200.412 102.159 205.495 101.767 205.435 101.178C205.27 99.6761 204.751 96.5576 204.751 96.5576L202.159 93.828Z" fill="white"/>
<path d="M212.454 74.9942C212.178 73.5851 210.124 73.7738 208.884 72.9922C207.645 72.2107 204.648 70.4013 204.648 70.4013L203.197 68.022C202.935 67.3806 202.724 66.716 202.565 66.0355L202.41 65.5658L202.128 66.0586C202.308 68.1683 202.481 73.5697 202.481 73.5697L203.102 76.9654C203.102 76.9654 205.492 88.1686 206.113 90.6595C206.735 93.1504 206.735 94.8443 206.322 95.6374C205.909 96.4305 206.046 96.7924 206.046 96.7924C206.046 96.7924 207.667 95.4257 207.568 94.0705C207.437 92.4766 212.648 75.949 212.454 74.9942Z" fill="#407BFF"/>
<path opacity="0.5" d="M212.453 74.9942C212.312 73.562 210.124 73.7738 208.884 72.9922C207.645 72.2107 204.648 70.4013 204.648 70.4013L203.197 68.022C202.935 67.3806 202.724 66.716 202.565 66.0355L202.41 65.5658L202.128 66.0586C202.308 68.1683 202.481 73.5697 202.481 73.5697L203.102 76.9654C203.102 76.9654 205.492 88.1686 206.113 90.6595C206.735 93.1504 206.735 94.8443 206.322 95.6374C205.908 96.4305 206.046 96.7924 206.046 96.7924C206.046 96.7924 207.712 95.4218 207.568 94.0705C207.402 92.6191 212.581 76.1838 212.453 74.9942Z" fill="white"/>
<path d="M203.385 73.5813C203.385 73.5813 202.735 67.2174 202.41 65.5658C202.085 63.9142 202.304 62.9749 200.899 62.9749C199.494 62.9749 197.764 62.7362 198.075 63.5639C198.386 64.3916 200.546 63.6794 200.899 64.0336C201.252 64.3878 201.005 65.2117 201.005 65.2117C201.005 65.2117 198.181 65.4503 198.181 66.2742C198.181 67.0981 198.29 69.3541 198.831 69.5736C199.371 69.793 199.586 68.5149 199.586 68.5149C199.586 68.5149 199.695 71.2098 200.236 72.1684C200.58 72.7605 200.978 73.3126 201.425 73.8162L203.385 73.5813Z" fill="white" stroke="#263238" stroke-width="1.80069" stroke-miterlimit="10" stroke-linecap="round"/>
<path d="M201.439 75.3485C201.439 75.3485 201.115 89.9782 201.655 92.3228C202.195 94.6674 205.114 97.8629 206.625 96.3306C208.136 94.7983 207.384 91.499 207.384 89.9667C207.384 88.4344 203.925 77.1194 203.925 76.2917C203.873 75.6043 203.727 74.9294 203.49 74.2897" stroke="#263238" stroke-width="1.80069" stroke-miterlimit="10" stroke-linecap="round"/>
<path d="M201.655 77.1196L203.815 76.8807" stroke="#263238" stroke-width="1.80069" stroke-miterlimit="10" stroke-linecap="round"/>
<path d="M187.837 84.4343L188.254 71.4177C188.254 71.4177 187.735 71.0789 187.527 72.3224C187.318 73.566 187.216 76.0607 187.216 76.0607C187.216 76.0607 184.724 74.3629 185.349 75.3793C185.973 76.3956 187.008 78.6632 187.008 78.6632L183.153 82.8481L184.918 83.6412L187.837 84.4343Z" fill="#407BFF"/>
<path opacity="0.5" d="M187.837 84.4343L188.254 71.4177C188.254 71.4177 187.735 71.0789 187.527 72.3224C187.318 73.566 187.216 76.0607 187.216 76.0607C187.216 76.0607 184.724 74.3629 185.349 75.3793C185.973 76.3956 187.008 78.6632 187.008 78.6632L183.153 82.8481L184.918 83.6412L187.837 84.4343Z" fill="white"/>
<path d="M193.006 74.3246C193.006 74.3246 192.808 75.0947 193.638 75.0947C194.467 75.0947 195.925 74.4517 195.925 74.4517L195.819 73.1733C195.819 73.1733 193.825 74.2322 193.006 74.3246Z" fill="#407BFF"/>
<path opacity="0.5" d="M193.006 74.3246C193.006 74.3246 192.808 75.0947 193.638 75.0947C194.467 75.0947 195.925 74.4517 195.925 74.4517L195.819 73.1733C195.819 73.1733 193.825 74.2322 193.006 74.3246Z" fill="white"/>
<path d="M196.568 65.7161C196.568 65.7161 195.487 72.6458 196.137 74.1858C196.787 75.7257 197.757 75.3639 198.513 74.6593C199.268 73.9548 200.243 72.1839 200.243 72.1839" stroke="#263238" stroke-width="1.80069" stroke-miterlimit="10" stroke-linecap="round"/>
<path d="M188.035 90.7905L188.254 100.458C188.254 100.458 190.725 103.049 195.494 103.049C200.264 103.049 205.439 101.162 205.439 101.162V97.7434" stroke="#263238" stroke-width="1.80069" stroke-miterlimit="10" stroke-linecap="round"/>
<path d="M202.629 67.098C202.629 67.098 204.574 69.2194 204.574 71.2252C204.574 73.2311 204.249 73.7008 204.249 73.7008" stroke="#263238" stroke-width="1.80069" stroke-miterlimit="10" stroke-linecap="round"/>
<path d="M204.355 70.0471C204.355 70.0471 207.275 71.9298 208.895 72.9923C210.515 74.0549 212.464 74.0511 212.464 74.9943C212.464 75.9375 207.924 91.9685 207.924 91.9685" stroke="#263238" stroke-width="1.80069" stroke-miterlimit="10" stroke-linecap="round"/>
<path d="M206.194 75.3485L205.114 80.0654" stroke="#263238" stroke-width="1.80069" stroke-miterlimit="10" stroke-linecap="round"/>
<path d="M188.063 78.1172L186.316 74.1202" stroke="#263238" stroke-width="0.900346" stroke-miterlimit="10" stroke-linecap="round"/>
<path d="M188.063 79.2603L185.444 77.5468" stroke="#263238" stroke-width="0.900346" stroke-miterlimit="10" stroke-linecap="round"/>
<path d="M196.61 88.1996L196.088 91.0567" stroke="#263238" stroke-width="0.900346" stroke-miterlimit="10" stroke-linecap="round"/>
<path d="M210.741 74.8825C210.741 74.8825 208.125 75.4524 205.683 78.687" stroke="#263238" stroke-width="0.900346" stroke-miterlimit="10" stroke-linecap="round"/>
<path d="M208.997 74.7093C208.997 74.7093 208.291 74.5168 205.859 76.8003" stroke="#263238" stroke-width="0.900346" stroke-miterlimit="10" stroke-linecap="round"/>
<path d="M196.61 75.6449L195.565 84.5844L196.437 84.7769L197.136 81.9241" stroke="#263238" stroke-width="0.900346" stroke-miterlimit="10" stroke-linecap="round"/>
<path d="M197.309 99.0447C194.167 101.902 189.807 101.709 189.807 101.709" stroke="#263238" stroke-width="0.900346" stroke-miterlimit="10" stroke-linecap="round"/>
<path d="M184.032 83.5181C184.032 83.5181 181.896 81.3849 178.871 84.0996" stroke="#263238" stroke-width="0.900346" stroke-miterlimit="10" stroke-linecap="round"/>
<path d="M196.359 67.4522C196.359 67.4522 195.494 67.687 194.52 69.3386C193.546 70.9903 192.36 73.8161 193.224 74.0509C194.089 74.2858 195.696 73.227 195.696 73.227" stroke="#263238" stroke-width="1.80069" stroke-miterlimit="10" stroke-linecap="round"/>
<path d="M199.709 73.7007L200.79 74.7593" stroke="#263238" stroke-width="1.80069" stroke-miterlimit="10" stroke-linecap="round"/>
<path d="M194.845 68.6303C194.845 68.6303 190.845 69.2193 189.225 69.3387C187.604 69.458 187.919 70.1087 187.389 70.5168C186.535 71.1674 176.735 84.7153 176.092 86.0127C175.45 87.3101 175.552 87.8992 176.633 88.2534C177.713 88.6076 188.473 90.6711 188.473 90.6711L197.98 91.7337L198.735 89.1388C198.735 89.1388 200.945 89.4584 201.333 89.4584" stroke="#263238" stroke-width="1.80069" stroke-miterlimit="10" stroke-linecap="round"/>
<path d="M197.655 88.1846C195.557 87.5207 193.529 86.6172 191.604 85.4892" stroke="#263238" stroke-width="1.80069" stroke-miterlimit="10" stroke-linecap="round"/>
<path d="M190.739 85.251C190.739 85.251 187.562 83.9647 185.843 83.7297C184.124 83.4948 181.49 83.4178 181.49 83.4178" stroke="#263238" stroke-width="1.80069" stroke-miterlimit="10" stroke-linecap="round"/>
<path d="M187.82 83.7182L188.145 74.4052" stroke="#263238" stroke-width="1.80069" stroke-miterlimit="10" stroke-linecap="round"/>
<path d="M197.98 91.7337C198.721 92.1404 199.498 92.4655 200.299 92.704" stroke="#263238" stroke-width="1.80069" stroke-miterlimit="10" stroke-linecap="round"/>
<path d="M56.5351 84.2302L57.8096 76.6343L65.8761 73.1694C65.8761 73.1694 66.2679 70.8094 66.6633 70.7054C67.0587 70.6015 67.447 69.6313 67.447 69.6313L67.2528 67.6871C67.2528 67.6871 67.9907 64.6072 71.7009 67.0057C71.7009 67.0057 70.5783 67.8218 70.7725 68.1606C70.9666 68.4994 70.5571 69.5774 71.0478 69.5774C71.5385 69.5774 72.5305 70.2588 73.0318 70.8094C73.3826 71.2205 73.6927 71.6708 73.9567 72.153L78.1329 72.4148C78.561 72.4187 78.9869 72.4821 79.4003 72.6034C79.4709 70.3782 79.2202 68.6804 78.726 67.3598C76.9291 62.5936 73.6531 60.892 73.1836 58.505C72.7141 56.1181 72.9506 55.8678 72.9506 55.8678C73.428 55.3385 73.7775 54.6882 73.9679 53.9753C74.1583 53.2625 74.1835 52.5092 74.0414 51.7831C73.5754 49.2306 71.7786 47.4404 65.3006 47.1016C58.8227 46.7628 59.7618 51.6098 59.7618 51.6098L59.8394 51.9486C59.8394 51.9486 55.702 53.4886 56.4857 59.1826C57.2694 64.8766 59.5288 67.3521 59.4511 69.1385C59.3734 70.9249 56.9517 71.6063 53.5168 75.6834C50.0819 79.7604 49.383 85.8934 50.788 89.8934C51.494 91.8607 52.8743 93.5008 54.6077 94.7251L56.5351 84.2302Z" fill="#263238"/>
<path d="M61.9432 84.9809V86.698L58.9531 96.7732C60.8215 97.3124 62.781 97.3573 64.6685 96.9041C65.734 96.6013 66.7524 96.1277 67.6904 95.4989L61.9432 84.9809Z" fill="#263238"/>
<path d="M70.5392 68.0991L70.8922 69.8315C70.8922 69.8315 71.9513 68.6765 74.02 72.1838C74.02 72.1838 78.3197 72.0722 79.4918 72.7113C79.4918 72.7113 79.7354 72.7883 80.5297 73.7084C81.3239 74.6285 84.3105 77.5583 84.3105 77.5583C84.3105 77.5583 88.1443 81.439 88.5256 81.7393C88.9068 82.0396 90.3366 83.5295 91.4062 84.0493L94.2727 76.9308L95.5507 73.4081L96.2567 70.5091H96.4826L96.5321 68.1722L96.3591 65.3849C96.3872 65.2431 96.4466 65.111 96.5321 64.9999C96.828 64.5525 97.0557 64.0559 97.2063 63.5292C97.2063 63.2674 96.9627 61.7197 96.9627 61.7197C96.9627 61.7197 96.8427 61.3347 97.1039 61.2885C97.3652 61.2423 98.3289 61.6081 98.449 62.3434L98.802 62.2125C99.0943 61.4508 99.4587 60.7243 99.8893 60.045C100.461 59.2365 101.047 58.7283 101.411 58.9901C101.511 59.0652 101.582 59.1766 101.614 59.3044C101.645 59.4322 101.633 59.5679 101.58 59.687L100.444 61.9661C100.444 61.9661 99.9422 62.7015 100.564 62.9633C100.564 62.9633 101.909 63.9065 101.997 64.7342C102.085 65.562 101.598 66.2742 101.167 66.8825C100.737 67.4908 99.9775 68.8074 99.9775 68.8074L99.095 69.6583L98.742 71.1251L99.1585 71.691L98.5372 74.6285L98.0889 76.8307L97.8629 78.1666L96.4509 83.441L95.0388 88.0378C95.0388 88.0378 94.3116 90.6712 92.55 90.598C90.7884 90.5249 88.8574 89.4854 88.2326 89.1466C87.6077 88.8078 82.4571 85.8741 82.4571 85.8741L81.3981 85.3275C81.5394 85.8533 81.6003 86.4009 81.5781 86.9483C81.5605 87.9647 80.5579 90.2053 80.2649 90.7135L80.0919 94.6866C80.0235 95.3759 80.0354 96.0718 80.1272 96.7579C80.2825 97.7935 81.0768 103.653 81.2498 104.385C81.2498 104.385 79.5341 106.079 74.4224 106.883C69.3107 107.688 66.9172 106.383 66.9172 106.383L64.6402 104.924L67.4467 98.8753C67.4467 98.8753 68.1528 97.0774 68.0822 96.6039C68.0116 96.1303 66.8042 94.0899 66.8042 94.0899L62.3738 85.4892L62.1655 85.5662L61.4772 88.0763L58.9884 96.5885L55.7123 107.214C55.7123 107.214 54.8157 109.909 54.445 110.706L53.4107 114.144C53.4681 114.758 53.6072 115.36 53.8237 115.931L51.2219 114.094L51.6844 111.399L52.2598 107.38L52.9658 103.01L53.5872 99.3951L54.5791 94.575L54.9322 93.2429L55.6382 89.4777L56.8808 82.6479L57.9399 76.7999L65.3533 73.5852L65.8158 73.2002C65.9186 72.4559 66.1692 71.7451 66.5501 71.1174C66.8144 70.7044 67.1291 70.3327 67.4856 70.0125C67.4856 70.0125 67.4503 69.5081 67.4255 69.0307C67.4008 68.5533 67.2879 67.6756 67.2879 67.6756C67.2879 67.6756 69.579 68.7497 70.5392 68.0991Z" fill="white"/>
<path d="M60.6086 52.6267C60.6086 52.6267 61.9819 49.3119 64.7284 49.3119C67.4749 49.3119 73.162 55.1945 73.162 55.1945" stroke="white" stroke-width="0.900346" stroke-miterlimit="10" stroke-linecap="round"/>
<path d="M61.7842 53.1509C61.7842 53.1509 63.4504 51.2256 65.5121 51.9726C67.5737 52.7196 67.8667 55.3958 67.8667 55.3958" stroke="white" stroke-width="0.900346" stroke-miterlimit="10" stroke-linecap="round"/>
<path d="M60.4109 53.4808C60.4109 53.4808 57.961 54.9784 57.7633 57.7619C57.5656 60.5454 61.1947 63.8564 61.6853 67.6024C62.176 71.3483 59.6272 72.1992 55.5075 75.3022C51.3878 78.4053 52.0761 85.3544 52.9587 86.852" stroke="white" stroke-width="0.900346" stroke-miterlimit="10" stroke-linecap="round"/>
<path d="M53.4495 87.7106C53.4495 87.7106 54.0355 89.1005 54.918 89.5279" stroke="white" stroke-width="0.900346" stroke-miterlimit="10" stroke-linecap="round"/>
<path d="M60.7074 60.7534C60.5914 61.0251 60.5394 61.324 60.556 61.6232C60.5727 61.9223 60.6575 62.2122 60.8027 62.4666C61.2934 63.4291 65.039 68.2415 64.7283 70.4898C64.4177 72.7381 62.4725 74.1241 62.4725 74.1241" stroke="white" stroke-width="0.900346" stroke-miterlimit="10" stroke-linecap="round"/>
<path d="M62.5678 53.4808C62.5678 53.4808 60.312 54.5511 60.4109 57.0113C60.5097 59.4714 61.0004 60.1143 61.0004 60.1143" stroke="white" stroke-width="0.900346" stroke-miterlimit="10" stroke-linecap="round"/>
<path d="M73.1621 61.6196C73.863 63.3501 74.8248 64.9403 76.0075 66.3242C77.7726 68.2492 77.9667 71.0327 77.9667 71.0327" stroke="white" stroke-width="0.900346" stroke-miterlimit="10" stroke-linecap="round"/>
<path d="M75.2202 67.7064C75.2202 67.7064 76.1027 69.9551 76.1027 71.3451" stroke="white" stroke-width="0.900346" stroke-miterlimit="10" stroke-linecap="round"/>
<path d="M70.338 68.3031L67.5668 71.025C67.5668 71.025 67.2703 71.8489 66.7125 73.1694C66.1548 74.4899 66.2465 77.0193 66.2465 77.0193L67.9552 80.7268C67.9552 80.7268 64.6685 76.6151 64.4814 76.1069C64.2943 75.5987 60.8559 76.515 60.2064 76.8191C59.5568 77.1233 58.7166 77.7315 58.9037 78.644C59.0908 79.5564 59.9275 80.7691 59.5533 80.9732C59.1791 81.1772 58.1589 80.669 58.1589 81.2773C58.1589 81.8856 59.3697 84.2187 58.8119 85.0271C58.2542 85.8356 54.7204 98.9176 54.7204 98.9176C54.7204 98.9176 56.9515 96.8887 56.3938 97.7011C55.836 98.5134 53.1424 105.101 53.1424 105.101L52.1187 108.951L54.5369 95.2679L56.5809 83.7182L57.8094 76.6343C58.9955 76.2031 65.8759 73.1694 65.8759 73.1694C65.8759 73.1694 66.4195 70.6746 67.4468 69.6313L67.2526 67.6871C67.2526 67.6871 69.1272 68.4032 70.338 68.3031Z" fill="#407BFF"/>
<path opacity="0.5" d="M70.338 68.3031L67.5668 71.025C67.5668 71.025 67.2703 71.8489 66.7125 73.1694C66.1548 74.4899 66.2465 77.0193 66.2465 77.0193L67.9552 80.7268C67.9552 80.7268 64.6685 76.6151 64.4814 76.1069C64.2943 75.5987 60.8559 76.515 60.2064 76.8191C59.5568 77.1233 58.7166 77.7315 58.9037 78.644C59.0908 79.5564 59.9275 80.7691 59.5533 80.9732C59.1791 81.1772 58.1589 80.669 58.1589 81.2773C58.1589 81.8856 59.3697 84.2187 58.8119 85.0271C58.2542 85.8356 54.7204 98.9176 54.7204 98.9176C54.7204 98.9176 56.9515 96.8887 56.3938 97.7011C55.836 98.5134 53.1424 105.101 53.1424 105.101L52.1187 108.951L54.5369 95.2679L56.5809 83.7182L57.8094 76.6343C58.9955 76.2031 65.8759 73.1694 65.8759 73.1694C65.8759 73.1694 66.0241 70.8594 67.4503 70.051L67.2526 67.6871C67.2526 67.6871 69.1272 68.4032 70.338 68.3031Z" fill="white"/>
<path d="M80.6531 81.9858C80.6531 81.9858 82.3264 78.9481 82.5135 79.6565C82.7006 80.3649 82.0475 82.7942 82.0475 82.7942C82.0475 82.7942 83.8126 82.0859 83.629 82.6941C83.4455 83.3024 83.0713 83.6066 83.163 83.9107C83.2548 84.2149 89.2985 87.6606 90.0434 88.0648C90.7883 88.4691 92.5534 86.1398 93.39 86.8482C94.2267 87.5566 93.39 89.9859 91.7167 89.9898C90.0434 89.9936 85.2106 87.6798 85.2106 87.6798L81.405 85.2659" fill="#407BFF"/>
<path opacity="0.5" d="M80.6531 81.9858C80.6531 81.9858 82.3264 78.9481 82.5135 79.6565C82.7006 80.3649 82.0475 82.7942 82.0475 82.7942C82.0475 82.7942 83.8126 82.0859 83.629 82.6941C83.4455 83.3024 83.0713 83.6066 83.163 83.9107C83.2548 84.2149 89.2985 87.6606 90.0434 88.0648C90.7883 88.4691 92.5534 86.1398 93.39 86.8482C94.2267 87.5566 93.39 89.9859 91.7167 89.9898C90.0434 89.9936 85.2106 87.6798 85.2106 87.6798L81.4191 85.2736" fill="white"/>
<path d="M70.6169 94.2524C70.6169 94.2524 81.4829 87.9681 79.7178 90.2978C77.9527 92.6274 72.1032 95.269 70.6169 94.2524Z" fill="#407BFF"/>
<path opacity="0.5" d="M70.6169 94.2524C70.6169 94.2524 81.4829 87.9681 79.7178 90.2978C77.9527 92.6274 72.1032 95.269 70.6169 94.2524Z" fill="white"/>
<path d="M67.2524 67.7064C67.2524 67.7064 67.3301 69.3234 67.5666 71.025C67.8032 72.7267 67.722 72.7267 69.2046 74.7671C70.6873 76.8076 72.2477 78.5131 72.4807 78.1743" stroke="#263238" stroke-width="1.80069" stroke-miterlimit="10" stroke-linecap="round"/>
<path d="M72.5585 77.5775C72.5585 77.5775 72.7138 74.5977 72.1701 72.6419C71.6265 70.6862 70.8428 70.0009 70.8428 69.562C70.8164 69.1047 70.7645 68.6496 70.6875 68.1991" stroke="#263238" stroke-width="1.80069" stroke-miterlimit="10" stroke-linecap="round"/>
<path d="M67.2525 70.1742C66.629 70.7865 66.1928 71.5928 66.0028 72.4842C65.7699 73.8432 65.5369 75.4601 65.5369 75.4601L67.9551 80.7383C68.1656 79.8192 68.4798 78.9321 68.8906 78.0973C69.094 77.6853 69.3575 77.3121 69.6707 76.9924" stroke="#263238" stroke-width="1.80069" stroke-miterlimit="10" stroke-linecap="round"/>
<path d="M73.1055 76.1299C73.2763 76.0833 73.4538 76.0743 73.6278 76.1034C73.8017 76.1324 73.9686 76.1991 74.1187 76.2993C74.7435 76.642 75.9932 78.4283 75.9932 78.4283C75.9932 78.4283 75.1354 74.0009 73.6527 71.7064C72.17 69.4119 71.1533 69.5774 71.1533 69.5774" stroke="#263238" stroke-width="1.80069" stroke-miterlimit="10" stroke-linecap="round"/>
<path d="M65.3002 73.4928L57.8091 76.6343C57.8091 76.6343 55.0803 92.8886 54.0636 97.2275C53.0469 101.566 51.3347 113.824 51.3347 113.824L53.3611 114.248L54.0671 112.038" stroke="#263238" stroke-width="1.69767" stroke-linecap="round" stroke-linejoin="round"/>
<path d="M54.4556 110.768C54.4556 110.768 54.9216 109.998 56.1712 105.763C57.4209 101.528 60.7605 91.1331 61.3218 89.0811C61.8831 87.0291 62.335 85.6778 62.335 85.6778" stroke="#263238" stroke-width="1.80069" stroke-miterlimit="10" stroke-linecap="round"/>
<path d="M61.0076 83.1792C61.0076 83.1792 67.3266 95.4989 67.8738 96.0302C68.421 96.5615 67.6408 97.9859 67.4819 98.7521" stroke="#263238" stroke-width="1.80069" stroke-miterlimit="10" stroke-linecap="round"/>
<path d="M66.7832 100.3L64.7568 104.897C64.7568 104.897 66.0842 107.11 71.7007 107.11C75.0432 107.121 78.3378 106.244 81.2993 104.554C81.2993 104.554 79.972 96.8964 80.0497 95.5336C80.1273 94.1707 80.2862 90.598 80.2862 90.598C80.2862 90.598 81.6983 88.288 81.5323 86.5132C81.3664 84.7384 80.6745 82.6825 80.6745 82.3437C80.6745 82.0049 80.5192 78.3437 80.5192 78.3437" stroke="#263238" stroke-width="1.80069" stroke-miterlimit="10" stroke-linecap="round"/>
<path d="M71.6899 92.7354L77.2818 88.9927" stroke="#263238" stroke-width="0.900346" stroke-miterlimit="10" stroke-linecap="round"/>
<path d="M74.6343 91.5609L77.6738 89.6355" stroke="#263238" stroke-width="0.900346" stroke-miterlimit="10" stroke-linecap="round"/>
<path d="M91.3673 84.1301L90.2271 87.176" stroke="#263238" stroke-width="0.900346" stroke-miterlimit="10" stroke-linecap="round"/>
<path d="M90.9119 85.4623L89.8352 86.6411" stroke="#263238" stroke-width="0.900346" stroke-miterlimit="10" stroke-linecap="round"/>
<path d="M59.0378 96.269C59.0378 96.269 57.1738 98.6216 55.8994 99.5843" stroke="#263238" stroke-width="0.900346" stroke-miterlimit="10" stroke-linecap="round"/>
<path d="M57.9611 96.908C57.9611 96.908 54.7239 99.6882 53.9402 100.331" stroke="#263238" stroke-width="0.900346" stroke-miterlimit="10" stroke-linecap="round"/>
<path d="M58.5363 77.1194C59.5122 78.6245 60.3966 80.1977 61.184 81.8288" stroke="#263238" stroke-width="0.900346" stroke-miterlimit="10" stroke-linecap="round"/>
<path d="M61.4912 82.5746L62.176 83.857" stroke="#263238" stroke-width="0.900346" stroke-miterlimit="10" stroke-linecap="round"/>
<path d="M80.6743 82.3446L81.5321 77.5775" stroke="#263238" stroke-width="0.900346" stroke-miterlimit="10" stroke-linecap="round"/>
<path d="M80.9885 82.683L82.3123 80.6421" stroke="#263238" stroke-width="0.900346" stroke-miterlimit="10" stroke-linecap="round"/>
<path d="M62.3349 85.6628L58.5894 83.4487" stroke="#263238" stroke-width="0.900346" stroke-miterlimit="10" stroke-linecap="round"/>
<path d="M72.403 78.5978C72.403 78.5978 73.8151 81.6783 74.2776 83.8771" stroke="#263238" stroke-width="0.900346" stroke-miterlimit="10" stroke-linecap="round"/>
<path d="M95.5789 73.2348C95.9524 73.2048 96.3276 73.2575 96.6819 73.3898C97.0362 73.522 97.3623 73.7311 97.6405 74.0044" stroke="#263238" stroke-width="0.900346" stroke-miterlimit="10" stroke-linecap="round"/>
<path d="M52.6905 111.711L53.6577 112.104" stroke="#263238" stroke-width="0.900346" stroke-miterlimit="10" stroke-linecap="round"/>
<path d="M51.3102 113.979C51.3223 115.442 51.2516 116.905 51.0984 118.36C50.8654 120.15 50.943 124.235 51.2537 125.509C51.5643 126.783 51.7232 127.049 52.0339 126.279C52.3445 125.509 53.2836 121.005 53.2836 121.005C53.2836 121.005 53.4389 123.981 54.1414 123.726C54.8439 123.472 54.4556 122.025 54.4556 120.747C54.4556 119.468 54.5332 119.045 54.4556 118.025C54.3779 117.005 53.3365 114.483 53.3365 114.483" fill="white"/>
<path d="M51.3102 113.979C51.3223 115.442 51.2516 116.905 51.0984 118.36C50.8654 120.15 50.943 124.235 51.2537 125.509C51.5643 126.783 51.7232 127.049 52.0339 126.279C52.3445 125.509 53.2836 121.005 53.2836 121.005C53.2836 121.005 53.4389 123.981 54.1414 123.726C54.8439 123.472 54.4556 122.025 54.4556 120.747C54.4556 119.468 54.5332 119.045 54.4556 118.025C54.3779 117.005 53.3365 114.483 53.3365 114.483" stroke="#263238" stroke-width="1.69767" stroke-miterlimit="10" stroke-linecap="round"/>
<path d="M96.4897 70.4436C96.4542 69.6908 96.4542 68.9365 96.4897 68.1837C96.5532 67.4753 96.2955 66.4166 96.359 65.4888C96.4226 64.5609 97.2663 64.2183 97.1357 63.0171C97.0051 61.8159 96.7474 61.6735 96.9415 61.3924C97.1357 61.1114 98.3536 61.531 98.4313 62.3087C98.5005 63.109 98.5005 63.9146 98.4313 64.7149C98.3677 64.9267 98.8196 66.2549 98.5619 66.8324C98.4142 67.1452 98.305 67.4779 98.2371 67.8218" stroke="#263238" stroke-width="1.49539" stroke-miterlimit="10" stroke-linecap="round"/>
<path d="M98.6924 62.2472C98.6924 62.2472 100.182 58.9978 101.026 58.9247C101.87 58.8515 101.608 59.6947 101.347 60.1259C101.086 60.5571 100.246 62.1047 100.182 62.7438C100.119 63.3829 99.3384 65.4965 99.3384 65.4965" stroke="#263238" stroke-width="1.49539" stroke-miterlimit="10" stroke-linecap="round"/>
<path d="M100.193 62.7438C100.193 62.7438 102.463 64.2263 101.958 65.4393C101.453 66.6522 101.178 67.1374 100.789 66.9795C100.445 66.7876 100.137 66.5263 99.8821 66.2094" stroke="#263238" stroke-width="1.49539" stroke-miterlimit="10" stroke-linecap="round"/>
<path d="M101.026 66.9827C101.026 66.9827 100.44 68.0416 99.9883 68.6808C99.7284 69.0499 99.4204 69.3756 99.0739 69.6473L98.7986 70.6908" stroke="#263238" stroke-width="1.49539" stroke-miterlimit="10" stroke-linecap="round"/>
<path d="M73.8081 72.13C73.8081 72.13 79.1917 72.0453 79.8942 72.9808C80.5967 73.9163 89.1045 82.4285 90.1318 83.1946C91.159 83.9607 91.3814 84.1301 91.3814 84.1301C91.3814 84.1301 95.593 73.7354 95.593 73.2349C95.593 72.7344 96.299 70.4283 96.299 70.4283C96.299 70.4283 97.6264 70.5977 97.9406 70.5977C98.2547 70.5977 99.1091 71.7065 99.1091 71.7065C99.1091 71.7065 97.9406 76.8961 97.9406 77.4813C97.9406 78.0665 95.7554 86.1629 94.7387 88.6461C93.722 91.1292 92.3205 90.7712 90.0576 90.0051C87.7948 89.2389 81.631 85.4121 81.631 85.4121" stroke="#263238" stroke-width="1.80069" stroke-miterlimit="10" stroke-linecap="round"/>
<path d="M64.7566 104.897C64.7566 104.897 61.6324 113.42 60.7887 119.222C59.945 125.024 60.3051 138.591 60.0615 140.043C59.8179 141.494 56.436 148.343 56.436 151.638C56.436 154.934 54.625 171.931 54.625 171.931L55.8323 172.721C55.8323 172.721 60.0685 158.476 61.6324 154.799C63.1963 151.123 65.378 142.414 65.9816 140.701C66.5853 138.988 70.818 125.282 71.0581 123.569C71.2981 121.856 72.749 117.64 72.749 117.64C72.749 117.64 75.8909 138.591 76.4946 142.942C77.0982 147.292 81.3274 170.877 81.3274 170.877C81.6052 170.951 81.889 170.994 82.1747 171.007C82.5277 171.007 82.6583 170.349 82.6583 170.349C82.6583 170.349 84.3493 153.613 83.8656 149.132C83.382 144.651 81.9346 139.122 81.9346 137.536C81.9346 135.95 84.1092 122.252 84.1092 117.517C84.1092 112.781 81.2851 104.562 81.2851 104.562C81.2851 104.562 71.2628 110.075 64.7566 104.897Z" fill="#263238"/>
<path d="M81.8889 138.406C81.8889 138.406 80.8122 143.434 79.3401 146.106" stroke="white" stroke-width="0.900346" stroke-miterlimit="10" stroke-linecap="round"/>
<path d="M81.5956 143.542C81.5956 143.542 80.7131 147.177 78.948 148.891" stroke="white" stroke-width="0.900346" stroke-miterlimit="10" stroke-linecap="round"/>
<path d="M60.7075 141.937C60.7075 141.937 61.3924 146.322 62.1761 148.139" stroke="white" stroke-width="0.900346" stroke-miterlimit="10" stroke-linecap="round"/>
<path d="M60.5098 144.505C60.5098 144.505 61.0993 147.608 62.176 149.426" stroke="white" stroke-width="0.900346" stroke-miterlimit="10" stroke-linecap="round"/>
<path d="M73.0632 117.66L76.9853 114.129" stroke="white" stroke-width="0.900346" stroke-miterlimit="10" stroke-linecap="round"/>
<path d="M74.9272 116.162L79.5377 113.913" stroke="white" stroke-width="0.900346" stroke-miterlimit="10" stroke-linecap="round"/>
<path d="M64.8237 110.171C64.8237 110.171 67.8667 112.308 69.6318 114.129" stroke="white" stroke-width="0.900346" stroke-miterlimit="10" stroke-linecap="round"/>
<path d="M54.7521 171.92C54.7521 171.92 50.1628 176.155 50.1628 178.257C50.1628 180.359 51.9738 180.232 53.9084 178.257C55.8429 176.282 55.9418 172.212 55.9418 172.212L54.7521 171.92Z" fill="white" stroke="#263238" stroke-width="1.80069" stroke-miterlimit="10" stroke-linecap="round"/>
<path d="M81.3274 170.876C81.3274 170.876 82.8983 175.092 84.5928 176.94C86.2873 178.788 87.2511 179.443 87.2511 177.464C87.2511 175.485 86.1638 173.248 82.6618 170.349C82.6583 170.349 83.6256 171.138 81.3274 170.876Z" fill="white" stroke="#263238" stroke-width="1.80069" stroke-miterlimit="10" stroke-linecap="round"/>
<path d="M65.1168 54.1892C64.8026 54.0622 64.5061 53.9082 64.1989 53.7658C63.8918 53.6233 63.3305 53.5463 63.1187 54.5973C62.8045 56.1373 64.9897 57.4078 64.2872 58.6821C63.8501 59.4574 63.1933 60.0561 62.4162 60.3876C62.2897 60.4351 62.1579 60.4636 62.0243 60.4723C61.3995 60.557 60.3863 60.4723 60.697 61.662C61.0076 62.8516 62.0243 63.8757 62.6492 63.8757H63.274C63.274 63.8757 63.9801 66.1856 66.6277 67.4484C69.2754 68.7112 71.0758 68.6419 71.7006 67.0249C72.3254 65.4079 72.795 64.0451 72.795 61.9161C72.795 59.7871 72.0889 56.2143 72.0889 56.2143C72.0889 56.2143 71.4641 57.1537 69.0459 55.9602C67.4467 55.171 65.9499 54.5319 65.1168 54.1892Z" fill="white"/>
<g style="mix-blend-mode:multiply" opacity="0.5">
<path d="M69.0494 55.9603C69.0494 55.9603 65.318 55.7331 64.7602 55.8332C64.2024 55.9333 64.852 57.7582 64.6684 59.583C64.4848 61.4079 64.5731 64.3492 65.318 65.2616C66.197 66.2024 67.1283 67.0832 68.1068 67.8988C68.1068 67.8988 65.2438 67.3945 64.2024 66.074C63.161 64.7535 62.9951 64.0451 62.9951 64.0451C62.9951 64.0451 60.5769 62.5051 60.3898 61.3078C60.2027 60.1105 61.8019 60.7457 62.568 60.1528C62.9986 59.8294 64.7814 59.2211 64.3331 57.6003C63.8847 55.9795 63.161 55.6754 63.1328 54.5897C63.1116 53.8197 63.7329 53.5964 64.1142 53.5271C64.2861 53.4956 64.4627 53.5238 64.619 53.608L69.0494 55.9603Z" fill="#407BFF"/>
</g>
<path d="M65.1168 54.1892C64.8026 54.0622 64.5061 53.9082 64.1989 53.7658C63.8918 53.6233 63.3305 53.5463 63.1187 54.5973C62.8045 56.1373 64.9897 57.4078 64.2872 58.6821C63.8501 59.4574 63.1933 60.0561 62.4162 60.3876C62.2897 60.4351 62.1579 60.4636 62.0243 60.4723C61.3995 60.557 60.3863 60.4723 60.697 61.662C61.0076 62.8516 62.0243 63.8757 62.6492 63.8757H63.274C63.274 63.8757 63.9801 66.1856 66.6277 67.4484C69.2754 68.7112 71.0758 68.6419 71.7006 67.0249C72.3254 65.4079 72.795 64.0451 72.795 61.9161C72.795 59.7871 72.0889 56.2143 72.0889 56.2143C72.0889 56.2143 71.4641 57.1537 69.0459 55.9602C67.4467 55.171 65.9499 54.5319 65.1168 54.1892Z" stroke="#263238" stroke-width="1.80069" stroke-miterlimit="10" stroke-linecap="round"/>
<path d="M67.8738 59.2331C67.9233 59.5566 67.8421 59.8417 67.6903 59.8686C67.5385 59.8956 67.3831 59.6529 67.3372 59.3294C67.2913 59.0058 67.3725 58.7169 67.5208 58.69C67.6691 58.663 67.8244 58.9249 67.8738 59.2331Z" fill="#263238"/>
<path d="M71.1039 58.6437C71.1498 58.9672 71.0686 59.2521 70.9203 59.2791C70.7721 59.306 70.6132 59.0634 70.5673 58.74C70.5214 58.4166 70.5991 58.1316 70.7474 58.1047C70.8956 58.0777 71.0545 58.3203 71.1039 58.6437Z" fill="#263238"/>
<path d="M66.0029 57.6619C66.2004 57.3417 66.4684 57.0805 66.7822 56.9023C67.0961 56.7241 67.446 56.6345 67.7998 56.6417" stroke="#263238" stroke-width="1.80069" stroke-miterlimit="10" stroke-linecap="round"/>
<path d="M70.218 56.8957C70.5179 56.7814 70.8425 56.7692 71.1489 56.8606C71.4553 56.952 71.729 57.1428 71.9337 57.4076" stroke="#263238" stroke-width="1.80069" stroke-miterlimit="10" stroke-linecap="round"/>
<path d="M69.9072 58.3433C69.8641 58.8814 69.8641 59.4225 69.9072 59.9606C69.9849 60.6422 70.4509 60.8116 70.2955 61.3238C70.1402 61.8359 69.5154 61.8321 69.5154 61.8321" stroke="#263238" stroke-width="1.80069" stroke-miterlimit="10" stroke-linecap="round"/>
<path d="M68.7352 63.8759C68.4678 63.9448 68.1899 63.9499 67.9206 63.8907C67.6513 63.8315 67.3969 63.7095 67.1748 63.533" stroke="#263238" stroke-width="1.80069" stroke-miterlimit="10" stroke-linecap="round"/>
<defs>
<filter id="filter0_d" x="8.48836" y="0" width="254.651" height="254.651" filterUnits="userSpaceOnUse" color-interpolation-filters="sRGB">
<feFlood flood-opacity="0" result="BackgroundImageFix"/>
<feColorMatrix in="SourceAlpha" type="matrix" values="0 0 0 0 0 0 0 0 0 0 0 0 0 0 0 0 0 0 127 0"/>
<feOffset dy="6.7907"/>
<feGaussianBlur stdDeviation="3.39535"/>
<feColorMatrix type="matrix" values="0 0 0 0 0 0 0 0 0 0 0 0 0 0 0 0 0 0 0.2 0"/>
<feBlend mode="normal" in2="BackgroundImageFix" result="effect1_dropShadow"/>
<feBlend mode="normal" in="SourceGraphic" in2="effect1_dropShadow" result="shape"/>
</filter>
<linearGradient id="paint0_linear" x1="135.814" y1="112.047" x2="135.814" y2="439.783" gradientUnits="userSpaceOnUse">
<stop stop-color="#29B681"/>
<stop offset="1" stop-color="#39B7FD"/>
</linearGradient>
<linearGradient id="paint1_linear" x1="218.241" y1="100.996" x2="218.241" y2="197.484" gradientUnits="userSpaceOnUse">
<stop stop-color="#29B681"/>
<stop offset="1" stop-color="#39B7FD"/>
</linearGradient>
<linearGradient id="paint2_linear" x1="125.858" y1="151.195" x2="125.858" y2="182.074" gradientUnits="userSpaceOnUse">
<stop stop-color="#29B681"/>
<stop offset="1" stop-color="#39B7FD"/>
</linearGradient>
<linearGradient id="paint3_linear" x1="150.488" y1="156.391" x2="150.488" y2="180.255" gradientUnits="userSpaceOnUse">
<stop stop-color="#29B681"/>
<stop offset="1" stop-color="#39B7FD"/>
</linearGradient>
<linearGradient id="paint4_linear" x1="111.589" y1="105.767" x2="111.589" y2="135.818" gradientUnits="userSpaceOnUse">
<stop stop-color="#29B681"/>
<stop offset="1" stop-color="#39B7FD"/>
</linearGradient>
<linearGradient id="paint5_linear" x1="140.442" y1="105.767" x2="140.442" y2="134.633" gradientUnits="userSpaceOnUse">
<stop stop-color="#29B681"/>
<stop offset="1" stop-color="#39B7FD"/>
</linearGradient>
<linearGradient id="paint6_linear" x1="165.514" y1="105.767" x2="165.514" y2="118.677" gradientUnits="userSpaceOnUse">
<stop stop-color="#29B681"/>
<stop offset="1" stop-color="#39B7FD"/>
</linearGradient>
<linearGradient id="paint7_linear" x1="119.032" y1="78.5863" x2="119.032" y2="90.6181" gradientUnits="userSpaceOnUse">
<stop stop-color="#29B681"/>
<stop offset="1" stop-color="#39B7FD"/>
</linearGradient>
<linearGradient id="paint8_linear" x1="128.617" y1="68.1876" x2="128.617" y2="96.2639" gradientUnits="userSpaceOnUse">
<stop stop-color="#29B681"/>
<stop offset="1" stop-color="#39B7FD"/>
</linearGradient>
<linearGradient id="paint9_linear" x1="138.204" y1="53.631" x2="138.204" y2="84.9194" gradientUnits="userSpaceOnUse">
<stop stop-color="#29B681"/>
<stop offset="1" stop-color="#39B7FD"/>
</linearGradient>
<linearGradient id="paint10_linear" x1="147.789" y1="75.3214" x2="147.789" y2="81.3412" gradientUnits="userSpaceOnUse">
<stop stop-color="#29B681"/>
<stop offset="1" stop-color="#39B7FD"/>
</linearGradient>
<linearGradient id="paint11_linear" x1="157.374" y1="72.6458" x2="157.374" y2="88.2899" gradientUnits="userSpaceOnUse">
<stop stop-color="#29B681"/>
<stop offset="1" stop-color="#39B7FD"/>
</linearGradient>
<linearGradient id="paint12_linear" x1="114.12" y1="34.0272" x2="114.12" y2="37.7389" gradientUnits="userSpaceOnUse">
<stop stop-color="#29B681"/>
<stop offset="1" stop-color="#39B7FD"/>
</linearGradient>
<linearGradient id="paint13_linear" x1="129.324" y1="30.1773" x2="129.324" y2="33.8891" gradientUnits="userSpaceOnUse">
<stop stop-color="#29B681"/>
<stop offset="1" stop-color="#39B7FD"/>
</linearGradient>
<linearGradient id="paint14_linear" x1="144.529" y1="40.9879" x2="144.529" y2="44.6994" gradientUnits="userSpaceOnUse">
<stop stop-color="#29B681"/>
<stop offset="1" stop-color="#39B7FD"/>
</linearGradient>
<linearGradient id="paint15_linear" x1="159.733" y1="23.3092" x2="159.733" y2="27.0206" gradientUnits="userSpaceOnUse">
<stop stop-color="#29B681"/>
<stop offset="1" stop-color="#39B7FD"/>
</linearGradient>
<linearGradient id="paint16_linear" x1="174.938" y1="47.4944" x2="174.938" y2="51.2058" gradientUnits="userSpaceOnUse">
<stop stop-color="#29B681"/>
<stop offset="1" stop-color="#39B7FD"/>
</linearGradient>
</defs>
</svg>
